ram/ram_top.vcd
$version Generated by VerilatedVcd $end
$date Fri Dec  9 15:36:17 2022 $end
$timescale 1ps $end

 $scope module TOP $end
  $var wire 32 ( a_i [31:0] $end
  $var wire  1 $ clk_i $end
  $var wire  1 & memsign_i $end
  $var wire  2 % memtype_i [1:0] $end
  $var wire 32 ) rd_o [31:0] $end
  $var wire 32 ' wd_i [31:0] $end
  $var wire  1 # write_en_i $end
  $scope module ram_top $end
   $var wire 32 , RDWire [31:0] $end
   $var wire 40 * WDWire [39:0] $end
   $var wire 32 / WIDTH [31:0] $end
   $var wire 32 ( a_i [31:0] $end
   $var wire  2 . a_i_end [1:0] $end
   $var wire 32 - a_ii [31:0] $end
   $var wire  1 $ clk_i $end
   $var wire  1 & memsign_i $end
   $var wire  2 % memtype_i [1:0] $end
   $var wire 32 ) rd_o [31:0] $end
   $var wire 32 ' wd_i [31:0] $end
   $var wire  1 # write_en_i $end
   $scope module ram_i $end
    $var wire 32 / WIDTH [31:0] $end
    $var wire 32 ( a_i [31:0] $end
    $var wire  2 % memtype_i [1:0] $end
    $var wire 32 , rd_i [31:0] $end
    $var wire 32 ' wd_i [31:0] $end
    $var wire 40 * wd_o [39:0] $end
    $var wire  2 . whichbyte_i [1:0] $end
   $upscope $end
   $scope module ram_o $end
    $var wire 32 / WIDTH [31:0] $end
    $var wire 32 ( a_i [31:0] $end
    $var wire  1 & memsign_i $end
    $var wire  2 % memtype_i [1:0] $end
    $var wire 32 , rd_i [31:0] $end
    $var wire 32 ) rd_o [31:0] $end
    $var wire  2 . whichbyte_i [1:0] $end
   $upscope $end
   $scope module ramnew $end
    $var wire 32 0 DATA_W [31:0] $end
    $var wire 32 / WIDTH [31:0] $end
    $var wire 32 - a_i [31:0] $end
    $var wire  2 . a_i_end [1:0] $end
    $var wire  1 $ clk_i $end
    $var wire  2 % memtype_i [1:0] $end
    $var wire 32 , rd_o [31:0] $end
    $var wire 40 * wd_i [39:0] $end
    $var wire  1 # write_en_i $end
   $upscope $end
  $upscope $end
 $upscope $end
$enddefinitions $end


#0
1#
0$
b10 %
1&
b00010001001000100011001101000100 '
b00000000000000000000000000000011 (
b00000000000000000000000000000000 )
b0000000000000000000000000000000000000000 *
b00000000000000000000000000000000 ,
b00000000000000000000000000000000 -
b11 .
b00000000000000000000000000100000 /
b00000000000000000000000000001000 0
#1
1$
b00000000000000000001000111011101 )
b0011001101000100110111010000000000000000 *
b00010001110111010000000000000000 ,
#2
0$
#3
1$
b00000000000000000011001101000100 )
b0011001101000100010001000000000000000000 *
b00110011010001000000000000000000 ,
#4
0#
0$
b11 %
#5
1$
b01000100110111010000000000000000 )
b0000000000010001001000100011001101000100 *
b01000100110111010000000000000000 ,
#6
0$
b00000000000000000000000000000111 (
b00000000000000000000000000000100 -
#7
1$
b10100001001100110010001000110011 )
b10100001001100110010001000110011 ,
#8
0$
b01 %
0&
#9
1$
b11111111111111111111111110100001 )
b0000000001000100001100110010001000110011 *
