test/f1.vcd
$version Generated by VerilatedVcd $end
$date Thu Dec 15 22:11:44 2022 $end
$timescale 1ps $end

 $scope module TOP $end
  $var wire  1 4! clk $end
  $var wire 32 5! data_out [31:0] $end
  $var wire  1 2! rst $end
  $var wire  1 3! trigger_i $end
  $scope module top $end
   $var wire  5 P AD3E_2 [4:0] $end
   $var wire  5 [ AD3E_3 [4:0] $end
   $var wire  5 c AD3E_4 [4:0] $end
   $var wire 32 U ALUResultE_3 [31:0] $end
   $var wire 32 _ ALUResultE_4 [31:0] $end
   $var wire 32 Q ALUResultWire [31:0] $end
   $var wire  4 C ALUctrlDE_2 [3:0] $end
   $var wire  4 . ALUctrlWire [3:0] $end
   $var wire  1 / ALUsrcWire $end
   $var wire  1 N AUIPCE_2 $end
   $var wire  1 Y AUIPCE_3 $end
   $var wire  1 g AUIPCE_4 $end
   $var wire  1 3 AUIPCWire $end
   $var wire 32 8! Aluop2Wire [31:0] $end
   $var wire  1 1 BranchSrcWire $end
   $var wire 32 :! DW [31:0] $end
   $var wire 32 J ImmExtE_2 [31:0] $end
   $var wire  3 0 ImmSrcWire [2:0] $end
   $var wire 32 ? ImmediateExtendWire [31:0] $end
   $var wire 25 > ImmediateWire [24:0] $end
   $var wire 32 o InstructionWire [31:0] $end
   $var wire  1 E JALE_2 $end
   $var wire  1 \ JALE_3 $end
   $var wire  1 d JALE_4 $end
   $var wire  1 D JALRE_2 $end
   $var wire  1 7 JALRWire $end
   $var wire  1 6 JALWire $end
   $var wire 32 ( PCE [31:0] $end
   $var wire 32 F PCE_2 [31:0] $end
   $var wire 32 n PC_wire [31:0] $end
   $var wire  1 % PCsrcWire $end
   $var wire 32 G RD1E_2 [31:0] $end
   $var wire 32 7! RD1Wire [31:0] $end
   $var wire 32 I RD2E_2 [31:0] $end
   $var wire 32 V RD2E_3 [31:0] $end
   $var wire 32 9! RD2Wire [31:0] $end
   $var wire 32 ^ RamOutWire [31:0] $end
   $var wire 32 ` RamOutWireE_4 [31:0] $end
   $var wire  1 2 ResultSrcWire $end
   $var wire 32 H SrcBE_2 [31:0] $end
   $var wire  1 B branchSrcE_2 $end
   $var wire  1 R branchWire $end
   $var wire 32 # branch_PC [31:0] $end
   $var wire  1 4! clk $end
   $var wire 32 5! data_out [31:0] $end
   $var wire  3 * funct3 [2:0] $end
   $var wire  3 K funct3E_2 [2:0] $end
   $var wire  1 + funct7 $end
   $var wire 32 ] incPC3 [31:0] $end
   $var wire 32 e incPC4 [31:0] $end
   $var wire 32 f incPC5 [31:0] $end
   $var wire 32 ' incPCE [31:0] $end
   $var wire 32 m inc_PC [31:0] $end
   $var wire 32 & instrE [31:0] $end
   $var wire 32 $ jump_PC [31:0] $end
   $var wire  1 5 memSignWire $end
   $var wire  1 M memSignWireE_2 $end
   $var wire  1 X memSignWireE_3 $end
   $var wire  2 4 memTypeWire [1:0] $end
   $var wire  2 L memTypeWireE_2 [1:0] $end
   $var wire  2 W memTypeWireE_3 [1:0] $end
   $var wire  1 A memWriteE_2 $end
   $var wire  1 T memWriteE_3 $end
   $var wire  1 , memWrite_enWire $end
   $var wire 32 6! next_PC [31:0] $end
   $var wire  7 ) opcode [6:0] $end
   $var wire  5 : rdWire [4:0] $end
   $var wire  1 O regWriteWireE_2 $end
   $var wire  1 Z regWriteWireE_3 $end
   $var wire  1 b regWriteWireE_4 $end
   $var wire  1 - regWrite_enWire $end
   $var wire  1 @ resultSrcE_2 $end
   $var wire  1 S resultSrcE_3 $end
   $var wire  1 a resultSrcE_4 $end
   $var wire  5 8 rs1Wire [4:0] $end
   $var wire  5 9 rs2Wire [4:0] $end
   $var wire  1 2! rst $end
   $var wire  1 3! trigger_i $end
   $var wire 32 ; wd3Wire [31:0] $end
   $var wire 32 < wd3Wire0 [31:0] $end
   $var wire 32 = wd3Wire1 [31:0] $end
   $scope module ALU $end
    $var wire 32 Q ALUResult_o [31:0] $end
    $var wire  4 C ALUctrl_i [3:0] $end
    $var wire  3 K BranchCtrl_i [2:0] $end
    $var wire  1 R Branch_o $end
    $var wire 32 :! DATAWIDTH [31:0] $end
    $var wire 32 ;! SHIFT_WIDTH [31:0] $end
    $var wire 32 G SrcA_Signed [31:0] $end
    $var wire 32 G SrcA_i [31:0] $end
    $var wire 32 H SrcB_Signed [31:0] $end
    $var wire 32 H SrcB_i [31:0] $end
    $var wire  1 h overwrite_branch_o $end
   $upscope $end
   $scope module PC $end
    $var wire 32 :! DW [31:0] $end
    $var wire 32 6! PC_i [31:0] $end
    $var wire 32 n PC_o [31:0] $end
    $var wire  1 4! clk $end
    $var wire  1 2! rst $end
   $upscope $end
   $scope module control $end
    $var wire  4 . ALUctrl_o [3:0] $end
    $var wire  1 / ALUsrc_o $end
    $var wire  1 1 BranchSrc_o $end
    $var wire  3 0 ImmSrc_o [2:0] $end
    $var wire  1 2 ResultSrc_o $end
    $var wire  1 3 auipc_o $end
    $var wire  3 * funct3_i [2:0] $end
    $var wire  1 + funct7bit_i $end
    $var wire  1 6 jal_o $end
    $var wire  1 7 jalr_o $end
    $var wire  1 5 memSign_o $end
    $var wire  2 4 memType_o [1:0] $end
    $var wire  1 , memWrite_en_o $end
    $var wire  7 ) op_i [6:0] $end
    $var wire  1 - regWrite_en_o $end
   $upscope $end
   $scope module decode_reg_file $end
    $var wire  5 : AD3D_i [4:0] $end
    $var wire  5 P AD3E_o [4:0] $end
    $var wire  4 . ALUCtrlD_i [3:0] $end
    $var wire  4 C ALUctrlE_o [3:0] $end
    $var wire  1 3 AUIPCWireD_i $end
    $var wire  1 N AUIPCWireE_o $end
    $var wire 32 :! DATA_WIDTH [31:0] $end
    $var wire 32 ? ImmExtD_i [31:0] $end
    $var wire 32 J ImmExtE_o [31:0] $end
    $var wire  1 6 JALD_i $end
    $var wire  1 E JALE_o $end
    $var wire  1 7 JALRD_i $end
    $var wire  1 D JALRE_o $end
    $var wire 32 ( PCD_i [31:0] $end
    $var wire 32 F PCE_o [31:0] $end
    $var wire 32 7! RD1D_i [31:0] $end
    $var wire 32 G RD1E_o [31:0] $end
    $var wire 32 9! RD2D_i [31:0] $end
    $var wire 32 I RD2E_o [31:0] $end
    $var wire 32 ;! REGISTER_ADDRESS_WIDTH [31:0] $end
    $var wire 32 8! SrcBD_i [31:0] $end
    $var wire 32 H SrcBE_o [31:0] $end
    $var wire  1 1 branchSrcD_i $end
    $var wire  1 B branchSrcE_o $end
    $var wire  1 4! clk $end
    $var wire  3 * funct3D_i [2:0] $end
    $var wire  3 K funct3E_o [2:0] $end
    $var wire 32 ' incPC2_i [31:0] $end
    $var wire 32 ] incPC3_o [31:0] $end
    $var wire  1 5 memSignWireD_i $end
    $var wire  1 M memSignWireE_o $end
    $var wire  2 4 memTypeWireD_i [1:0] $end
    $var wire  2 L memTypeWireE_o [1:0] $end
    $var wire  1 , memWriteD_i $end
    $var wire  1 A memWriteE_o $end
    $var wire  1 - regWriteD_i $end
    $var wire  1 O regWriteE_o $end
    $var wire  1 2 resultSrcD_i $end
    $var wire  1 @ resultSrcE_o $end
   $upscope $end
   $scope module execute_reg_file $end
    $var wire  5 P AD3D_i [4:0] $end
    $var wire  5 [ AD3E_o [4:0] $end
    $var wire 32 Q ALUresultD_i [31:0] $end
    $var wire 32 U ALUresultE_o [31:0] $end
    $var wire  1 N AUIPCD_i $end
    $var wire  1 Y AUIPCE_o $end
    $var wire 32 :! DATA_WIDTH [31:0] $end
    $var wire  1 E JALD_i $end
    $var wire  1 \ JALE_o $end
    $var wire 32 I RD2D_i [31:0] $end
    $var wire 32 V RD2E_o [31:0] $end
    $var wire 32 ;! REGISTER_ADDRESS_WIDTH [31:0] $end
    $var wire  1 4! clk $end
    $var wire 32 ] incPC3_i [31:0] $end
    $var wire 32 e incPC4_o [31:0] $end
    $var wire  1 M memSignD_i $end
    $var wire  1 X memSignE_o $end
    $var wire  2 L memTypeD_i [1:0] $end
    $var wire  2 W memTypeE_o [1:0] $end
    $var wire  1 A memWriteD_i $end
    $var wire  1 T memWriteE_o $end
    $var wire  1 O regWriteD_i $end
    $var wire  1 Z regWriteE_o $end
    $var wire  1 @ resultSRCD_i $end
    $var wire  1 S resultSRCE_o $end
   $upscope $end
   $scope module extend $end
    $var wire 32 :! DATAWIDTH [31:0] $end
    $var wire 32 ? ImmExt_o [31:0] $end
    $var wire  3 0 ImmSrc_i [2:0] $end
    $var wire 25 > Imm_i [31:7] $end
   $upscope $end
   $scope module fetch_reg_file $end
    $var wire 32 :! DATA_WIDTH [31:0] $end
    $var wire 32 n PCD_i [31:0] $end
    $var wire 32 ( PCE_o [31:0] $end
    $var wire  1 4! clk $end
    $var wire 32 m incPCD_i [31:0] $end
    $var wire 32 ' incPCE_o [31:0] $end
    $var wire 32 o instrD_i [31:0] $end
    $var wire 32 & instrE_o [31:0] $end
   $upscope $end
   $scope module mem_reg_file $end
    $var wire  5 [ AD3D_i [4:0] $end
    $var wire  5 c AD3E_o [4:0] $end
    $var wire 32 U ALUResultD_i [31:0] $end
    $var wire 32 _ ALUResultE_o [31:0] $end
    $var wire  1 Y AUIPCD_i $end
    $var wire  1 g AUIPCE_o $end
    $var wire 32 :! DATA_WIDTH [31:0] $end
    $var wire  1 \ JALD_i $end
    $var wire  1 d JALE_o $end
    $var wire 32 ^ RD2D_i [31:0] $end
    $var wire 32 ` RD2E_o [31:0] $end
    $var wire 32 ;! REGISTER_ADDRESS_WIDTH [31:0] $end
    $var wire  1 S ResultSrcD_i $end
    $var wire  1 a ResultSrcE_o $end
    $var wire  1 4! clk $end
    $var wire 32 e incPC4_i [31:0] $end
    $var wire 32 f incPC5_o [31:0] $end
    $var wire  1 Z regWriteD_i $end
    $var wire  1 b regWriteE_o $end
   $upscope $end
   $scope module memory $end
    $var wire 32 j RDWire [31:0] $end
    $var wire 32 i WDWire [31:0] $end
    $var wire 32 :! WIDTH [31:0] $end
    $var wire 32 U a_i [31:0] $end
    $var wire 32 k a_ii [31:0] $end
    $var wire  1 4! clk_i $end
    $var wire  1 X memsign_i $end
    $var wire  2 W memtype_i [1:0] $end
    $var wire 32 ^ rd_o [31:0] $end
    $var wire 32 V wd_i [31:0] $end
    $var wire  1 T write_en_i $end
    $scope module ram $end
     $var wire 32 <! DATA_W [31:0] $end
     $var wire 32 :! WIDTH [31:0] $end
     $var wire 32 k a_i [31:0] $end
     $var wire  1 4! clk_i $end
     $var wire 32 j rd_o [31:0] $end
     $var wire 32 i wd_i [31:0] $end
     $var wire  1 T write_en_i $end
    $upscope $end
    $scope module ram_i $end
     $var wire 32 :! WIDTH [31:0] $end
     $var wire 32 U a_i [31:0] $end
     $var wire  2 W memtype_i [1:0] $end
     $var wire 32 j rd_i [31:0] $end
     $var wire 32 V wd_i [31:0] $end
     $var wire 32 i wd_o [31:0] $end
     $var wire  2 l whichbyte_i [1:0] $end
    $upscope $end
    $scope module ram_o $end
     $var wire 32 :! WIDTH [31:0] $end
     $var wire 32 U a_i [31:0] $end
     $var wire  1 X memsign_i $end
     $var wire  2 W memtype_i [1:0] $end
     $var wire 32 j rd_i [31:0] $end
     $var wire 32 ^ rd_o [31:0] $end
     $var wire  2 l whichbyte_i [1:0] $end
    $upscope $end
   $upscope $end
   $scope module register_file $end
    $var wire  5 8 AD1_i [4:0] $end
    $var wire  5 9 AD2_i [4:0] $end
    $var wire  5 c AD3_i [4:0] $end
    $var wire 32 ;! ADDRESS_WIDTH [31:0] $end
    $var wire 32 :! DATA_WIDTH [31:0] $end
    $var wire 32 7! RD1_o [31:0] $end
    $var wire 32 9! RD2_o [31:0] $end
    $var wire  1 3! TRIGGER_i $end
    $var wire 32 ; WD3_i [31:0] $end
    $var wire  1 b WE3_i $end
    $var wire 32 5! a0_o [31:0] $end
    $var wire  1 4! clk $end
    $var wire 32 p register_array[0] [31:0] $end
    $var wire 32 z register_array[10] [31:0] $end
    $var wire 32 { register_array[11] [31:0] $end
    $var wire 32 | register_array[12] [31:0] $end
    $var wire 32 } register_array[13] [31:0] $end
    $var wire 32 ~ register_array[14] [31:0] $end
    $var wire 32 !! register_array[15] [31:0] $end
    $var wire 32 "! register_array[16] [31:0] $end
    $var wire 32 #! register_array[17] [31:0] $end
    $var wire 32 $! register_array[18] [31:0] $end
    $var wire 32 %! register_array[19] [31:0] $end
    $var wire 32 q register_array[1] [31:0] $end
    $var wire 32 &! register_array[20] [31:0] $end
    $var wire 32 '! register_array[21] [31:0] $end
    $var wire 32 (! register_array[22] [31:0] $end
    $var wire 32 )! register_array[23] [31:0] $end
    $var wire 32 *! register_array[24] [31:0] $end
    $var wire 32 +! register_array[25] [31:0] $end
    $var wire 32 ,! register_array[26] [31:0] $end
    $var wire 32 -! register_array[27] [31:0] $end
    $var wire 32 .! register_array[28] [31:0] $end
    $var wire 32 /! register_array[29] [31:0] $end
    $var wire 32 r register_array[2] [31:0] $end
    $var wire 32 0! register_array[30] [31:0] $end
    $var wire 32 1! register_array[31] [31:0] $end
    $var wire 32 s register_array[3] [31:0] $end
    $var wire 32 t register_array[4] [31:0] $end
    $var wire 32 u register_array[5] [31:0] $end
    $var wire 32 v register_array[6] [31:0] $end
    $var wire 32 w register_array[7] [31:0] $end
    $var wire 32 x register_array[8] [31:0] $end
    $var wire 32 y register_array[9] [31:0] $end
   $upscope $end
   $scope module rom $end
    $var wire 32 <! DATA_W [31:0] $end
    $var wire 32 :! WIDTH [31:0] $end
    $var wire 32 n a_i [31:0] $end
    $var wire 32 o rd_o [31:0] $end
   $upscope $end
  $upscope $end
 $upscope $end
$enddefinitions $end


#0
b00000000000000000000000000000000 #
b00000000000000000000000000000000 $
0%
b00000000000000000000000000000000 &
b00000000000000000000000000000000 '
b00000000000000000000000000000000 (
b0000000 )
b000 *
0+
0,
0-
b0000 .
0/
b000 0
01
02
03
b00 4
05
06
07
b00000 8
b00000 9
b00000 :
b00000000000000000000000000000000 ;
b00000000000000000000000000000000 <
b00000000000000000000000000000000 =
b0000000000000000000000000 >
b00000000000000000000000000000000 ?
0@
0A
0B
b0000 C
0D
0E
b00000000000000000000000000000000 F
b00000000000000000000000000000000 G
b00000000000000000000000000000000 H
b00000000000000000000000000000000 I
b00000000000000000000000000000000 J
b000 K
b00 L
0M
0N
0O
b00000 P
b00000000000000000000000000000000 Q
0R
0S
0T
b00000000000000000000000000000000 U
b00000000000000000000000000000000 V
b00 W
0X
0Y
0Z
b00000 [
0\
b00000000000000000000000000000000 ]
b00000000000000000000000000000000 ^
b00000000000000000000000000000000 _
b00000000000000000000000000000000 `
0a
0b
b00000 c
0d
b00000000000000000000000000000000 e
b00000000000000000000000000000000 f
0g
0h
b00000000000000000000000000000000 i
b00000000000000000000000000000000 j
b00000000000000000000000000000000 k
b00 l
b00000000000000000000000000000100 m
b00000000000000000000000000000000 n
b00000000000000000000000000000000 o
b00000000000000000000000000000000 p
b00000000000000000000000000000000 q
b00000000000000000000000000000000 r
b00000000000000000000000000000000 s
b00000000000000000000000000000000 t
b00000000000000000000000000000000 u
b00000000000000000000000000000000 v
b00000000000000000000000000000000 w
b00000000000000000000000000000000 x
b00000000000000000000000000000000 y
b00000000000000000000000000000000 z
b00000000000000000000000000000000 {
b00000000000000000000000000000000 |
b00000000000000000000000000000000 }
b00000000000000000000000000000000 ~
b00000000000000000000000000000000 !!
b00000000000000000000000000000000 "!
b00000000000000000000000000000000 #!
b00000000000000000000000000000000 $!
b00000000000000000000000000000000 %!
b00000000000000000000000000000000 &!
b00000000000000000000000000000000 '!
b00000000000000000000000000000000 (!
b00000000000000000000000000000000 )!
b00000000000000000000000000000000 *!
b00000000000000000000000000000000 +!
b00000000000000000000000000000000 ,!
b00000000000000000000000000000000 -!
b00000000000000000000000000000000 .!
b00000000000000000000000000000000 /!
b00000000000000000000000000000000 0!
b00000000000000000000000000000000 1!
02!
03!
04!
b00000000000000000000000000000000 5!
b00000000000000000000000000000100 6!
b00000000000000000000000000000000 7!
b00000000000000000000000000000000 8!
b00000000000000000000000000000000 9!
b00000000000000000000000000100000 :!
b00000000000000000000000000000101 ;!
b00000000000000000000000000001000 <!
#1
1R
b00000000000100000000010010010011 o
14!
#2
b00000000000100000000010010010011 &
b00000000000000000000000000000100 '
b0010011 )
1-
1/
b00001 9
b01001 :
b0000000000010000000001001 >
b00000000000000000000000000000001 ?
04!
b00000000000000000000000000000001 8!
#3
b00000000000000000000000000001000 m
b00000000000000000000000000000100 n
b00001111111100000000100100010011 o
14!
b00000000000000000000000000001000 6!
#4
b00000000000000000000000000000001 #
b00000000000000000000000000000001 $
b00001111111100000000100100010011 &
b00000000000000000000000000001000 '
b00000000000000000000000000000100 (
b11111 9
b10010 :
b0000111111110000000010010 >
b00000000000000000000000011111111 ?
b00000000000000000000000000000001 H
b00000000000000000000000000000001 J
1O
b01001 P
b00000000000000000000000000000001 Q
0R
b00000000000000000000000000000100 ]
04!
b00000000000000000000000011111111 8!
#5
b00000000000000000000000000001100 m
b00000000000000000000000000001000 n
b00000000001100000000100110010011 o
14!
b00000000000000000000000000001100 6!
#6
b00000000000000000000000100000011 #
b00000000000000000000000100000011 $
b00000000001100000000100110010011 &
b00000000000000000000000000001100 '
b00000000000000000000000000001000 (
b00011 9
b10011 :
b0000000000110000000010011 >
b00000000000000000000000000000011 ?
b00000000000000000000000000000100 F
b00000000000000000000000011111111 H
b00000000000000000000000011111111 J
b10010 P
b00000000000000000000000011111111 Q
b00000000000000000000000000000001 U
1Z
b01001 [
b00000000000000000000000000001000 ]
b00000000000000000000000000000100 e
b01 l
04!
b00000000000000000000000000000011 8!
#7
b00000000000000000000000000010000 m
b00000000000000000000000000001100 n
b00000000000100000000011010010011 o
14!
b00000000000000000000000000010000 6!
#8
b00000000000000000000000000001011 #
b00000000000000000000000000001011 $
b00000000000100000000011010010011 &
b00000000000000000000000000010000 '
b00000000000000000000000000001100 (
b00001 9
b01101 :
b00000000000000000000000000000001 ;
b00000000000000000000000000000001 <
b00000000000000000000000000000001 =
b0000000000010000000001101 >
b00000000000000000000000000000001 ?
b00000000000000000000000000001000 F
b00000000000000000000000000000011 H
b00000000000000000000000000000011 J
b10011 P
b00000000000000000000000000000011 Q
b00000000000000000000000011111111 U
b10010 [
b00000000000000000000000000001100 ]
b00000000000000000000000000000001 _
1b
b01001 c
b00000000000000000000000000001000 e
b00000000000000000000000000000100 f
b00000000000000000000000011111100 k
b11 l
04!
b00000000000000000000000000000001 8!
#9
b00000000000000000000000000010100 m
b00000000000000000000000000010000 n
b00000000000000000000000000010011 o
b00000000000000000000000000000001 y
14!
b00000000000000000000000000010100 6!
#10
b00000000000000000000000000001101 #
b00000000000000000000000000001101 $
b00000000000000000000000000010011 &
b00000000000000000000000000010100 '
b00000000000000000000000000010000 (
b00000 9
b00000 :
b00000000000000000000000011111111 ;
b00000000000000000000000011111111 <
b00000000000000000000000011111111 =
b0000000000000000000000000 >
b00000000000000000000000000000000 ?
b00000000000000000000000000001100 F
b00000000000000000000000000000001 H
b00000000000000000000000000000001 J
b01101 P
b00000000000000000000000000000001 Q
b00000000000000000000000000000011 U
b10011 [
b00000000000000000000000000010000 ]
b00000000000000000000000011111111 _
b10010 c
b00000000000000000000000000001100 e
b00000000000000000000000000001000 f
b00000000000000000000000000000000 k
04!
b00000000000000000000000000000000 8!
#11
b00000000000000000000000000011000 m
b00000000000000000000000000010100 n
b00000000000000000000000011111111 $!
14!
b00000000000000000000000000011000 6!
#12
b00000000000000000000000000010000 #
b00000000000000000000000000010000 $
b00000000000000000000000000011000 '
b00000000000000000000000000010100 (
b00000000000000000000000000000011 ;
b00000000000000000000000000000011 <
b00000000000000000000000000000011 =
b00000000000000000000000000010000 F
b00000000000000000000000000000000 H
b00000000000000000000000000000000 J
b00000 P
b00000000000000000000000000000000 Q
1R
b00000000000000000000000000000001 U
b01101 [
b00000000000000000000000000010100 ]
b00000000000000000000000000000011 _
b10011 c
b00000000000000000000000000010000 e
b00000000000000000000000000001100 f
b01 l
04!
#13
b00000000000000000000000000011100 m
b00000000000000000000000000011000 n
b00000000000000000000010100010011 o
b00000000000000000000000000000011 %!
14!
b00000000000000000000000000011100 6!
#14
b00000000000000000000000000010100 #
b00000000000000000000000000010100 $
b00000000000000000000010100010011 &
b00000000000000000000000000011100 '
b00000000000000000000000000011000 (
b01010 :
b00000000000000000000000000000001 ;
b00000000000000000000000000000001 <
b00000000000000000000000000000001 =
b0000000000000000000001010 >
b00000000000000000000000000010100 F
b00000000000000000000000000000000 U
b00000 [
b00000000000000000000000000011000 ]
b00000000000000000000000000000001 _
b01101 c
b00000000000000000000000000010100 e
b00000000000000000000000000010000 f
b00 l
04!
#15
b00000000000000000000000000100000 m
b00000000000000000000000000011100 n
b00000000000000000000011100010011 o
b00000000000000000000000000000001 }
14!
b00000000000000000000000000100000 6!
#16
b00000000000000000000000000011000 #
b00000000000000000000000000011000 $
b00000000000000000000011100010011 &
b00000000000000000000000000100000 '
b00000000000000000000000000011100 (
b01110 :
b00000000000000000000000000000000 ;
b00000000000000000000000000000000 <
b00000000000000000000000000000000 =
b0000000000000000000001110 >
b00000000000000000000000000011000 F
b01010 P
b00000000000000000000000000011100 ]
b00000000000000000000000000000000 _
b00000 c
b00000000000000000000000000011000 e
b00000000000000000000000000010100 f
04!
#17
b00000000000000000000000000100100 m
b00000000000000000000000000100000 n
b00000000000000000000001010010011 o
14!
b00000000000000000000000000100100 6!
#18
b00000000000000000000000000011100 #
b00000000000000000000000000011100 $
b00000000000000000000001010010011 &
b00000000000000000000000000100100 '
b00000000000000000000000000100000 (
b00101 :
b0000000000000000000000101 >
b00000000000000000000000000011100 F
b01110 P
b01010 [
b00000000000000000000000000100000 ]
b00000000000000000000000000011100 e
b00000000000000000000000000011000 f
04!
#19
b00000000000000000000000000101000 m
b00000000000000000000000000100100 n
b00000000000000000000000000010011 o
14!
b00000000000000000000000000101000 6!
#20
b00000000000000000000000000100000 #
b00000000000000000000000000100000 $
b00000000000000000000000000010011 &
b00000000000000000000000000101000 '
b00000000000000000000000000100100 (
b00000 :
b0000000000000000000000000 >
b00000000000000000000000000100000 F
b00101 P
b01110 [
b00000000000000000000000000100100 ]
b01010 c
b00000000000000000000000000100000 e
b00000000000000000000000000011100 f
04!
#21
b00000000000000000000000000101100 m
b00000000000000000000000000101000 n
14!
b00000000000000000000000000101100 6!
#22
b00000000000000000000000000100100 #
b00000000000000000000000000100100 $
b00000000000000000000000000101100 '
b00000000000000000000000000101000 (
b00000000000000000000000000100100 F
b00000 P
b00101 [
b00000000000000000000000000101000 ]
b01110 c
b00000000000000000000000000100100 e
b00000000000000000000000000100000 f
04!
#23
b00000000000000000000000000110000 m
b00000000000000000000000000101100 n
b00000110100100101000011001100011 o
14!
b00000000000000000000000000110000 6!
#24
b00000000000000000000000000101000 #
b00000000000000000000000000101000 $
b00000110100100101000011001100011 &
b00000000000000000000000000110000 '
b00000000000000000000000000101100 (
b1100011 )
0-
b1111 .
0/
b010 0
11
b00101 8
b01001 9
b01100 :
b0000011010010010100001100 >
b00000000000000000000000001101100 ?
b00000000000000000000000000101000 F
b00000 [
b00000000000000000000000000101100 ]
b00101 c
b00000000000000000000000000101000 e
b00000000000000000000000000100100 f
04!
b00000000000000000000000000000001 8!
b00000000000000000000000000000001 9!
#25
b00000000000000000000000000110100 m
b00000000000000000000000000110000 n
b00000000001101101101011000010011 o
14!
b00000000000000000000000000110100 6!
#26
b00000000000000000000000010011000 #
b00000000000000000000000010011000 $
b00000000001101101101011000010011 &
b00000000000000000000000000110100 '
b00000000000000000000000000110000 (
b0010011 )
b101 *
1-
b0111 .
1/
b000 0
01
b01101 8
b00011 9
b0000000000110110110101100 >
b00000000000000000000000000000011 ?
1B
b1111 C
b00000000000000000000000000101100 F
b00000000000000000000000000000001 H
b00000000000000000000000000000001 I
b00000000000000000000000001101100 J
0O
b01100 P
0R
b00000000000000000000000000110000 ]
b00000 c
b00000000000000000000000000101100 e
b00000000000000000000000000101000 f
04!
b00000000000000000000000000000001 7!
b00000000000000000000000000000011 8!
b00000000000000000000000000000000 9!
#27
b00000000000000000000000000111000 m
b00000000000000000000000000110100 n
b00000000000000000000000000010011 o
14!
b00000000000000000000000000111000 6!
#28
b00000000000000000000000000110011 #
b00000000000000000000000000110011 $
b00000000000000000000000000010011 &
b00000000000000000000000000111000 '
b00000000000000000000000000110100 (
b000 *
b0000 .
b00000 8
b00000 9
b00000 :
b0000000000000000000000000 >
b00000000000000000000000000000000 ?
0B
b0111 C
b00000000000000000000000000110000 F
b00000000000000000000000000000001 G
b00000000000000000000000000000011 H
b00000000000000000000000000000000 I
b00000000000000000000000000000011 J
b101 K
1O
b00000000000000000000000000000001 V
0Z
b01100 [
b00000000000000000000000000110100 ]
b00000000000000000000000000110000 e
b00000000000000000000000000101100 f
b00000000000000000000000000000001 i
04!
b00000000000000000000000000000000 7!
b00000000000000000000000000000000 8!
#29
b00000000000000000000000000111100 m
b00000000000000000000000000111000 n
14!
b00000000000000000000000000111100 6!
#30
b00000000000000000000000000110100 #
b00000000000000000000000000110100 $
b00000000000000000000000000111100 '
b00000000000000000000000000111000 (
b0000 C
b00000000000000000000000000110100 F
b00000000000000000000000000000000 G
b00000000000000000000000000000000 H
b00000000000000000000000000000000 J
b000 K
b00000 P
1R
b00000000000000000000000000000000 V
1Z
b00000000000000000000000000111000 ]
0b
b01100 c
b00000000000000000000000000110100 e
b00000000000000000000000000110000 f
b00000000000000000000000000000000 i
04!
#31
b00000000000000000000000001000000 m
b00000000000000000000000000111100 n
14!
b00000000000000000000000001000000 6!
#32
b00000000000000000000000000111000 #
b00000000000000000000000000111000 $
b00000000000000000000000001000000 '
b00000000000000000000000000111100 (
b00000000000000000000000000111000 F
b00000 [
b00000000000000000000000000111100 ]
1b
b00000000000000000000000000111000 e
b00000000000000000000000000110100 f
04!
#33
b00000000000000000000000001000100 m
b00000000000000000000000001000000 n
b00000000000101100111011000010011 o
14!
b00000000000000000000000001000100 6!
#34
b00000000000000000000000000111100 #
b00000000000000000000000000111100 $
b00000000000101100111011000010011 &
b00000000000000000000000001000100 '
b00000000000000000000000001000000 (
b111 *
b0010 .
b01100 8
b00001 9
b01100 :
b0000000000010110011101100 >
b00000000000000000000000000000001 ?
b00000000000000000000000000111100 F
b00000000000000000000000001000000 ]
b00000 c
b00000000000000000000000000111100 e
b00000000000000000000000000111000 f
04!
b00000000000000000000000000000001 8!
#35
b00000000000000000000000001001000 m
b00000000000000000000000001000100 n
b00000000000000000000000000010011 o
14!
b00000000000000000000000001001000 6!
#36
b00000000000000000000000001000001 #
b00000000000000000000000001000001 $
b00000000000000000000000000010011 &
b00000000000000000000000001001000 '
b00000000000000000000000001000100 (
b000 *
b0000 .
b00000 8
b00000 9
b00000 :
b0000000000000000000000000 >
b00000000000000000000000000000000 ?
b0010 C
b00000000000000000000000001000000 F
b00000000000000000000000000000001 H
b00000000000000000000000000000001 J
b111 K
b01100 P
0R
b00000000000000000000000001000100 ]
b00000000000000000000000001000000 e
b00000000000000000000000000111100 f
04!
b00000000000000000000000000000000 8!
#37
b00000000000000000000000001001100 m
b00000000000000000000000001001000 n
14!
b00000000000000000000000001001100 6!
#38
b00000000000000000000000001000100 #
b00000000000000000000000001000100 $
b00000000000000000000000001001100 '
b00000000000000000000000001001000 (
b0000 C
b00000000000000000000000001000100 F
b00000000000000000000000000000000 H
b00000000000000000000000000000000 J
b000 K
b00000 P
1R
b01100 [
b00000000000000000000000001001000 ]
b00000000000000000000000001000100 e
b00000000000000000000000001000000 f
04!
#39
b00000000000000000000000001010000 m
b00000000000000000000000001001100 n
14!
b00000000000000000000000001010000 6!
#40
b00000000000000000000000001001000 #
b00000000000000000000000001001000 $
b00000000000000000000000001010000 '
b00000000000000000000000001001100 (
b00000000000000000000000001001000 F
b00000 [
b00000000000000000000000001001100 ]
b01100 c
b00000000000000000000000001001000 e
b00000000000000000000000001000100 f
04!
#41
b00000000000000000000000001010100 m
b00000000000000000000000001010000 n
b00000000110101100100011000110011 o
14!
b00000000000000000000000001010100 6!
#42
b00000000000000000000000001001100 #
b00000000000000000000000001001100 $
b00000000110101100100011000110011 &
b00000000000000000000000001010100 '
b00000000000000000000000001010000 (
b0110011 )
b100 *
b0100 .
0/
b01100 8
b01101 9
b01100 :
b0000000011010110010001100 >
b00000000000000000000000000001101 ?
b00000000000000000000000001001100 F
b00000000000000000000000001010000 ]
b00000 c
b00000000000000000000000001001100 e
b00000000000000000000000001001000 f
04!
b00000000000000000000000000000001 8!
b00000000000000000000000000000001 9!
#43
b00000000000000000000000001011000 m
b00000000000000000000000001010100 n
b00000000000000000000000000010011 o
14!
b00000000000000000000000001011000 6!
#44
b00000000000000000000000001011101 #
b00000000000000000000000001011101 $
b00000000000000000000000000010011 &
b00000000000000000000000001011000 '
b00000000000000000000000001010100 (
b0010011 )
b000 *
b0000 .
1/
b00000 8
b00000 9
b00000 :
b0000000000000000000000000 >
b00000000000000000000000000000000 ?
b0100 C
b00000000000000000000000001010000 F
b00000000000000000000000000000001 H
b00000000000000000000000000000001 I
b00000000000000000000000000001101 J
b100 K
b01100 P
b00000000000000000000000000000001 Q
b00000000000000000000000001010100 ]
b00000000000000000000000001010000 e
b00000000000000000000000001001100 f
04!
b00000000000000000000000000000000 8!
b00000000000000000000000000000000 9!
#45
b00000000000000000000000001011100 m
b00000000000000000000000001011000 n
14!
b00000000000000000000000001011100 6!
