top.vcd
$version Generated by VerilatedVcd $end
$date Wed Dec  7 11:31:19 2022 $end
$timescale 1ps $end

 $scope module TOP $end
  $var wire 32 ] ALUResultWire [31:0] $end
  $var wire 32 \ Aluop2Wire [31:0] $end
  $var wire 32 P InstructionWire [31:0] $end
  $var wire 32 O PC_wire [31:0] $end
  $var wire 32 [ RD1Wire [31:0] $end
  $var wire  1 N clk $end
  $var wire 32 X data_out [31:0] $end
  $var wire 32 Y data_out1 [31:0] $end
  $var wire 32 Z data_out2 [31:0] $end
  $var wire  3 R funct3 [2:0] $end
  $var wire  1 S funct7 $end
  $var wire  7 Q opcode [6:0] $end
  $var wire  5 V rdWire [4:0] $end
  $var wire  5 T rs1Wire [4:0] $end
  $var wire  5 U rs2Wire [4:0] $end
  $var wire  1 L rst $end
  $var wire  1 M trigger_i $end
  $var wire 32 W wd3Wire [31:0] $end
  $scope module top $end
   $var wire 32 ] ALUResultWire [31:0] $end
   $var wire  4 & ALUctrlWire [3:0] $end
   $var wire  1 d ALUsrcWire $end
   $var wire 32 \ Aluop2Wire [31:0] $end
   $var wire  1 e BranchSrcWire $end
   $var wire 32 i DW [31:0] $end
   $var wire  3 ' ImmSrcWire [2:0] $end
   $var wire 32 ) ImmediateExtendWire [31:0] $end
   $var wire 32 g ImmediateWire [31:0] $end
   $var wire 32 P InstructionWire [31:0] $end
   $var wire 32 O PC_wire [31:0] $end
   $var wire  1 a PCsrcWire $end
   $var wire 32 [ RD1Wire [31:0] $end
   $var wire 32 $ RD2Wire [31:0] $end
   $var wire 32 * RamOutWire [31:0] $end
   $var wire  1 f ResultSrcWire $end
   $var wire  1 ( addrSelectWire $end
   $var wire  1 % branchWire $end
   $var wire 32 _ branch_PC [31:0] $end
   $var wire  1 N clk $end
   $var wire 32 X data_out [31:0] $end
   $var wire 32 Y data_out1 [31:0] $end
   $var wire 32 Z data_out2 [31:0] $end
   $var wire  3 R funct3 [2:0] $end
   $var wire  1 S funct7 $end
   $var wire 32 ^ inc_PC [31:0] $end
   $var wire  1 b memWrite_enWire $end
   $var wire 32 ` next_PC [31:0] $end
   $var wire  7 Q opcode [6:0] $end
   $var wire  5 V rdWire [4:0] $end
   $var wire  1 c regWrite_enWire $end
   $var wire  5 T rs1Wire [4:0] $end
   $var wire  5 U rs2Wire [4:0] $end
   $var wire  1 L rst $end
   $var wire  1 M trigger_i $end
   $var wire 32 W wd3Wire [31:0] $end
   $scope module ALU $end
    $var wire 32 ] ALUResult_o [31:0] $end
    $var wire  4 & ALUctrl_i [3:0] $end
    $var wire  3 R BranchCtrl_i [2:0] $end
    $var wire  1 % Branch_o $end
    $var wire 32 i DATAWIDTH [31:0] $end
    $var wire 32 j SHIFT_WIDTH [31:0] $end
    $var wire 32 [ SrcA_Signed [31:0] $end
    $var wire 32 [ SrcA_i [31:0] $end
    $var wire 32 \ SrcB_Signed [31:0] $end
    $var wire 32 \ SrcB_i [31:0] $end
    $var wire  1 + overwrite_branch_o $end
   $upscope $end
   $scope module PC $end
    $var wire 32 i DW [31:0] $end
    $var wire 32 ` PC_i [31:0] $end
    $var wire 32 O PC_o [31:0] $end
    $var wire  1 N clk $end
    $var wire  1 L rst $end
   $upscope $end
   $scope module control $end
    $var wire  4 & ALUctrl_o [3:0] $end
    $var wire  1 d ALUsrc_o $end
    $var wire  1 e BranchSrc_o $end
    $var wire  3 ' ImmSrc_o [2:0] $end
    $var wire  1 f ResultSrc_o $end
    $var wire  1 ( addrSelect_o $end
    $var wire  3 R funct3_i [2:0] $end
    $var wire  1 S funct7bit_i $end
    $var wire  1 b memWrite_en_o $end
    $var wire  7 Q op_i [6:0] $end
    $var wire  1 c regWrite_en_o $end
   $upscope $end
   $scope module extend $end
    $var wire 32 i DATAWIDTH [31:0] $end
    $var wire 32 ) ImmExt_o [31:0] $end
    $var wire  3 ' ImmSrc_i [2:0] $end
    $var wire 25 h Imm_i [31:7] $end
   $upscope $end
   $scope module ram $end
    $var wire  1 ( AddrsCtrl_i $end
    $var wire 32 k DATA_W [31:0] $end
    $var wire 32 i WIDTH [31:0] $end
    $var wire 32 ] a_i [31:0] $end
    $var wire  1 N clk_i $end
    $var wire 32 * rd_o [31:0] $end
    $var wire 32 $ wd_i [31:0] $end
    $var wire  1 b write_en_i $end
   $upscope $end
   $scope module register_file $end
    $var wire  5 T AD1_i [4:0] $end
    $var wire  5 U AD2_i [4:0] $end
    $var wire  5 V AD3_i [4:0] $end
    $var wire 32 j ADDRESS_WIDTH [31:0] $end
    $var wire 32 i DATA_WIDTH [31:0] $end
    $var wire 32 [ RD1_o [31:0] $end
    $var wire 32 $ RD2_o [31:0] $end
    $var wire 32 W WD3_i [31:0] $end
    $var wire  1 c WE3_i $end
    $var wire 32 X a0_o [31:0] $end
    $var wire 32 l a1 [31:0] $end
    $var wire 32 Y a1_o [31:0] $end
    $var wire 32 Z a2_o [31:0] $end
    $var wire  1 N clk $end
    $var wire 32 , register_array[0] [31:0] $end
    $var wire 32 6 register_array[10] [31:0] $end
    $var wire 32 7 register_array[11] [31:0] $end
    $var wire 32 8 register_array[12] [31:0] $end
    $var wire 32 9 register_array[13] [31:0] $end
    $var wire 32 : register_array[14] [31:0] $end
    $var wire 32 ; register_array[15] [31:0] $end
    $var wire 32 < register_array[16] [31:0] $end
    $var wire 32 = register_array[17] [31:0] $end
    $var wire 32 > register_array[18] [31:0] $end
    $var wire 32 ? register_array[19] [31:0] $end
    $var wire 32 - register_array[1] [31:0] $end
    $var wire 32 @ register_array[20] [31:0] $end
    $var wire 32 A register_array[21] [31:0] $end
    $var wire 32 B register_array[22] [31:0] $end
    $var wire 32 C register_array[23] [31:0] $end
    $var wire 32 D register_array[24] [31:0] $end
    $var wire 32 E register_array[25] [31:0] $end
    $var wire 32 F register_array[26] [31:0] $end
    $var wire 32 G register_array[27] [31:0] $end
    $var wire 32 H register_array[28] [31:0] $end
    $var wire 32 I register_array[29] [31:0] $end
    $var wire 32 . register_array[2] [31:0] $end
    $var wire 32 J register_array[30] [31:0] $end
    $var wire 32 K register_array[31] [31:0] $end
    $var wire 32 / register_array[3] [31:0] $end
    $var wire 32 0 register_array[4] [31:0] $end
    $var wire 32 1 register_array[5] [31:0] $end
    $var wire 32 2 register_array[6] [31:0] $end
    $var wire 32 3 register_array[7] [31:0] $end
    $var wire 32 4 register_array[8] [31:0] $end
    $var wire 32 5 register_array[9] [31:0] $end
    $scope module unnamedblk1 $end
     $var wire 32 # i [31:0] $end
    $upscope $end
   $upscope $end
   $scope module rom $end
    $var wire 32 k DATA_W [31:0] $end
    $var wire 32 i WIDTH [31:0] $end
    $var wire 32 O a_i [31:0] $end
    $var wire 32 P rd_o [31:0] $end
   $upscope $end
  $upscope $end
 $upscope $end
$enddefinitions $end


#0
b00000000000000000000000000000000 #
b00000000000000000000000000000000 $
0%
b0000 &
b000 '
0(
b00000000000000000000000000000000 )
b00000000000000000000000000000000 *
0+
b00000000000000000000000000000000 ,
b00000000000000000000000000000000 -
b00000000000000000000000000000000 .
b00000000000000000000000000000000 /
b00000000000000000000000000000000 0
b00000000000000000000000000000000 1
b00000000000000000000000000000000 2
b00000000000000000000000000000000 3
b00000000000000000000000000000000 4
b00000000000000000000000000000000 5
b00000000000000000000000000000000 6
b00000000000000000000000000000000 7
b00000000000000000000000000000000 8
b00000000000000000000000000000000 9
b00000000000000000000000000000000 :
b00000000000000000000000000000000 ;
b00000000000000000000000000000000 <
b00000000000000000000000000000000 =
b00000000000000000000000000000000 >
b00000000000000000000000000000000 ?
b00000000000000000000000000000000 @
b00000000000000000000000000000000 A
b00000000000000000000000000000000 B
b00000000000000000000000000000000 C
b00000000000000000000000000000000 D
b00000000000000000000000000000000 E
b00000000000000000000000000000000 F
b00000000000000000000000000000000 G
b00000000000000000000000000000000 H
b00000000000000000000000000000000 I
b00000000000000000000000000000000 J
b00000000000000000000000000000000 K
0L
0M
0N
b00000000000000000000000000000000 O
b00000000000000000000000000000000 P
b0000000 Q
b000 R
0S
b00000 T
b00000 U
b00000 V
b00000000000000000000000000000000 W
b00000000000000000000000000000000 X
b00000000000000000000000000000000 Y
b00000000000000000000000000000000 Z
b00000000000000000000000000000000 [
b00000000000000000000000000000000 \
b00000000000000000000000000000000 ]
b00000000000000000000000000000100 ^
b00000000000000000000000000000000 _
b00000000000000000000000000000100 `
0a
0b
0c
0d
0e
0f
b00000000000000000000000000000000 g
b0000000000000000000000000 h
b00000000000000000000000000100000 i
b00000000000000000000000000000101 j
b00000000000000000000000000001000 k
b00000000000000000000000000000000 l
#1
b00000000000000000000000000100000 #
b00000000000000000000000011111111 )
1N
b00001111111100000000001100010011 P
b0010011 Q
b11111 U
b00110 V
b00000000000000000000000011111111 W
b00000000000000000000000011111111 \
b00000000000000000000000011111111 ]
b00000000000000000000000011111111 _
1c
1d
b00000000000111111110000000000110 g
b0000111111110000000000110 h
#2
0N
#3
1%
b00000000000000000000000000000000 )
b11111111111111111111111111011101 *
b00000000000000000000000011111111 2
1N
b00000000000000000000000000000100 O
b00000000000000000000010100010011 P
b00000 U
b01010 V
b00000000000000000000000000000000 W
b00000000000000000000000000000000 \
b00000000000000000000000000000000 ]
b00000000000000000000000000001000 ^
b00000000000000000000000000000100 _
b00000000000000000000000000001000 `
b00000000000000000000000000001010 g
b0000000000000000000001010 h
#4
0N
#5
1N
b00000000000000000000000000001000 O
b00000000000000000000010110010011 P
b01011 V
b00000000000000000000000000001100 ^
b00000000000000000000000000001000 _
b00000000000000000000000000001100 `
b00000000000000000000000000001011 g
b0000000000000000000001011 h
#6
0N
#7
1N
b00000000000000000000000000001100 O
b00000000000001011000010100010011 P
b01011 T
b01010 V
b00000000000000000000000000010000 ^
b00000000000000000000000000001100 _
b00000000000000000000000000010000 `
b00000000000000000000101100001010 g
b0000000000000101100001010 h
#8
0N
#9
0%
b00000000000000000000000000000001 )
b00000000000000000000000000010001 *
1N
b00000000000000000000000000010000 O
b00000000000101011000010110010011 P
b00001 U
b01011 V
b00000000000000000000000000000001 W
b00000000000000000000000000000001 \
b00000000000000000000000000000001 ]
b00000000000000000000000000010100 ^
b00000000000000000000000000010001 _
b00000000000000000000000000010100 `
b00000000000000000010101100001011 g
b0000000000010101100001011 h
#10
0N
#11
b00000000000000000000000011111111 $
1%
b010 '
b11111111111111111111111111111000 )
b00000000000000000000000000000000 *
b00000000000000000000000000000001 7
1N
b00000000000000000000000000010100 O
b11111110011001011001110011100011 P
b1100011 Q
b001 R
1S
b00110 U
b11001 V
b00000000000000000000000100000000 W
b00000000000000000000000000000001 X
b00000000000000000000000000000001 [
b00000000000000000000000011111111 \
b00000000000000000000000100000000 ]
b00000000000000000000000000011000 ^
b00000000000000000000000000001100 _
b00000000000000000000000000001100 `
1a
0c
0d
1e
b00000001111111001100101100111001 g
b1111111001100101100111001 h
#12
0N
#13
b00000000000000000000000000000000 $
0%
b000 '
b00000000000000000000000000000000 )
b00000000000000000000000000010001 *
1N
b00000000000000000000000000001100 O
b00000000000001011000010100010011 P
b0010011 Q
b000 R
0S
b00000 U
b01010 V
b00000000000000000000000000000001 W
b00000000000000000000000000000000 \
b00000000000000000000000000000001 ]
b00000000000000000000000000010000 ^
b00000000000000000000000000010000 `
0a
1c
1d
0e
b00000000000000000000101100001010 g
b0000000000000101100001010 h
#14
0N
#15
1%
b00000000000000000000000000000001 )
b00000000000000000000000000100010 *
b00000000000000000000000000000001 6
1N
b00000000000000000000000000010000 O
b00000000000101011000010110010011 P
b00001 U
b01011 V
b00000000000000000000000000000010 W
b00000000000000000000000000000001 \
b00000000000000000000000000000010 ]
b00000000000000000000000000010100 ^
b00000000000000000000000000010001 _
b00000000000000000000000000010100 `
b00000000000000000010101100001011 g
b0000000000010101100001011 h
#16
0N
#17
b00000000000000000000000011111111 $
b010 '
b11111111111111111111111111111000 )
b00000000000000000000000000000000 *
b00000000000000000000000000000010 7
1N
b00000000000000000000000000010100 O
b11111110011001011001110011100011 P
b1100011 Q
b001 R
1S
b00110 U
b11001 V
b00000000000000000000000100000001 W
b00000000000000000000000000000010 X
b00000000000000000000000000000010 [
b00000000000000000000000011111111 \
b00000000000000000000000100000001 ]
b00000000000000000000000000011000 ^
b00000000000000000000000000001100 _
b00000000000000000000000000001100 `
1a
0c
0d
1e
b00000001111111001100101100111001 g
b1111111001100101100111001 h
#18
0N
#19
b00000000000000000000000000000000 $
0%
b000 '
b00000000000000000000000000000000 )
b00000000000000000000000000100010 *
1N
b00000000000000000000000000001100 O
b00000000000001011000010100010011 P
b0010011 Q
b000 R
0S
b00000 U
b01010 V
b00000000000000000000000000000010 W
b00000000000000000000000000000000 \
b00000000000000000000000000000010 ]
b00000000000000000000000000010000 ^
b00000000000000000000000000010000 `
0a
1c
1d
0e
b00000000000000000000101100001010 g
b0000000000000101100001010 h
#20
0N
#21
b00000000000000000000000000000001 )
b00000000000000000000000000110011 *
b00000000000000000000000000000010 6
1N
b00000000000000000000000000010000 O
b00000000000101011000010110010011 P
b00001 U
b01011 V
b00000000000000000000000000000011 W
b00000000000000000000000000000001 \
b00000000000000000000000000000011 ]
b00000000000000000000000000010100 ^
b00000000000000000000000000010001 _
b00000000000000000000000000010100 `
b00000000000000000010101100001011 g
b0000000000010101100001011 h
#22
0N
#23
b00000000000000000000000011111111 $
1%
b010 '
b11111111111111111111111111111000 )
b00000000000000000000000000000000 *
b00000000000000000000000000000011 7
1N
b00000000000000000000000000010100 O
b11111110011001011001110011100011 P
b1100011 Q
b001 R
1S
b00110 U
b11001 V
b00000000000000000000000100000010 W
b00000000000000000000000000000011 X
b00000000000000000000000000000011 [
b00000000000000000000000011111111 \
b00000000000000000000000100000010 ]
b00000000000000000000000000011000 ^
b00000000000000000000000000001100 _
b00000000000000000000000000001100 `
1a
0c
0d
1e
b00000001111111001100101100111001 g
b1111111001100101100111001 h
#24
0N
#25
b00000000000000000000000000000000 $
0%
b000 '
b00000000000000000000000000000000 )
b00000000000000000000000000110011 *
1N
b00000000000000000000000000001100 O
b00000000000001011000010100010011 P
b0010011 Q
b000 R
0S
b00000 U
b01010 V
b00000000000000000000000000000011 W
b00000000000000000000000000000000 \
b00000000000000000000000000000011 ]
b00000000000000000000000000010000 ^
b00000000000000000000000000010000 `
0a
1c
1d
0e
b00000000000000000000101100001010 g
b0000000000000101100001010 h
#26
0N
#27
b00000000000000000000000000000001 )
b11111111111111111111111110100001 *
b00000000000000000000000000000011 6
1N
b00000000000000000000000000010000 O
b00000000000101011000010110010011 P
b00001 U
b01011 V
b00000000000000000000000000000100 W
b00000000000000000000000000000001 \
b00000000000000000000000000000100 ]
b00000000000000000000000000010100 ^
b00000000000000000000000000010001 _
b00000000000000000000000000010100 `
b00000000000000000010101100001011 g
b0000000000010101100001011 h
#28
0N
#29
b00000000000000000000000011111111 $
1%
b010 '
b11111111111111111111111111111000 )
b00000000000000000000000000000000 *
b00000000000000000000000000000100 7
1N
b00000000000000000000000000010100 O
b11111110011001011001110011100011 P
b1100011 Q
b001 R
1S
b00110 U
b11001 V
b00000000000000000000000100000011 W
b00000000000000000000000000000100 X
b00000000000000000000000000000100 [
b00000000000000000000000011111111 \
b00000000000000000000000100000011 ]
b00000000000000000000000000011000 ^
b00000000000000000000000000001100 _
b00000000000000000000000000001100 `
1a
0c
0d
1e
b00000001111111001100101100111001 g
b1111111001100101100111001 h
#30
0N
#31
b00000000000000000000000000000000 $
0%
b000 '
b00000000000000000000000000000000 )
b11111111111111111111111110100001 *
1N
b00000000000000000000000000001100 O
b00000000000001011000010100010011 P
b0010011 Q
b000 R
0S
b00000 U
b01010 V
b00000000000000000000000000000100 W
b00000000000000000000000000000000 \
b00000000000000000000000000000100 ]
b00000000000000000000000000010000 ^
b00000000000000000000000000010000 `
0a
1c
1d
0e
b00000000000000000000101100001010 g
b0000000000000101100001010 h
#32
0N
#33
b00000000000000000000000000000001 )
b11111111111111111111111110101011 *
b00000000000000000000000000000100 6
1N
b00000000000000000000000000010000 O
b00000000000101011000010110010011 P
b00001 U
b01011 V
b00000000000000000000000000000101 W
b00000000000000000000000000000001 \
b00000000000000000000000000000101 ]
b00000000000000000000000000010100 ^
b00000000000000000000000000010001 _
b00000000000000000000000000010100 `
b00000000000000000010101100001011 g
b0000000000010101100001011 h
#34
0N
#35
b00000000000000000000000011111111 $
1%
b010 '
b11111111111111111111111111111000 )
b00000000000000000000000000000000 *
b00000000000000000000000000000101 7
1N
b00000000000000000000000000010100 O
b11111110011001011001110011100011 P
b1100011 Q
b001 R
1S
b00110 U
b11001 V
b00000000000000000000000100000100 W
b00000000000000000000000000000101 X
b00000000000000000000000000000101 [
b00000000000000000000000011111111 \
b00000000000000000000000100000100 ]
b00000000000000000000000000011000 ^
b00000000000000000000000000001100 _
b00000000000000000000000000001100 `
1a
0c
0d
1e
b00000001111111001100101100111001 g
b1111111001100101100111001 h
#36
0N
#37
b00000000000000000000000000000000 $
0%
b000 '
b00000000000000000000000000000000 )
b11111111111111111111111110101011 *
1N
b00000000000000000000000000001100 O
b00000000000001011000010100010011 P
b0010011 Q
b000 R
0S
b00000 U
b01010 V
b00000000000000000000000000000101 W
b00000000000000000000000000000000 \
b00000000000000000000000000000101 ]
b00000000000000000000000000010000 ^
b00000000000000000000000000010000 `
0a
1c
1d
0e
b00000000000000000000101100001010 g
b0000000000000101100001010 h
#38
0N
#39
b00000000000000000000000000000001 )
b11111111111111111111111110101100 *
b00000000000000000000000000000101 6
1N
b00000000000000000000000000010000 O
b00000000000101011000010110010011 P
b00001 U
b01011 V
b00000000000000000000000000000110 W
b00000000000000000000000000000001 \
b00000000000000000000000000000110 ]
b00000000000000000000000000010100 ^
b00000000000000000000000000010001 _
b00000000000000000000000000010100 `
b00000000000000000010101100001011 g
b0000000000010101100001011 h
#40
0N
#41
b00000000000000000000000011111111 $
1%
b010 '
b11111111111111111111111111111000 )
b00000000000000000000000000000000 *
b00000000000000000000000000000110 7
1N
b00000000000000000000000000010100 O
b11111110011001011001110011100011 P
b1100011 Q
b001 R
1S
b00110 U
b11001 V
b00000000000000000000000100000101 W
b00000000000000000000000000000110 X
b00000000000000000000000000000110 [
b00000000000000000000000011111111 \
b00000000000000000000000100000101 ]
b00000000000000000000000000011000 ^
b00000000000000000000000000001100 _
b00000000000000000000000000001100 `
1a
0c
0d
1e
b00000001111111001100101100111001 g
b1111111001100101100111001 h
#42
0N
#43
b00000000000000000000000000000000 $
0%
b000 '
b00000000000000000000000000000000 )
b11111111111111111111111110101100 *
1N
b00000000000000000000000000001100 O
b00000000000001011000010100010011 P
b0010011 Q
b000 R
0S
b00000 U
b01010 V
b00000000000000000000000000000110 W
b00000000000000000000000000000000 \
b00000000000000000000000000000110 ]
b00000000000000000000000000010000 ^
b00000000000000000000000000010000 `
0a
1c
1d
0e
b00000000000000000000101100001010 g
b0000000000000101100001010 h
#44
0N
#45
b00000000000000000000000000000001 )
b11111111111111111111111110101101 *
b00000000000000000000000000000110 6
1N
b00000000000000000000000000010000 O
b00000000000101011000010110010011 P
b00001 U
b01011 V
b00000000000000000000000000000111 W
b00000000000000000000000000000001 \
b00000000000000000000000000000111 ]
b00000000000000000000000000010100 ^
b00000000000000000000000000010001 _
b00000000000000000000000000010100 `
b00000000000000000010101100001011 g
b0000000000010101100001011 h
#46
0N
#47
b00000000000000000000000011111111 $
1%
b010 '
b11111111111111111111111111111000 )
b00000000000000000000000000000000 *
b00000000000000000000000000000111 7
1N
b00000000000000000000000000010100 O
b11111110011001011001110011100011 P
b1100011 Q
b001 R
1S
b00110 U
b11001 V
b00000000000000000000000100000110 W
b00000000000000000000000000000111 X
b00000000000000000000000000000111 [
b00000000000000000000000011111111 \
b00000000000000000000000100000110 ]
b00000000000000000000000000011000 ^
b00000000000000000000000000001100 _
b00000000000000000000000000001100 `
1a
0c
0d
1e
b00000001111111001100101100111001 g
b1111111001100101100111001 h
#48
0N
#49
b00000000000000000000000000000000 $
0%
b000 '
b00000000000000000000000000000000 )
b11111111111111111111111110101101 *
1N
b00000000000000000000000000001100 O
b00000000000001011000010100010011 P
b0010011 Q
b000 R
0S
b00000 U
b01010 V
b00000000000000000000000000000111 W
b00000000000000000000000000000000 \
b00000000000000000000000000000111 ]
b00000000000000000000000000010000 ^
b00000000000000000000000000010000 `
0a
1c
1d
0e
b00000000000000000000101100001010 g
b0000000000000101100001010 h
#50
0N
#51
b00000000000000000000000000000001 )
b11111111111111111111111110101110 *
b00000000000000000000000000000111 6
1N
b00000000000000000000000000010000 O
b00000000000101011000010110010011 P
b00001 U
b01011 V
b00000000000000000000000000001000 W
b00000000000000000000000000000001 \
b00000000000000000000000000001000 ]
b00000000000000000000000000010100 ^
b00000000000000000000000000010001 _
b00000000000000000000000000010100 `
b00000000000000000010101100001011 g
b0000000000010101100001011 h
#52
0N
#53
b00000000000000000000000011111111 $
1%
b010 '
b11111111111111111111111111111000 )
b00000000000000000000000000000000 *
b00000000000000000000000000001000 7
1N
b00000000000000000000000000010100 O
b11111110011001011001110011100011 P
b1100011 Q
b001 R
1S
b00110 U
b11001 V
b00000000000000000000000100000111 W
b00000000000000000000000000001000 X
b00000000000000000000000000001000 [
b00000000000000000000000011111111 \
b00000000000000000000000100000111 ]
b00000000000000000000000000011000 ^
b00000000000000000000000000001100 _
b00000000000000000000000000001100 `
1a
0c
0d
1e
b00000001111111001100101100111001 g
b1111111001100101100111001 h
#54
0N
#55
b00000000000000000000000000000000 $
0%
b000 '
b00000000000000000000000000000000 )
b11111111111111111111111110101110 *
1N
b00000000000000000000000000001100 O
b00000000000001011000010100010011 P
b0010011 Q
b000 R
0S
b00000 U
b01010 V
b00000000000000000000000000001000 W
b00000000000000000000000000000000 \
b00000000000000000000000000001000 ]
b00000000000000000000000000010000 ^
b00000000000000000000000000010000 `
0a
1c
1d
0e
b00000000000000000000101100001010 g
b0000000000000101100001010 h
#56
0N
#57
b00000000000000000000000000000001 )
b00000000000000000000000001010101 *
b00000000000000000000000000001000 6
1N
b00000000000000000000000000010000 O
b00000000000101011000010110010011 P
b00001 U
b01011 V
b00000000000000000000000000001001 W
b00000000000000000000000000000001 \
b00000000000000000000000000001001 ]
b00000000000000000000000000010100 ^
b00000000000000000000000000010001 _
b00000000000000000000000000010100 `
b00000000000000000010101100001011 g
b0000000000010101100001011 h
#58
0N
#59
b00000000000000000000000011111111 $
1%
b010 '
b11111111111111111111111111111000 )
b00000000000000000000000000000000 *
b00000000000000000000000000001001 7
1N
b00000000000000000000000000010100 O
b11111110011001011001110011100011 P
b1100011 Q
b001 R
1S
b00110 U
b11001 V
b00000000000000000000000100001000 W
b00000000000000000000000000001001 X
b00000000000000000000000000001001 [
b00000000000000000000000011111111 \
b00000000000000000000000100001000 ]
b00000000000000000000000000011000 ^
b00000000000000000000000000001100 _
b00000000000000000000000000001100 `
1a
0c
0d
1e
b00000001111111001100101100111001 g
b1111111001100101100111001 h
#60
0N
#61
b00000000000000000000000000000000 $
0%
b000 '
b00000000000000000000000000000000 )
b00000000000000000000000001010101 *
1N
b00000000000000000000000000001100 O
b00000000000001011000010100010011 P
b0010011 Q
b000 R
0S
b00000 U
b01010 V
b00000000000000000000000000001001 W
b00000000000000000000000000000000 \
b00000000000000000000000000001001 ]
b00000000000000000000000000010000 ^
b00000000000000000000000000010000 `
0a
1c
1d
0e
b00000000000000000000101100001010 g
b0000000000000101100001010 h
#62
0N
#63
b00000000000000000000000000000001 )
b00000000000000000000000001100110 *
b00000000000000000000000000001001 6
1N
b00000000000000000000000000010000 O
b00000000000101011000010110010011 P
b00001 U
b01011 V
b00000000000000000000000000001010 W
b00000000000000000000000000000001 \
b00000000000000000000000000001010 ]
b00000000000000000000000000010100 ^
b00000000000000000000000000010001 _
b00000000000000000000000000010100 `
b00000000000000000010101100001011 g
b0000000000010101100001011 h
#64
0N
#65
b00000000000000000000000011111111 $
1%
b010 '
b11111111111111111111111111111000 )
b00000000000000000000000000000000 *
b00000000000000000000000000001010 7
1N
b00000000000000000000000000010100 O
b11111110011001011001110011100011 P
b1100011 Q
b001 R
1S
b00110 U
b11001 V
b00000000000000000000000100001001 W
b00000000000000000000000000001010 X
b00000000000000000000000000001010 [
b00000000000000000000000011111111 \
b00000000000000000000000100001001 ]
b00000000000000000000000000011000 ^
b00000000000000000000000000001100 _
b00000000000000000000000000001100 `
1a
0c
0d
1e
b00000001111111001100101100111001 g
b1111111001100101100111001 h
#66
0N
#67
b00000000000000000000000000000000 $
0%
b000 '
b00000000000000000000000000000000 )
b00000000000000000000000001100110 *
1N
b00000000000000000000000000001100 O
b00000000000001011000010100010011 P
b0010011 Q
b000 R
0S
b00000 U
b01010 V
b00000000000000000000000000001010 W
b00000000000000000000000000000000 \
b00000000000000000000000000001010 ]
b00000000000000000000000000010000 ^
b00000000000000000000000000010000 `
0a
1c
1d
0e
b00000000000000000000101100001010 g
b0000000000000101100001010 h
#68
0N
#69
b00000000000000000000000000000001 )
b00000000000000000000000001110111 *
b00000000000000000000000000001010 6
1N
b00000000000000000000000000010000 O
b00000000000101011000010110010011 P
b00001 U
b01011 V
b00000000000000000000000000001011 W
b00000000000000000000000000000001 \
b00000000000000000000000000001011 ]
b00000000000000000000000000010100 ^
b00000000000000000000000000010001 _
b00000000000000000000000000010100 `
b00000000000000000010101100001011 g
b0000000000010101100001011 h
#70
0N
#71
b00000000000000000000000011111111 $
1%
b010 '
b11111111111111111111111111111000 )
b00000000000000000000000000000000 *
b00000000000000000000000000001011 7
1N
b00000000000000000000000000010100 O
b11111110011001011001110011100011 P
b1100011 Q
b001 R
1S
b00110 U
b11001 V
b00000000000000000000000100001010 W
b00000000000000000000000000001011 X
b00000000000000000000000000001011 [
b00000000000000000000000011111111 \
b00000000000000000000000100001010 ]
b00000000000000000000000000011000 ^
b00000000000000000000000000001100 _
b00000000000000000000000000001100 `
1a
0c
0d
1e
b00000001111111001100101100111001 g
b1111111001100101100111001 h
#72
0N
#73
b00000000000000000000000000000000 $
0%
b000 '
b00000000000000000000000000000000 )
b00000000000000000000000001110111 *
1N
b00000000000000000000000000001100 O
b00000000000001011000010100010011 P
b0010011 Q
b000 R
0S
b00000 U
b01010 V
b00000000000000000000000000001011 W
b00000000000000000000000000000000 \
b00000000000000000000000000001011 ]
b00000000000000000000000000010000 ^
b00000000000000000000000000010000 `
0a
1c
1d
0e
b00000000000000000000101100001010 g
b0000000000000101100001010 h
#74
0N
#75
b00000000000000000000000000000001 )
b00000000000000000000000000000000 *
b00000000000000000000000000001011 6
1N
b00000000000000000000000000010000 O
b00000000000101011000010110010011 P
b00001 U
b01011 V
b00000000000000000000000000001100 W
b00000000000000000000000000000001 \
b00000000000000000000000000001100 ]
b00000000000000000000000000010100 ^
b00000000000000000000000000010001 _
b00000000000000000000000000010100 `
b00000000000000000010101100001011 g
b0000000000010101100001011 h
#76
0N
#77
b00000000000000000000000011111111 $
1%
b010 '
b11111111111111111111111111111000 )
b00000000000000000000000000001100 7
1N
b00000000000000000000000000010100 O
b11111110011001011001110011100011 P
b1100011 Q
b001 R
1S
b00110 U
b11001 V
b00000000000000000000000100001011 W
b00000000000000000000000000001100 X
b00000000000000000000000000001100 [
b00000000000000000000000011111111 \
b00000000000000000000000100001011 ]
b00000000000000000000000000011000 ^
b00000000000000000000000000001100 _
b00000000000000000000000000001100 `
1a
0c
0d
1e
b00000001111111001100101100111001 g
b1111111001100101100111001 h
#78
0N
#79
b00000000000000000000000000000000 $
0%
b000 '
b00000000000000000000000000000000 )
1N
b00000000000000000000000000001100 O
b00000000000001011000010100010011 P
b0010011 Q
b000 R
0S
b00000 U
b01010 V
b00000000000000000000000000001100 W
b00000000000000000000000000000000 \
b00000000000000000000000000001100 ]
b00000000000000000000000000010000 ^
b00000000000000000000000000010000 `
0a
1c
1d
0e
b00000000000000000000101100001010 g
b0000000000000101100001010 h
#80
0N
#81
b00000000000000000000000000000001 )
b00000000000000000000000000001100 6
1N
b00000000000000000000000000010000 O
b00000000000101011000010110010011 P
b00001 U
b01011 V
b00000000000000000000000000001101 W
b00000000000000000000000000000001 \
b00000000000000000000000000001101 ]
b00000000000000000000000000010100 ^
b00000000000000000000000000010001 _
b00000000000000000000000000010100 `
b00000000000000000010101100001011 g
b0000000000010101100001011 h
#82
0N
#83
b00000000000000000000000011111111 $
1%
b010 '
b11111111111111111111111111111000 )
b00000000000000000000000000001101 7
1N
b00000000000000000000000000010100 O
b11111110011001011001110011100011 P
b1100011 Q
b001 R
1S
b00110 U
b11001 V
b00000000000000000000000100001100 W
b00000000000000000000000000001101 X
b00000000000000000000000000001101 [
b00000000000000000000000011111111 \
b00000000000000000000000100001100 ]
b00000000000000000000000000011000 ^
b00000000000000000000000000001100 _
b00000000000000000000000000001100 `
1a
0c
0d
1e
b00000001111111001100101100111001 g
b1111111001100101100111001 h
#84
0N
#85
b00000000000000000000000000000000 $
0%
b000 '
b00000000000000000000000000000000 )
1N
b00000000000000000000000000001100 O
b00000000000001011000010100010011 P
b0010011 Q
b000 R
0S
b00000 U
b01010 V
b00000000000000000000000000001101 W
b00000000000000000000000000000000 \
b00000000000000000000000000001101 ]
b00000000000000000000000000010000 ^
b00000000000000000000000000010000 `
0a
1c
1d
0e
b00000000000000000000101100001010 g
b0000000000000101100001010 h
#86
0N
#87
b00000000000000000000000000000001 )
b00000000000000000000000000001101 6
1N
b00000000000000000000000000010000 O
b00000000000101011000010110010011 P
b00001 U
b01011 V
b00000000000000000000000000001110 W
b00000000000000000000000000000001 \
b00000000000000000000000000001110 ]
b00000000000000000000000000010100 ^
b00000000000000000000000000010001 _
b00000000000000000000000000010100 `
b00000000000000000010101100001011 g
b0000000000010101100001011 h
#88
0N
