top.vcd
$version Generated by VerilatedVcd $end
$date Tue Dec  6 11:54:09 2022 $end
$timescale 1ps $end

 $scope module TOP $end
  $var wire 32 Y ALUResultWire [31:0] $end
  $var wire 32 X Aluop2Wire [31:0] $end
  $var wire 32 N InstructionWire [31:0] $end
  $var wire 32 M PC_wire [31:0] $end
  $var wire 32 W RD1Wire [31:0] $end
  $var wire  1 L clk $end
  $var wire 32 V data_out [31:0] $end
  $var wire  3 P funct3 [2:0] $end
  $var wire  1 Q funct7 $end
  $var wire  7 O opcode [6:0] $end
  $var wire  5 T rdWire [4:0] $end
  $var wire  5 R rs1Wire [4:0] $end
  $var wire  5 S rs2Wire [4:0] $end
  $var wire  1 J rst $end
  $var wire  1 K trigger_i $end
  $var wire 32 U wd3Wire [31:0] $end
  $scope module top $end
   $var wire 32 Y ALUResultWire [31:0] $end
   $var wire  4 % ALUctrlWire [3:0] $end
   $var wire  1 a ALUsrcWire $end
   $var wire 32 X Aluop2Wire [31:0] $end
   $var wire  1 b BranchSrcWire $end
   $var wire 32 d DW [31:0] $end
   $var wire  3 & ImmSrcWire [2:0] $end
   $var wire 32 ( ImmediateExtendWire [31:0] $end
   $var wire 32 N ImmediateWire [31:0] $end
   $var wire 32 N InstructionWire [31:0] $end
   $var wire 32 M PC_wire [31:0] $end
   $var wire  1 ] PCsrcWire $end
   $var wire 32 W RD1Wire [31:0] $end
   $var wire 32 $ RD2Wire [31:0] $end
   $var wire 32 ) RamOutWire [31:0] $end
   $var wire  1 c ResultSrcWire $end
   $var wire  1 ' addrSelectWire $end
   $var wire  1 ^ branchWire $end
   $var wire 32 [ branch_PC [31:0] $end
   $var wire  1 L clk $end
   $var wire 32 V data_out [31:0] $end
   $var wire  3 P funct3 [2:0] $end
   $var wire  1 Q funct7 $end
   $var wire 32 Z inc_PC [31:0] $end
   $var wire  1 _ memWrite_enWire $end
   $var wire 32 \ next_PC [31:0] $end
   $var wire  7 O opcode [6:0] $end
   $var wire  5 T rdWire [4:0] $end
   $var wire  1 ` regWrite_enWire $end
   $var wire  5 R rs1Wire [4:0] $end
   $var wire  5 S rs2Wire [4:0] $end
   $var wire  1 J rst $end
   $var wire  1 K trigger_i $end
   $var wire 32 U wd3Wire [31:0] $end
   $scope module ALU $end
    $var wire 32 Y ALUResult_o [31:0] $end
    $var wire  4 % ALUctrl_i [3:0] $end
    $var wire  3 P BranchCtrl_i [2:0] $end
    $var wire  1 ^ Branch_o $end
    $var wire 32 d DATAWIDTH [31:0] $end
    $var wire 32 e SHIFT_WIDTH [31:0] $end
    $var wire 32 W SrcA_Signed [31:0] $end
    $var wire 32 W SrcA_i [31:0] $end
    $var wire 32 X SrcB_Signed [31:0] $end
    $var wire 32 X SrcB_i [31:0] $end
   $upscope $end
   $scope module PC $end
    $var wire 32 d DW [31:0] $end
    $var wire 32 \ PC_i [31:0] $end
    $var wire 32 M PC_o [31:0] $end
    $var wire  1 L clk $end
    $var wire  1 J rst $end
   $upscope $end
   $scope module control $end
    $var wire  4 % ALUctrl_o [3:0] $end
    $var wire  1 a ALUsrc_o $end
    $var wire  1 b BranchSrc_o $end
    $var wire  3 & ImmSrc_o [2:0] $end
    $var wire  1 c ResultSrc_o $end
    $var wire  1 ' addrSelect_o $end
    $var wire  3 P funct3_i [2:0] $end
    $var wire  1 Q funct7bit_i $end
    $var wire  1 _ memWrite_en_o $end
    $var wire  7 O op_i [6:0] $end
    $var wire  1 ` regWrite_en_o $end
   $upscope $end
   $scope module extend $end
    $var wire 32 d DATAWIDTH [31:0] $end
    $var wire 32 ( ImmExt_o [31:0] $end
    $var wire  3 & ImmSrc_i [2:0] $end
    $var wire 32 N Imm_i [31:0] $end
   $upscope $end
   $scope module ram $end
    $var wire  1 ' AddrsCtrl_i $end
    $var wire 32 f DATA_W [31:0] $end
    $var wire 32 d WIDTH [31:0] $end
    $var wire 32 Y a_i [31:0] $end
    $var wire  1 L clk_i $end
    $var wire 32 ) rd_o [31:0] $end
    $var wire 32 $ wd_i [31:0] $end
    $var wire  1 _ write_en_i $end
   $upscope $end
   $scope module register_file $end
    $var wire  5 R AD1_i [4:0] $end
    $var wire  5 S AD2_i [4:0] $end
    $var wire  5 T AD3_i [4:0] $end
    $var wire 32 e ADDRESS_WIDTH [31:0] $end
    $var wire 32 d DATA_WIDTH [31:0] $end
    $var wire 32 W RD1_o [31:0] $end
    $var wire 32 $ RD2_o [31:0] $end
    $var wire 32 U WD3_i [31:0] $end
    $var wire  1 ` WE3_i $end
    $var wire 32 V a0_o [31:0] $end
    $var wire 32 g a1 [31:0] $end
    $var wire  1 L clk $end
    $var wire 32 * register_array[0] [31:0] $end
    $var wire 32 4 register_array[10] [31:0] $end
    $var wire 32 5 register_array[11] [31:0] $end
    $var wire 32 6 register_array[12] [31:0] $end
    $var wire 32 7 register_array[13] [31:0] $end
    $var wire 32 8 register_array[14] [31:0] $end
    $var wire 32 9 register_array[15] [31:0] $end
    $var wire 32 : register_array[16] [31:0] $end
    $var wire 32 ; register_array[17] [31:0] $end
    $var wire 32 < register_array[18] [31:0] $end
    $var wire 32 = register_array[19] [31:0] $end
    $var wire 32 + register_array[1] [31:0] $end
    $var wire 32 > register_array[20] [31:0] $end
    $var wire 32 ? register_array[21] [31:0] $end
    $var wire 32 @ register_array[22] [31:0] $end
    $var wire 32 A register_array[23] [31:0] $end
    $var wire 32 B register_array[24] [31:0] $end
    $var wire 32 C register_array[25] [31:0] $end
    $var wire 32 D register_array[26] [31:0] $end
    $var wire 32 E register_array[27] [31:0] $end
    $var wire 32 F register_array[28] [31:0] $end
    $var wire 32 G register_array[29] [31:0] $end
    $var wire 32 , register_array[2] [31:0] $end
    $var wire 32 H register_array[30] [31:0] $end
    $var wire 32 I register_array[31] [31:0] $end
    $var wire 32 - register_array[3] [31:0] $end
    $var wire 32 . register_array[4] [31:0] $end
    $var wire 32 / register_array[5] [31:0] $end
    $var wire 32 0 register_array[6] [31:0] $end
    $var wire 32 1 register_array[7] [31:0] $end
    $var wire 32 2 register_array[8] [31:0] $end
    $var wire 32 3 register_array[9] [31:0] $end
    $scope module unnamedblk1 $end
     $var wire 32 # i [31:0] $end
    $upscope $end
   $upscope $end
   $scope module rom $end
    $var wire 32 f DATA_W [31:0] $end
    $var wire 32 d WIDTH [31:0] $end
    $var wire 32 M a_i [31:0] $end
    $var wire 32 N rd_o [31:0] $end
   $upscope $end
  $upscope $end
 $upscope $end
$enddefinitions $end


#36
b00000000000000000000000000000000 #
b00000000000000000000000000000000 $
b0000 %
b000 &
0'
b00000000000000000000000000000000 (
b00000000000000000000000000000000 )
b00000000000000000000000000000000 *
b00000000000000000000000000000000 +
b00000000000000000000000000000000 ,
b00000000000000000000000000000000 -
b00000000000000000000000000000000 .
b00000000000000000000000000000000 /
b00000000000000000000000000000000 0
b00000000000000000000000000000000 1
b00000000000000000000000000000000 2
b00000000000000000000000000000000 3
b00000000000000000000000000000000 4
b00000000000000000000000000000000 5
b00000000000000000000000000000000 6
b00000000000000000000000000000000 7
b00000000000000000000000000000000 8
b00000000000000000000000000000000 9
b00000000000000000000000000000000 :
b00000000000000000000000000000000 ;
b00000000000000000000000000000000 <
b00000000000000000000000000000000 =
b00000000000000000000000000000000 >
b00000000000000000000000000000000 ?
b00000000000000000000000000000000 @
b00000000000000000000000000000000 A
b00000000000000000000000000000000 B
b00000000000000000000000000000000 C
b00000000000000000000000000000000 D
b00000000000000000000000000000000 E
b00000000000000000000000000000000 F
b00000000000000000000000000000000 G
b00000000000000000000000000000000 H
b00000000000000000000000000000000 I
0J
0K
0L
b00000000000000000000000000000000 M
b00000000000000000000000000000000 N
b0000000 O
b000 P
0Q
b00000 R
b00000 S
b00000 T
b00000000000000000000000000000000 U
b00000000000000000000000000000000 V
b00000000000000000000000000000000 W
b00000000000000000000000000000000 X
b00000000000000000000000000000000 Y
b00000000000000000000000000000100 Z
b00000000000000000000000000000000 [
b00000000000000000000000000000100 \
0]
1^
0_
0`
0a
0b
0c
b00000000000000000000000000100000 d
b00000000000000000000000000000101 e
b00000000000000000000000000001000 f
b00000000000000000000000000000000 g
#37
b00000000000000000000000000100000 #
b00000000000000000000000011111111 (
1L
b00001111111100000000001100010011 N
b0010011 O
b11111 S
b00110 T
b00000000000000000000000011111111 U
b00000000000000000000000011111111 X
b00000000000000000000000011111111 Y
b00000000000000000000000011111111 [
0^
1`
1a
#38
0L
#39
b00000000000000000000000000000000 (
b11111111111111111111111111011101 )
b00000000000000000000000011111111 0
1L
b00000000000000000000000000000100 M
b00000000000000000000010100010011 N
b00000 S
b01010 T
b00000000000000000000000000000000 U
b00000000000000000000000000000000 X
b00000000000000000000000000000000 Y
b00000000000000000000000000001000 Z
b00000000000000000000000000000100 [
b00000000000000000000000000001000 \
1^
#40
0L
#41
1L
b00000000000000000000000000001000 M
b00000000000000000000010110010011 N
b01011 T
b00000000000000000000000000001100 Z
b00000000000000000000000000001000 [
b00000000000000000000000000001100 \
#42
0L
#43
1L
b00000000000000000000000000001100 M
b00000000000001011000010100010011 N
b01011 R
b01010 T
b00000000000000000000000000010000 Z
b00000000000000000000000000001100 [
b00000000000000000000000000010000 \
#44
0L
#45
b00000000000000000000000000000001 (
b00000000000000000000000000010001 )
1L
b00000000000000000000000000010000 M
b00000000000101011000010110010011 N
b00001 S
b01011 T
b00000000000000000000000000000001 U
b00000000000000000000000000000001 X
b00000000000000000000000000000001 Y
b00000000000000000000000000010100 Z
b00000000000000000000000000010001 [
b00000000000000000000000000010100 \
0^
#46
0L
#47
b00000000000000000000000011111111 $
b010 &
b11111111111111111111111111111000 (
b00000000000000000000000000000000 )
b00000000000000000000000000000001 5
1L
b00000000000000000000000000010100 M
b11111110011001011001110011100011 N
b1100011 O
b001 P
1Q
b00110 S
b11001 T
b00000000000000000000000100000000 U
b00000000000000000000000000000001 W
b00000000000000000000000011111111 X
b00000000000000000000000100000000 Y
b00000000000000000000000000011000 Z
b00000000000000000000000000001100 [
b00000000000000000000000000001100 \
1]
1^
0`
0a
1b
#48
0L
#49
b00000000000000000000000000000000 $
b000 &
b00000000000000000000000000000000 (
b00000000000000000000000000010001 )
1L
b00000000000000000000000000001100 M
b00000000000001011000010100010011 N
b0010011 O
b000 P
0Q
b00000 S
b01010 T
b00000000000000000000000000000001 U
b00000000000000000000000000000000 X
b00000000000000000000000000000001 Y
b00000000000000000000000000010000 Z
b00000000000000000000000000010000 \
0]
0^
1`
1a
0b
#50
0L
#51
b00000000000000000000000000000001 (
b00000000000000000000000000100010 )
b00000000000000000000000000000001 4
1L
b00000000000000000000000000010000 M
b00000000000101011000010110010011 N
b00001 S
b01011 T
b00000000000000000000000000000010 U
b00000000000000000000000000000001 V
b00000000000000000000000000000001 X
b00000000000000000000000000000010 Y
b00000000000000000000000000010100 Z
b00000000000000000000000000010001 [
b00000000000000000000000000010100 \
1^
#52
0L
#53
b00000000000000000000000011111111 $
b010 &
b11111111111111111111111111111000 (
b00000000000000000000000000000000 )
b00000000000000000000000000000010 5
1L
b00000000000000000000000000010100 M
b11111110011001011001110011100011 N
b1100011 O
b001 P
1Q
b00110 S
b11001 T
b00000000000000000000000100000001 U
b00000000000000000000000000000010 W
b00000000000000000000000011111111 X
b00000000000000000000000100000001 Y
b00000000000000000000000000011000 Z
b00000000000000000000000000001100 [
b00000000000000000000000000001100 \
1]
0`
0a
1b
#54
0L
#55
b00000000000000000000000000000000 $
b000 &
b00000000000000000000000000000000 (
b00000000000000000000000000100010 )
1L
b00000000000000000000000000001100 M
b00000000000001011000010100010011 N
b0010011 O
b000 P
0Q
b00000 S
b01010 T
b00000000000000000000000000000010 U
b00000000000000000000000000000000 X
b00000000000000000000000000000010 Y
b00000000000000000000000000010000 Z
b00000000000000000000000000010000 \
0]
0^
1`
1a
0b
#56
0L
#57
b00000000000000000000000000000001 (
b00000000000000000000000000110011 )
b00000000000000000000000000000010 4
1L
b00000000000000000000000000010000 M
b00000000000101011000010110010011 N
b00001 S
b01011 T
b00000000000000000000000000000011 U
b00000000000000000000000000000010 V
b00000000000000000000000000000001 X
b00000000000000000000000000000011 Y
b00000000000000000000000000010100 Z
b00000000000000000000000000010001 [
b00000000000000000000000000010100 \
#58
0L
#59
b00000000000000000000000011111111 $
b010 &
b11111111111111111111111111111000 (
b00000000000000000000000000000000 )
b00000000000000000000000000000011 5
1L
b00000000000000000000000000010100 M
b11111110011001011001110011100011 N
b1100011 O
b001 P
1Q
b00110 S
b11001 T
b00000000000000000000000100000010 U
b00000000000000000000000000000011 W
b00000000000000000000000011111111 X
b00000000000000000000000100000010 Y
b00000000000000000000000000011000 Z
b00000000000000000000000000001100 [
b00000000000000000000000000001100 \
1]
1^
0`
0a
1b
#60
0L
#61
b00000000000000000000000000000000 $
b000 &
b00000000000000000000000000000000 (
b00000000000000000000000000110011 )
1L
b00000000000000000000000000001100 M
b00000000000001011000010100010011 N
b0010011 O
b000 P
0Q
b00000 S
b01010 T
b00000000000000000000000000000011 U
b00000000000000000000000000000000 X
b00000000000000000000000000000011 Y
b00000000000000000000000000010000 Z
b00000000000000000000000000010000 \
0]
0^
1`
1a
0b
#62
0L
#63
b00000000000000000000000000000001 (
b11111111111111111111111110100001 )
b00000000000000000000000000000011 4
1L
b00000000000000000000000000010000 M
b00000000000101011000010110010011 N
b00001 S
b01011 T
b00000000000000000000000000000100 U
b00000000000000000000000000000011 V
b00000000000000000000000000000001 X
b00000000000000000000000000000100 Y
b00000000000000000000000000010100 Z
b00000000000000000000000000010001 [
b00000000000000000000000000010100 \
#64
0L
#65
b00000000000000000000000011111111 $
b010 &
b11111111111111111111111111111000 (
b00000000000000000000000000000000 )
b00000000000000000000000000000100 5
1L
b00000000000000000000000000010100 M
b11111110011001011001110011100011 N
b1100011 O
b001 P
1Q
b00110 S
b11001 T
b00000000000000000000000100000011 U
b00000000000000000000000000000100 W
b00000000000000000000000011111111 X
b00000000000000000000000100000011 Y
b00000000000000000000000000011000 Z
b00000000000000000000000000001100 [
b00000000000000000000000000001100 \
1]
1^
0`
0a
1b
#66
0L
#67
b00000000000000000000000000000000 $
b000 &
b00000000000000000000000000000000 (
b11111111111111111111111110100001 )
1L
b00000000000000000000000000001100 M
b00000000000001011000010100010011 N
b0010011 O
b000 P
0Q
b00000 S
b01010 T
b00000000000000000000000000000100 U
b00000000000000000000000000000000 X
b00000000000000000000000000000100 Y
b00000000000000000000000000010000 Z
b00000000000000000000000000010000 \
0]
0^
1`
1a
0b
#68
0L
#69
b00000000000000000000000000000001 (
b11111111111111111111111110101011 )
b00000000000000000000000000000100 4
1L
b00000000000000000000000000010000 M
b00000000000101011000010110010011 N
b00001 S
b01011 T
b00000000000000000000000000000101 U
b00000000000000000000000000000100 V
b00000000000000000000000000000001 X
b00000000000000000000000000000101 Y
b00000000000000000000000000010100 Z
b00000000000000000000000000010001 [
b00000000000000000000000000010100 \
#70
0L
#71
b00000000000000000000000011111111 $
b010 &
b11111111111111111111111111111000 (
b00000000000000000000000000000000 )
b00000000000000000000000000000101 5
1L
b00000000000000000000000000010100 M
b11111110011001011001110011100011 N
b1100011 O
b001 P
1Q
b00110 S
b11001 T
b00000000000000000000000100000100 U
b00000000000000000000000000000101 W
b00000000000000000000000011111111 X
b00000000000000000000000100000100 Y
b00000000000000000000000000011000 Z
b00000000000000000000000000001100 [
b00000000000000000000000000001100 \
1]
1^
0`
0a
1b
#72
0L
#73
b00000000000000000000000000000000 $
b000 &
b00000000000000000000000000000000 (
b11111111111111111111111110101011 )
1L
b00000000000000000000000000001100 M
b00000000000001011000010100010011 N
b0010011 O
b000 P
0Q
b00000 S
b01010 T
b00000000000000000000000000000101 U
b00000000000000000000000000000000 X
b00000000000000000000000000000101 Y
b00000000000000000000000000010000 Z
b00000000000000000000000000010000 \
0]
0^
1`
1a
0b
#74
0L
#75
b00000000000000000000000000000001 (
b11111111111111111111111110101100 )
b00000000000000000000000000000101 4
1L
b00000000000000000000000000010000 M
b00000000000101011000010110010011 N
b00001 S
b01011 T
b00000000000000000000000000000110 U
b00000000000000000000000000000101 V
b00000000000000000000000000000001 X
b00000000000000000000000000000110 Y
b00000000000000000000000000010100 Z
b00000000000000000000000000010001 [
b00000000000000000000000000010100 \
#76
0L
#77
b00000000000000000000000011111111 $
b010 &
b11111111111111111111111111111000 (
b00000000000000000000000000000000 )
b00000000000000000000000000000110 5
1L
b00000000000000000000000000010100 M
b11111110011001011001110011100011 N
b1100011 O
b001 P
1Q
b00110 S
b11001 T
b00000000000000000000000100000101 U
b00000000000000000000000000000110 W
b00000000000000000000000011111111 X
b00000000000000000000000100000101 Y
b00000000000000000000000000011000 Z
b00000000000000000000000000001100 [
b00000000000000000000000000001100 \
1]
1^
0`
0a
1b
#78
0L
#79
b00000000000000000000000000000000 $
b000 &
b00000000000000000000000000000000 (
b11111111111111111111111110101100 )
1L
b00000000000000000000000000001100 M
b00000000000001011000010100010011 N
b0010011 O
b000 P
0Q
b00000 S
b01010 T
b00000000000000000000000000000110 U
b00000000000000000000000000000000 X
b00000000000000000000000000000110 Y
b00000000000000000000000000010000 Z
b00000000000000000000000000010000 \
0]
0^
1`
1a
0b
#80
0L
#81
b00000000000000000000000000000001 (
b11111111111111111111111110101101 )
b00000000000000000000000000000110 4
1L
b00000000000000000000000000010000 M
b00000000000101011000010110010011 N
b00001 S
b01011 T
b00000000000000000000000000000111 U
b00000000000000000000000000000110 V
b00000000000000000000000000000001 X
b00000000000000000000000000000111 Y
b00000000000000000000000000010100 Z
b00000000000000000000000000010001 [
b00000000000000000000000000010100 \
#82
0L
#83
b00000000000000000000000011111111 $
b010 &
b11111111111111111111111111111000 (
b00000000000000000000000000000000 )
b00000000000000000000000000000111 5
1L
b00000000000000000000000000010100 M
b11111110011001011001110011100011 N
b1100011 O
b001 P
1Q
b00110 S
b11001 T
b00000000000000000000000100000110 U
b00000000000000000000000000000111 W
b00000000000000000000000011111111 X
b00000000000000000000000100000110 Y
b00000000000000000000000000011000 Z
b00000000000000000000000000001100 [
b00000000000000000000000000001100 \
1]
1^
0`
0a
1b
#84
0L
#85
b00000000000000000000000000000000 $
b000 &
b00000000000000000000000000000000 (
b11111111111111111111111110101101 )
1L
b00000000000000000000000000001100 M
b00000000000001011000010100010011 N
b0010011 O
b000 P
0Q
b00000 S
b01010 T
b00000000000000000000000000000111 U
b00000000000000000000000000000000 X
b00000000000000000000000000000111 Y
b00000000000000000000000000010000 Z
b00000000000000000000000000010000 \
0]
0^
1`
1a
0b
#86
0L
#87
b00000000000000000000000000000001 (
b11111111111111111111111110101110 )
b00000000000000000000000000000111 4
1L
b00000000000000000000000000010000 M
b00000000000101011000010110010011 N
b00001 S
b01011 T
b00000000000000000000000000001000 U
b00000000000000000000000000000111 V
b00000000000000000000000000000001 X
b00000000000000000000000000001000 Y
b00000000000000000000000000010100 Z
b00000000000000000000000000010001 [
b00000000000000000000000000010100 \
#88
0L
#89
b00000000000000000000000011111111 $
b010 &
b11111111111111111111111111111000 (
b00000000000000000000000000000000 )
b00000000000000000000000000001000 5
1L
b00000000000000000000000000010100 M
b11111110011001011001110011100011 N
b1100011 O
b001 P
1Q
b00110 S
b11001 T
b00000000000000000000000100000111 U
b00000000000000000000000000001000 W
b00000000000000000000000011111111 X
b00000000000000000000000100000111 Y
b00000000000000000000000000011000 Z
b00000000000000000000000000001100 [
b00000000000000000000000000001100 \
1]
1^
0`
0a
1b
#90
0L
#91
b00000000000000000000000000000000 $
b000 &
b00000000000000000000000000000000 (
b11111111111111111111111110101110 )
1L
b00000000000000000000000000001100 M
b00000000000001011000010100010011 N
b0010011 O
b000 P
0Q
b00000 S
b01010 T
b00000000000000000000000000001000 U
b00000000000000000000000000000000 X
b00000000000000000000000000001000 Y
b00000000000000000000000000010000 Z
b00000000000000000000000000010000 \
0]
0^
1`
1a
0b
#92
0L
#93
b00000000000000000000000000000001 (
b00000000000000000000000001010101 )
b00000000000000000000000000001000 4
1L
b00000000000000000000000000010000 M
b00000000000101011000010110010011 N
b00001 S
b01011 T
b00000000000000000000000000001001 U
b00000000000000000000000000001000 V
b00000000000000000000000000000001 X
b00000000000000000000000000001001 Y
b00000000000000000000000000010100 Z
b00000000000000000000000000010001 [
b00000000000000000000000000010100 \
#94
0L
#95
b00000000000000000000000011111111 $
b010 &
b11111111111111111111111111111000 (
b00000000000000000000000000000000 )
b00000000000000000000000000001001 5
1L
b00000000000000000000000000010100 M
b11111110011001011001110011100011 N
b1100011 O
b001 P
1Q
b00110 S
b11001 T
b00000000000000000000000100001000 U
b00000000000000000000000000001001 W
b00000000000000000000000011111111 X
b00000000000000000000000100001000 Y
b00000000000000000000000000011000 Z
b00000000000000000000000000001100 [
b00000000000000000000000000001100 \
1]
1^
0`
0a
1b
#96
0L
#97
b00000000000000000000000000000000 $
b000 &
b00000000000000000000000000000000 (
b00000000000000000000000001010101 )
1L
b00000000000000000000000000001100 M
b00000000000001011000010100010011 N
b0010011 O
b000 P
0Q
b00000 S
b01010 T
b00000000000000000000000000001001 U
b00000000000000000000000000000000 X
b00000000000000000000000000001001 Y
b00000000000000000000000000010000 Z
b00000000000000000000000000010000 \
0]
0^
1`
1a
0b
#98
0L
#99
b00000000000000000000000000000001 (
b00000000000000000000000001100110 )
b00000000000000000000000000001001 4
1L
b00000000000000000000000000010000 M
b00000000000101011000010110010011 N
b00001 S
b01011 T
b00000000000000000000000000001010 U
b00000000000000000000000000001001 V
b00000000000000000000000000000001 X
b00000000000000000000000000001010 Y
b00000000000000000000000000010100 Z
b00000000000000000000000000010001 [
b00000000000000000000000000010100 \
#100
0L
#101
b00000000000000000000000011111111 $
b010 &
b11111111111111111111111111111000 (
b00000000000000000000000000000000 )
b00000000000000000000000000001010 5
1L
b00000000000000000000000000010100 M
b11111110011001011001110011100011 N
b1100011 O
b001 P
1Q
b00110 S
b11001 T
b00000000000000000000000100001001 U
b00000000000000000000000000001010 W
b00000000000000000000000011111111 X
b00000000000000000000000100001001 Y
b00000000000000000000000000011000 Z
b00000000000000000000000000001100 [
b00000000000000000000000000001100 \
1]
1^
0`
0a
1b
#102
0L
#103
b00000000000000000000000000000000 $
b000 &
b00000000000000000000000000000000 (
b00000000000000000000000001100110 )
1L
b00000000000000000000000000001100 M
b00000000000001011000010100010011 N
b0010011 O
b000 P
0Q
b00000 S
b01010 T
b00000000000000000000000000001010 U
b00000000000000000000000000000000 X
b00000000000000000000000000001010 Y
b00000000000000000000000000010000 Z
b00000000000000000000000000010000 \
0]
0^
1`
1a
0b
#104
0L
#105
b00000000000000000000000000000001 (
b00000000000000000000000001110111 )
b00000000000000000000000000001010 4
1L
b00000000000000000000000000010000 M
b00000000000101011000010110010011 N
b00001 S
b01011 T
b00000000000000000000000000001011 U
b00000000000000000000000000001010 V
b00000000000000000000000000000001 X
b00000000000000000000000000001011 Y
b00000000000000000000000000010100 Z
b00000000000000000000000000010001 [
b00000000000000000000000000010100 \
#106
0L
#107
b00000000000000000000000011111111 $
b010 &
b11111111111111111111111111111000 (
b00000000000000000000000000000000 )
b00000000000000000000000000001011 5
1L
b00000000000000000000000000010100 M
b11111110011001011001110011100011 N
b1100011 O
b001 P
1Q
b00110 S
b11001 T
b00000000000000000000000100001010 U
b00000000000000000000000000001011 W
b00000000000000000000000011111111 X
b00000000000000000000000100001010 Y
b00000000000000000000000000011000 Z
b00000000000000000000000000001100 [
b00000000000000000000000000001100 \
1]
1^
0`
0a
1b
#108
0L
#109
b00000000000000000000000000000000 $
b000 &
b00000000000000000000000000000000 (
b00000000000000000000000001110111 )
1L
b00000000000000000000000000001100 M
b00000000000001011000010100010011 N
b0010011 O
b000 P
0Q
b00000 S
b01010 T
b00000000000000000000000000001011 U
b00000000000000000000000000000000 X
b00000000000000000000000000001011 Y
b00000000000000000000000000010000 Z
b00000000000000000000000000010000 \
0]
0^
1`
1a
0b
#110
0L
#111
b00000000000000000000000000000001 (
b00000000000000000000000000000000 )
b00000000000000000000000000001011 4
1L
b00000000000000000000000000010000 M
b00000000000101011000010110010011 N
b00001 S
b01011 T
b00000000000000000000000000001100 U
b00000000000000000000000000001011 V
b00000000000000000000000000000001 X
b00000000000000000000000000001100 Y
b00000000000000000000000000010100 Z
b00000000000000000000000000010001 [
b00000000000000000000000000010100 \
#112
0L
#113
b00000000000000000000000011111111 $
b010 &
b11111111111111111111111111111000 (
b00000000000000000000000000001100 5
1L
b00000000000000000000000000010100 M
b11111110011001011001110011100011 N
b1100011 O
b001 P
1Q
b00110 S
b11001 T
b00000000000000000000000100001011 U
b00000000000000000000000000001100 W
b00000000000000000000000011111111 X
b00000000000000000000000100001011 Y
b00000000000000000000000000011000 Z
b00000000000000000000000000001100 [
b00000000000000000000000000001100 \
1]
1^
0`
0a
1b
#114
0L
#115
b00000000000000000000000000000000 $
b000 &
b00000000000000000000000000000000 (
1L
b00000000000000000000000000001100 M
b00000000000001011000010100010011 N
b0010011 O
b000 P
0Q
b00000 S
b01010 T
b00000000000000000000000000001100 U
b00000000000000000000000000000000 X
b00000000000000000000000000001100 Y
b00000000000000000000000000010000 Z
b00000000000000000000000000010000 \
0]
0^
1`
1a
0b
#116
0L
#117
b00000000000000000000000000000001 (
b00000000000000000000000000001100 4
1L
b00000000000000000000000000010000 M
b00000000000101011000010110010011 N
b00001 S
b01011 T
b00000000000000000000000000001101 U
b00000000000000000000000000001100 V
b00000000000000000000000000000001 X
b00000000000000000000000000001101 Y
b00000000000000000000000000010100 Z
b00000000000000000000000000010001 [
b00000000000000000000000000010100 \
#118
0L
#119
b00000000000000000000000011111111 $
b010 &
b11111111111111111111111111111000 (
b00000000000000000000000000001101 5
1L
b00000000000000000000000000010100 M
b11111110011001011001110011100011 N
b1100011 O
b001 P
1Q
b00110 S
b11001 T
b00000000000000000000000100001100 U
b00000000000000000000000000001101 W
b00000000000000000000000011111111 X
b00000000000000000000000100001100 Y
b00000000000000000000000000011000 Z
b00000000000000000000000000001100 [
b00000000000000000000000000001100 \
1]
1^
0`
0a
1b
#120
0L
#121
b00000000000000000000000000000000 $
b000 &
b00000000000000000000000000000000 (
1L
b00000000000000000000000000001100 M
b00000000000001011000010100010011 N
b0010011 O
b000 P
0Q
b00000 S
b01010 T
b00000000000000000000000000001101 U
b00000000000000000000000000000000 X
b00000000000000000000000000001101 Y
b00000000000000000000000000010000 Z
b00000000000000000000000000010000 \
0]
0^
1`
1a
0b
#122
0L
#123
b00000000000000000000000000000001 (
b00000000000000000000000000001101 4
1L
b00000000000000000000000000010000 M
b00000000000101011000010110010011 N
b00001 S
b01011 T
b00000000000000000000000000001110 U
b00000000000000000000000000001101 V
b00000000000000000000000000000001 X
b00000000000000000000000000001110 Y
b00000000000000000000000000010100 Z
b00000000000000000000000000010001 [
b00000000000000000000000000010100 \
#124
0L
#125
b00000000000000000000000011111111 $
b010 &
b11111111111111111111111111111000 (
b00000000000000000000000000001110 5
1L
b00000000000000000000000000010100 M
b11111110011001011001110011100011 N
b1100011 O
b001 P
1Q
b00110 S
b11001 T
b00000000000000000000000100001101 U
b00000000000000000000000000001110 W
b00000000000000000000000011111111 X
b00000000000000000000000100001101 Y
b00000000000000000000000000011000 Z
b00000000000000000000000000001100 [
b00000000000000000000000000001100 \
1]
1^
0`
0a
1b
#126
0L
#127
b00000000000000000000000000000000 $
b000 &
b00000000000000000000000000000000 (
1L
b00000000000000000000000000001100 M
b00000000000001011000010100010011 N
b0010011 O
b000 P
0Q
b00000 S
b01010 T
b00000000000000000000000000001110 U
b00000000000000000000000000000000 X
b00000000000000000000000000001110 Y
b00000000000000000000000000010000 Z
b00000000000000000000000000010000 \
0]
0^
1`
1a
0b
#128
0L
#129
b00000000000000000000000000000001 (
b00000000000000000000000000001110 4
1L
b00000000000000000000000000010000 M
b00000000000101011000010110010011 N
b00001 S
b01011 T
b00000000000000000000000000001111 U
b00000000000000000000000000001110 V
b00000000000000000000000000000001 X
b00000000000000000000000000001111 Y
b00000000000000000000000000010100 Z
b00000000000000000000000000010001 [
b00000000000000000000000000010100 \
#130
0L
#131
b00000000000000000000000011111111 $
b010 &
b11111111111111111111111111111000 (
b00000000000000000000000000001111 5
1L
b00000000000000000000000000010100 M
b11111110011001011001110011100011 N
b1100011 O
b001 P
1Q
b00110 S
b11001 T
b00000000000000000000000100001110 U
b00000000000000000000000000001111 W
b00000000000000000000000011111111 X
b00000000000000000000000100001110 Y
b00000000000000000000000000011000 Z
b00000000000000000000000000001100 [
b00000000000000000000000000001100 \
1]
1^
0`
0a
1b
#132
0L
#133
b00000000000000000000000000000000 $
b000 &
b00000000000000000000000000000000 (
1L
b00000000000000000000000000001100 M
b00000000000001011000010100010011 N
b0010011 O
b000 P
0Q
b00000 S
b01010 T
b00000000000000000000000000001111 U
b00000000000000000000000000000000 X
b00000000000000000000000000001111 Y
b00000000000000000000000000010000 Z
b00000000000000000000000000010000 \
0]
0^
1`
1a
0b
#134
0L
#135
b00000000000000000000000000000001 (
b00000000000000000000000000001111 4
1L
b00000000000000000000000000010000 M
b00000000000101011000010110010011 N
b00001 S
b01011 T
b00000000000000000000000000010000 U
b00000000000000000000000000001111 V
b00000000000000000000000000000001 X
b00000000000000000000000000010000 Y
b00000000000000000000000000010100 Z
b00000000000000000000000000010001 [
b00000000000000000000000000010100 \
#136
0L
#137
b00000000000000000000000011111111 $
b010 &
b11111111111111111111111111111000 (
b00000000000000000000000000010000 5
1L
b00000000000000000000000000010100 M
b11111110011001011001110011100011 N
b1100011 O
b001 P
1Q
b00110 S
b11001 T
b00000000000000000000000100001111 U
b00000000000000000000000000010000 W
b00000000000000000000000011111111 X
b00000000000000000000000100001111 Y
b00000000000000000000000000011000 Z
b00000000000000000000000000001100 [
b00000000000000000000000000001100 \
1]
1^
0`
0a
1b
#138
0L
