top.vcd
$version Generated by VerilatedVcd $end
$date Wed Dec  7 13:37:51 2022 $end
$timescale 1ps $end

 $scope module TOP $end
  $var wire 32 ] ALUResultWire [31:0] $end
  $var wire 32 \ Aluop2Wire [31:0] $end
  $var wire 32 P InstructionWire [31:0] $end
  $var wire 32 O PC_wire [31:0] $end
  $var wire 32 [ RD1Wire [31:0] $end
  $var wire  1 N clk $end
  $var wire 32 X data_out [31:0] $end
  $var wire 32 Y data_out1 [31:0] $end
  $var wire 32 Z data_out2 [31:0] $end
  $var wire  3 R funct3 [2:0] $end
  $var wire  1 S funct7 $end
  $var wire  7 Q opcode [6:0] $end
  $var wire  5 V rdWire [4:0] $end
  $var wire  5 T rs1Wire [4:0] $end
  $var wire  5 U rs2Wire [4:0] $end
  $var wire  1 L rst $end
  $var wire  1 M trigger_i $end
  $var wire 32 W wd3Wire [31:0] $end
  $scope module top $end
   $var wire 32 ] ALUResultWire [31:0] $end
   $var wire  4 & ALUctrlWire [3:0] $end
   $var wire  1 d ALUsrcWire $end
   $var wire 32 \ Aluop2Wire [31:0] $end
   $var wire  1 e BranchSrcWire $end
   $var wire 32 h DW [31:0] $end
   $var wire  3 ' ImmSrcWire [2:0] $end
   $var wire 32 ) ImmediateExtendWire [31:0] $end
   $var wire 25 g ImmediateWire [24:0] $end
   $var wire 32 P InstructionWire [31:0] $end
   $var wire 32 O PC_wire [31:0] $end
   $var wire  1 a PCsrcWire $end
   $var wire 32 [ RD1Wire [31:0] $end
   $var wire 32 $ RD2Wire [31:0] $end
   $var wire 32 * RamOutWire [31:0] $end
   $var wire  1 f ResultSrcWire $end
   $var wire  1 ( addrSelectWire $end
   $var wire  1 % branchWire $end
   $var wire 32 _ branch_PC [31:0] $end
   $var wire  1 N clk $end
   $var wire 32 X data_out [31:0] $end
   $var wire 32 Y data_out1 [31:0] $end
   $var wire 32 Z data_out2 [31:0] $end
   $var wire  3 R funct3 [2:0] $end
   $var wire  1 S funct7 $end
   $var wire 32 ^ inc_PC [31:0] $end
   $var wire  1 b memWrite_enWire $end
   $var wire 32 ` next_PC [31:0] $end
   $var wire  7 Q opcode [6:0] $end
   $var wire  5 V rdWire [4:0] $end
   $var wire  1 c regWrite_enWire $end
   $var wire  5 T rs1Wire [4:0] $end
   $var wire  5 U rs2Wire [4:0] $end
   $var wire  1 L rst $end
   $var wire  1 M trigger_i $end
   $var wire 32 W wd3Wire [31:0] $end
   $scope module ALU $end
    $var wire 32 ] ALUResult_o [31:0] $end
    $var wire  4 & ALUctrl_i [3:0] $end
    $var wire  3 R BranchCtrl_i [2:0] $end
    $var wire  1 % Branch_o $end
    $var wire 32 h DATAWIDTH [31:0] $end
    $var wire 32 i SHIFT_WIDTH [31:0] $end
    $var wire 32 [ SrcA_Signed [31:0] $end
    $var wire 32 [ SrcA_i [31:0] $end
    $var wire 32 \ SrcB_Signed [31:0] $end
    $var wire 32 \ SrcB_i [31:0] $end
    $var wire  1 + overwrite_branch_o $end
   $upscope $end
   $scope module PC $end
    $var wire 32 h DW [31:0] $end
    $var wire 32 ` PC_i [31:0] $end
    $var wire 32 O PC_o [31:0] $end
    $var wire  1 N clk $end
    $var wire  1 L rst $end
   $upscope $end
   $scope module control $end
    $var wire  4 & ALUctrl_o [3:0] $end
    $var wire  1 d ALUsrc_o $end
    $var wire  1 e BranchSrc_o $end
    $var wire  3 ' ImmSrc_o [2:0] $end
    $var wire  1 f ResultSrc_o $end
    $var wire  1 ( addrSelect_o $end
    $var wire  3 R funct3_i [2:0] $end
    $var wire  1 S funct7bit_i $end
    $var wire  1 b memWrite_en_o $end
    $var wire  7 Q op_i [6:0] $end
    $var wire  1 c regWrite_en_o $end
   $upscope $end
   $scope module extend $end
    $var wire 32 h DATAWIDTH [31:0] $end
    $var wire 32 ) ImmExt_o [31:0] $end
    $var wire  3 ' ImmSrc_i [2:0] $end
    $var wire 25 g Imm_i [31:7] $end
   $upscope $end
   $scope module ram $end
    $var wire  1 ( AddrsCtrl_i $end
    $var wire 32 j DATA_W [31:0] $end
    $var wire 32 h WIDTH [31:0] $end
    $var wire 32 ] a_i [31:0] $end
    $var wire  1 N clk_i $end
    $var wire 32 * rd_o [31:0] $end
    $var wire 32 $ wd_i [31:0] $end
    $var wire  1 b write_en_i $end
   $upscope $end
   $scope module register_file $end
    $var wire  5 T AD1_i [4:0] $end
    $var wire  5 U AD2_i [4:0] $end
    $var wire  5 V AD3_i [4:0] $end
    $var wire 32 i ADDRESS_WIDTH [31:0] $end
    $var wire 32 h DATA_WIDTH [31:0] $end
    $var wire 32 [ RD1_o [31:0] $end
    $var wire 32 $ RD2_o [31:0] $end
    $var wire 32 W WD3_i [31:0] $end
    $var wire  1 c WE3_i $end
    $var wire 32 X a0_o [31:0] $end
    $var wire 32 k a1 [31:0] $end
    $var wire 32 Y a1_o [31:0] $end
    $var wire 32 Z a2_o [31:0] $end
    $var wire  1 N clk $end
    $var wire 32 , register_array[0] [31:0] $end
    $var wire 32 6 register_array[10] [31:0] $end
    $var wire 32 7 register_array[11] [31:0] $end
    $var wire 32 8 register_array[12] [31:0] $end
    $var wire 32 9 register_array[13] [31:0] $end
    $var wire 32 : register_array[14] [31:0] $end
    $var wire 32 ; register_array[15] [31:0] $end
    $var wire 32 < register_array[16] [31:0] $end
    $var wire 32 = register_array[17] [31:0] $end
    $var wire 32 > register_array[18] [31:0] $end
    $var wire 32 ? register_array[19] [31:0] $end
    $var wire 32 - register_array[1] [31:0] $end
    $var wire 32 @ register_array[20] [31:0] $end
    $var wire 32 A register_array[21] [31:0] $end
    $var wire 32 B register_array[22] [31:0] $end
    $var wire 32 C register_array[23] [31:0] $end
    $var wire 32 D register_array[24] [31:0] $end
    $var wire 32 E register_array[25] [31:0] $end
    $var wire 32 F register_array[26] [31:0] $end
    $var wire 32 G register_array[27] [31:0] $end
    $var wire 32 H register_array[28] [31:0] $end
    $var wire 32 I register_array[29] [31:0] $end
    $var wire 32 . register_array[2] [31:0] $end
    $var wire 32 J register_array[30] [31:0] $end
    $var wire 32 K register_array[31] [31:0] $end
    $var wire 32 / register_array[3] [31:0] $end
    $var wire 32 0 register_array[4] [31:0] $end
    $var wire 32 1 register_array[5] [31:0] $end
    $var wire 32 2 register_array[6] [31:0] $end
    $var wire 32 3 register_array[7] [31:0] $end
    $var wire 32 4 register_array[8] [31:0] $end
    $var wire 32 5 register_array[9] [31:0] $end
    $scope module unnamedblk1 $end
     $var wire 32 # i [31:0] $end
    $upscope $end
   $upscope $end
   $scope module rom $end
    $var wire 32 j DATA_W [31:0] $end
    $var wire 32 h WIDTH [31:0] $end
    $var wire 32 O a_i [31:0] $end
    $var wire 32 P rd_o [31:0] $end
   $upscope $end
  $upscope $end
 $upscope $end
$enddefinitions $end


#0
b00000000000000000000000000000000 #
b00000000000000000000000000000000 $
0%
b0000 &
b000 '
0(
b00000000000000000000000000000000 )
b00000000000000000000000000000000 *
0+
b00000000000000000000000000000000 ,
b00000000000000000000000000000000 -
b00000000000000000000000000000000 .
b00000000000000000000000000000000 /
b00000000000000000000000000000000 0
b00000000000000000000000000000000 1
b00000000000000000000000000000000 2
b00000000000000000000000000000000 3
b00000000000000000000000000000000 4
b00000000000000000000000000000000 5
b00000000000000000000000000000000 6
b00000000000000000000000000000000 7
b00000000000000000000000000000000 8
b00000000000000000000000000000000 9
b00000000000000000000000000000000 :
b00000000000000000000000000000000 ;
b00000000000000000000000000000000 <
b00000000000000000000000000000000 =
b00000000000000000000000000000000 >
b00000000000000000000000000000000 ?
b00000000000000000000000000000000 @
b00000000000000000000000000000000 A
b00000000000000000000000000000000 B
b00000000000000000000000000000000 C
b00000000000000000000000000000000 D
b00000000000000000000000000000000 E
b00000000000000000000000000000000 F
b00000000000000000000000000000000 G
b00000000000000000000000000000000 H
b00000000000000000000000000000000 I
b00000000000000000000000000000000 J
b00000000000000000000000000000000 K
0L
0M
0N
b00000000000000000000000000000000 O
b00000000000000000000000000000000 P
b0000000 Q
b000 R
0S
b00000 T
b00000 U
b00000 V
b00000000000000000000000000000000 W
b00000000000000000000000000000000 X
b00000000000000000000000000000000 Y
b00000000000000000000000000000000 Z
b00000000000000000000000000000000 [
b00000000000000000000000000000000 \
b00000000000000000000000000000000 ]
b00000000000000000000000000000100 ^
b00000000000000000000000000000000 _
b00000000000000000000000000000100 `
0a
0b
0c
0d
0e
0f
b0000000000000000000000000 g
b00000000000000000000000000100000 h
b00000000000000000000000000000101 i
b00000000000000000000000000001000 j
b00000000000000000000000000000000 k
#1
b00000000000000000000000000100000 #
b00000000000000000000000100101100 )
1N
b00010010110001011000010110010011 P
b0010011 Q
b01011 T
b01100 U
b01011 V
b00000000000000000000000100101100 W
b00000000000000000000000100101100 \
b00000000000000000000000100101100 ]
b00000000000000000000000100101100 _
1c
1d
b0001001011000101100001011 g
#2
0N
#3
b00000000000000000000000001100100 )
b00000000000000000000000100101100 7
1N
b00000000000000000000000000000100 O
b00000110010001100000011000010011 P
b01100 T
b00100 U
b01100 V
b00000000000000000000000001100100 W
b00000000000000000000000100101100 X
b00000000000000000000000001100100 \
b00000000000000000000000001100100 ]
b00000000000000000000000000001000 ^
b00000000000000000000000001101000 _
b00000000000000000000000000001000 `
b0000011001000110000001100 g
#4
0N
#5
b00000000000000000000000001100100 $
b00000000000000000000000000001100 )
b00000000000000000000000001100100 8
1N
b00000000000000000000000000001000 O
b00000000110001011000010110110011 P
b0110011 Q
b01011 T
b01100 U
b01011 V
b00000000000000000000000110010000 W
b00000000000000000000000001100100 Y
b00000000000000000000000100101100 [
b00000000000000000000000110010000 ]
b00000000000000000000000000001100 ^
b00000000000000000000000000010100 _
b00000000000000000000000000001100 `
0d
b0000000011000101100001011 g
#6
0N
#7
b00000000000000000000000000000000 $
b00000000000000000000000000000001 )
b00000000000000000000000000010001 *
b00000000000000000000000110010000 7
1N
b00000000000000000000000000001100 O
b00000000000101101000011010010011 P
b0010011 Q
b01101 T
b00001 U
b01101 V
b00000000000000000000000000000001 W
b00000000000000000000000110010000 X
b00000000000000000000000000000000 [
b00000000000000000000000000000001 \
b00000000000000000000000000000001 ]
b00000000000000000000000000010000 ^
b00000000000000000000000000001101 _
b00000000000000000000000000010000 `
1d
b0000000000010110100001101 g
#8
0N
#9
b00000000000000000000000001100100 $
b0001 &
b00000000000000000000010000001100 )
b00000000000000000000000000000000 *
b00000000000000000000000000000001 9
1N
b00000000000000000000000000010000 O
b01000000110001011000010110110011 P
b0110011 Q
1S
b01011 T
b01100 U
b01011 V
b00000000000000000000000100101100 W
b00000000000000000000000000000001 Z
b00000000000000000000000110010000 [
b00000000000000000000000001100100 \
b00000000000000000000000100101100 ]
b00000000000000000000000000010100 ^
b00000000000000000000010000011100 _
b00000000000000000000000000010100 `
0d
b0100000011000101100001011 g
#10
0N
#11
b00000000000000000000000000000001 $
1%
b1000 &
b00000000000000000000000000001101 )
b00000000000000000000000100101100 7
1N
b00000000000000000000000000010100 O
b00000000110101100001011000110011 P
b001 R
0S
b01100 T
b01101 U
b01100 V
b00000000000000000000000011001000 W
b00000000000000000000000100101100 X
b00000000000000000000000001100100 [
b00000000000000000000000000000001 \
b00000000000000000000000011001000 ]
b00000000000000000000000000011000 ^
b00000000000000000000000000100001 _
b00000000000000000000000000011000 `
b0000000011010110000101100 g
#12
0N
#13
b0111 &
b00000000000000000000000011001000 8
1N
b00000000000000000000000000011000 O
b00000000110101100101011000110011 P
b101 R
b00000000000000000000000001100100 W
b00000000000000000000000011001000 Y
b00000000000000000000000011001000 [
b00000000000000000000000001100100 ]
b00000000000000000000000000011100 ^
b00000000000000000000000000100101 _
b00000000000000000000000000011100 `
b0000000011010110010101100 g
#14
0N
#15
b00000000000000000000000000000000 $
b1000 &
b00000000000000000000000000000010 )
b00000000000000000000000001100100 8
1N
b00000000000000000000000000011100 O
b00000000001001100001011000010011 P
b0010011 Q
b001 R
b00010 U
b00000000000000000000000110010000 W
b00000000000000000000000001100100 Y
b00000000000000000000000001100100 [
b00000000000000000000000000000010 \
b00000000000000000000000110010000 ]
b00000000000000000000000000100000 ^
b00000000000000000000000000011110 _
b00000000000000000000000000100000 `
1d
b0000000000100110000101100 g
#16
0N
#17
b0111 &
b00000000000000000000000000000001 )
b00000000000000000000000110010000 8
1N
b00000000000000000000000000100000 O
b00000000000101100101011000010011 P
b101 R
b00001 U
b00000000000000000000000011001000 W
b00000000000000000000000110010000 Y
b00000000000000000000000110010000 [
b00000000000000000000000000000001 \
b00000000000000000000000011001000 ]
b00000000000000000000000000100100 ^
b00000000000000000000000000100001 _
b00000000000000000000000000100100 `
b0000000000010110010101100 g
#18
0N
#19
b00000000000000000000000011001000 $
b0110 &
b00000000000000000000000000001100 )
b11111111111111111111111111011101 *
b00000000000000000000000011001000 8
1N
b00000000000000000000000000100100 O
b00000000110001011011011010110011 P
b0110011 Q
b011 R
b01011 T
b01100 U
b01101 V
b00000000000000000000000000000000 W
b00000000000000000000000011001000 Y
b00000000000000000000000100101100 [
b00000000000000000000000011001000 \
b00000000000000000000000000000000 ]
b00000000000000000000000000101000 ^
b00000000000000000000000000110000 _
b00000000000000000000000000101000 `
0d
b0000000011000101101101101 g
#20
0N
#21
b00000000000000000000000100101100 $
0%
b00000000000000000000000000001011 )
b00000000000000000000000000010001 *
b00000000000000000000000000000000 9
1N
b00000000000000000000000000101000 O
b00000000101101100011011010110011 P
b01100 T
b01011 U
b00000000000000000000000000000001 W
b00000000000000000000000000000000 Z
b00000000000000000000000011001000 [
b00000000000000000000000100101100 \
b00000000000000000000000000000001 ]
b00000000000000000000000000101100 ^
b00000000000000000000000000110011 _
b00000000000000000000000000101100 `
b0000000010110110001101101 g
#22
0N
#23
b00000000000000000000000000000000 $
1%
b00000000000000000000000011111010 )
b11111111111111111111111111011101 *
b00000000000000000000000000000001 9
1N
b00000000000000000000000000101100 O
b00001111101001011011011010010011 P
b0010011 Q
b01011 T
b11010 U
b00000000000000000000000000000000 W
b00000000000000000000000000000001 Z
b00000000000000000000000100101100 [
b00000000000000000000000011111010 \
b00000000000000000000000000000000 ]
b00000000000000000000000000110000 ^
b00000000000000000000000100100110 _
b00000000000000000000000000110000 `
1d
b0000111110100101101101101 g
#24
0N
#25
0%
b00000000000000000000000101011110 )
b00000000000000000000000000010001 *
b00000000000000000000000000000000 9
1N
b00000000000000000000000000110000 O
b00010101111001011011011010010011 P
b11110 U
b00000000000000000000000000000001 W
b00000000000000000000000000000000 Z
b00000000000000000000000101011110 \
b00000000000000000000000000000001 ]
b00000000000000000000000000110100 ^
b00000000000000000000000110001110 _
b00000000000000000000000000110100 `
b0001010111100101101101101 g
#26
0N
#27
b0011 &
b00000000000000000000000001100100 )
b00000000000000000000000000000000 *
b00000000000000000000000000000001 9
1N
b00000000000000000000000000110100 O
b00000110010001100110011000010011 P
b110 R
b01100 T
b00100 U
b01100 V
b00000000000000000000000011101100 W
b00000000000000000000000000000001 Z
b00000000000000000000000011001000 [
b00000000000000000000000001100100 \
b00000000000000000000000011101100 ]
b00000000000000000000000000111000 ^
b00000000000000000000000010011000 _
b00000000000000000000000000111000 `
b0000011001000110011001100 g
#28
0N
#29
b0000 &
b00000000000000000000000000100100 )
b00000000000000000000000011101100 8
1N
b00000000000000000000000000111000 O
b00000010010000000000011010010011 P
b000 R
b00000 T
b01101 V
b00000000000000000000000000100100 W
b00000000000000000000000011101100 Y
b00000000000000000000000000000000 [
b00000000000000000000000000100100 \
b00000000000000000000000000100100 ]
b00000000000000000000000000111100 ^
b00000000000000000000000001011100 _
b00000000000000000000000000111100 `
b0000001001000000000001101 g
#30
0N
#31
b00000000000000000000000000100100 $
b0001 &
b00000000000000000000010000001101 )
b00000000000000000000000000100100 9
1N
b00000000000000000000000000111100 O
b01000000110101100000011000110011 P
b0110011 Q
1S
b01100 T
b01101 U
b01100 V
b00000000000000000000000011001000 W
b00000000000000000000000000100100 Z
b00000000000000000000000011101100 [
b00000000000000000000000011001000 ]
b00000000000000000000000001000000 ^
b00000000000000000000010001001001 _
b00000000000000000000000001000000 `
0d
b0100000011010110000001100 g
#32
0N
#33
b00000000000000000000000100101100 $
b0010 &
b00000000000000000000000000001011 )
b11111111111111111111111110101110 *
b00000000000000000000000011001000 8
1N
b00000000000000000000000001000000 O
b00000000101101100111011010110011 P
b111 R
0S
b01011 U
b01101 V
b00000000000000000000000000001000 W
b00000000000000000000000011001000 Y
b00000000000000000000000011001000 [
b00000000000000000000000100101100 \
b00000000000000000000000000001000 ]
b00000000000000000000000001000100 ^
b00000000000000000000000001001011 _
b00000000000000000000000001000100 `
b0000000010110110011101101 g
#34
0N
#35
b00000000000000000000000000000000 $
b00000000000000000000000000000001 )
b11111111111111111111111111011101 *
b00000000000000000000000000001000 9
1N
b00000000000000000000000001000100 O
b00000000000101100111011010010011 P
b0010011 Q
b00001 U
b00000000000000000000000000000000 W
b00000000000000000000000000001000 Z
b00000000000000000000000000000001 \
b00000000000000000000000000000000 ]
b00000000000000000000000001001000 ^
b00000000000000000000000001000101 _
b00000000000000000000000001001000 `
1d
b0000000000010110011101101 g
#36
0N
#37
b0100 &
b00000000000000000000000001111000 )
b00000000000000000000000000000000 *
b00000000000000000000000000000000 9
1N
b00000000000000000000000001001000 O
b00000111100001100100011010010011 P
b100 R
b11000 U
b00000000000000000000000010110000 W
b00000000000000000000000000000000 Z
b00000000000000000000000001111000 \
b00000000000000000000000010110000 ]
b00000000000000000000000001001100 ^
b00000000000000000000000011000000 _
b00000000000000000000000001001100 `
b0000011110000110010001101 g
#38
0N
#39
b00000000000000000000000100101100 $
1%
b00000000000000000000000000001011 )
b00000000000000000000000010110000 9
1N
b00000000000000000000000001001100 O
b00000000101101100100011010110011 P
b0110011 Q
b01011 U
b00000000000000000000000111100100 W
b00000000000000000000000010110000 Z
b00000000000000000000000100101100 \
b00000000000000000000000111100100 ]
b00000000000000000000000001010000 ^
b00000000000000000000000001010111 _
b00000000000000000000000001010000 `
0d
b0000000010110110010001101 g
#40
0N
#41
b00000000000000000000000000000000 $
0%
b0000 &
b00000000000000000000000101101000 )
b00000000000000000000000111100100 9
1N
b00000000000000000000000001010000 O
b00010110100000000000011010010011 P
b0010011 Q
b000 R
b00000 T
b01000 U
b00000000000000000000000101101000 W
b00000000000000000000000111100100 Z
b00000000000000000000000000000000 [
b00000000000000000000000101101000 \
b00000000000000000000000101101000 ]
b00000000000000000000000001010100 ^
b00000000000000000000000110111000 _
b00000000000000000000000001010100 `
1d
b0001011010000000000001101 g
#42
0N
#43
b00000000000000000000000101101000 $
b0001 &
b00000000000000000000010000001101 )
b00000000000000000000000101101000 9
1N
b00000000000000000000000001010100 O
b01000000110101011000011000110011 P
b0110011 Q
1S
b01011 T
b01101 U
b01100 V
b11111111111111111111111111000100 W
b00000000000000000000000101101000 Z
b00000000000000000000000100101100 [
b11111111111111111111111111000100 ]
b00000000000000000000000001011000 ^
b00000000000000000000010001100001 _
b00000000000000000000000001011000 `
0d
b0100000011010101100001100 g
#44
0N
#45
1%
b0101 &
b00000000000000000000000000001101 )
b00000000000000000000000000010001 *
b11111111111111111111111111000100 8
1N
b00000000000000000000000001011000 O
b00000000110101100010011010110011 P
b010 R
0S
b01100 T
b01101 V
b00000000000000000000000000000001 W
b11111111111111111111111111000100 Y
b11111111111111111111111111000100 [
b00000000000000000000000000000001 ]
b00000000000000000000000001011100 ^
b00000000000000000000000001100101 _
b00000000000000000000000001011100 `
b0000000011010110001001101 g
#46
0N
#47
b11111111111111111111111111000100 $
b11111111111111111111111111101100 )
b00000000000000000000000000000001 9
1N
b00000000000000000000000001011100 O
b11111110110001100010011010010011 P
b0010011 Q
1S
b01100 U
b00000000000000000000000000000001 Z
b11111111111111111111111111101100 \
b00000000000000000000000001100000 ^
b00000000000000000000000001001000 _
b00000000000000000000000001100000 `
1d
b1111111011000110001001101 g
#48
0N
#49
b00000000000000000000000000000000 $
0%
b11111111111111111111111110111010 )
b11111111111111111111111111011101 *
1N
b00000000000000000000000001100000 O
b11111011101001100010011010010011 P
b11010 U
b00000000000000000000000000000000 W
b11111111111111111111111110111010 \
b00000000000000000000000000000000 ]
b00000000000000000000000001100100 ^
b00000000000000000000000000011010 _
b00000000000000000000000001100100 `
b1111101110100110001001101 g
#50
0N
#51
b0000 &
b00000000000000000000000001000110 )
b00000000000000000000000000000000 *
b00000000000000000000000000000000 9
1N
b00000000000000000000000001100100 O
b00000100011000000000011010010011 P
b000 R
0S
b00000 T
b00110 U
b00000000000000000000000001000110 W
b00000000000000000000000000000000 Z
b00000000000000000000000000000000 [
b00000000000000000000000001000110 \
b00000000000000000000000001000110 ]
b00000000000000000000000001101000 ^
b00000000000000000000000010101010 _
b00000000000000000000000001101000 `
b0000010001100000000001101 g
#52
0N
#53
b00000000000000000000000001000110 $
b0001 &
b00000000000000000000010000001101 )
b00000000000000000000000001000110 9
1N
b00000000000000000000000001101000 O
b01000000110100000000011010110011 P
b0110011 Q
1S
b01101 U
b11111111111111111111111110111010 W
b00000000000000000000000001000110 Z
b11111111111111111111111110111010 ]
b00000000000000000000000001101100 ^
b00000000000000000000010001110101 _
b00000000000000000000000001101100 `
0d
b0100000011010000000001101 g
#54
0N
#55
b11111111111111111111111110111010 $
b0101 &
b00000000000000000000000000001101 )
b11111111111111111111111111011101 *
b11111111111111111111111110111010 9
1N
b00000000000000000000000001101100 O
b00000000110101100010011010110011 P
b010 R
0S
b01100 T
b00000000000000000000000000000000 W
b11111111111111111111111110111010 Z
b11111111111111111111111111000100 [
b11111111111111111111111110111010 \
b00000000000000000000000000000000 ]
b00000000000000000000000001110000 ^
b00000000000000000000000001111001 _
b00000000000000000000000001110000 `
b0000000011010110001001101 g
#56
0N
#57
b00000000000000000000000000000000 $
1%
b1001 &
b00000000000000000000010000000010 )
b00000000000000000000000000000000 *
b00000000000000000000000000000000 9
1N
b00000000000000000000000001110000 O
b01000000001001100101011010010011 P
b0010011 Q
b101 R
1S
b00010 U
b11111111111111111111111111110001 W
b00000000000000000000000000000000 Z
b00000000000000000000010000000010 \
b11111111111111111111111111110001 ]
b00000000000000000000000001110100 ^
b00000000000000000000010001110010 _
b00000000000000000000000001110100 `
1d
b0100000000100110010101101 g
#58
0N
#59
0%
b0000 &
b00000000000000000000000000000001 )
b00000000000000000000000000010001 *
b11111111111111111111111111110001 9
1N
b00000000000000000000000001110100 O
b00000000000100000000011010010011 P
b000 R
0S
b00000 T
b00001 U
b00000000000000000000000000000001 W
b11111111111111111111111111110001 Z
b00000000000000000000000000000000 [
b00000000000000000000000000000001 \
b00000000000000000000000000000001 ]
b00000000000000000000000001111000 ^
b00000000000000000000000001110101 _
b00000000000000000000000001111000 `
b0000000000010000000001101 g
#60
0N
#61
b00000000000000000000000000000001 $
1%
b1001 &
b00000000000000000000010000001101 )
b00000000000000000000000000000000 *
b00000000000000000000000000000001 9
1N
b00000000000000000000000001111000 O
b01000000110101100101011010110011 P
b0110011 Q
b101 R
1S
b01100 T
b01101 U
b11111111111111111111111111100010 W
b00000000000000000000000000000001 Z
b11111111111111111111111111000100 [
b11111111111111111111111111100010 ]
b00000000000000000000000001111100 ^
b00000000000000000000010010000101 _
b00000000000000000000000001111100 `
0d
b0100000011010110010101101 g
#62
0N
#63
b00000000000000000000000000000000 $
b00000000000000000000000000000000 )
b11111111111111111111111111011101 *
b11111111111111111111111111100010 9
1N
b00000000000000000000000001111100 O
b00000000000000000000000000000000 P
b0000000 Q
b000 R
0S
b00000 T
b00000 U
b00000 V
b00000000000000000000000000000000 W
b11111111111111111111111111100010 Z
b00000000000000000000000000000000 [
b00000000000000000000000000000000 \
b00000000000000000000000000000000 ]
b00000000000000000000000010000000 ^
b00000000000000000000000001111100 _
b00000000000000000000000010000000 `
0c
b0000000000000000000000000 g
#64
0N
#65
1N
b00000000000000000000000010000000 O
b00000000000000000000000010000100 ^
b00000000000000000000000010000000 _
b00000000000000000000000010000100 `
#66
0N
#67
1N
b00000000000000000000000010000100 O
b00000000000000000000000010001000 ^
b00000000000000000000000010000100 _
b00000000000000000000000010001000 `
#68
0N
#69
1N
b00000000000000000000000010001000 O
b00000000000000000000000010001100 ^
b00000000000000000000000010001000 _
b00000000000000000000000010001100 `
#70
0N
#71
1N
b00000000000000000000000010001100 O
b00000000000000000000000010010000 ^
b00000000000000000000000010001100 _
b00000000000000000000000010010000 `
#72
0N
#73
1N
b00000000000000000000000010010000 O
b00000000000000000000000010010100 ^
b00000000000000000000000010010000 _
b00000000000000000000000010010100 `
#74
0N
#75
1N
b00000000000000000000000010010100 O
b00000000000000000000000010011000 ^
b00000000000000000000000010010100 _
b00000000000000000000000010011000 `
#76
0N
#77
1N
b00000000000000000000000010011000 O
b00000000000000000000000010011100 ^
b00000000000000000000000010011000 _
b00000000000000000000000010011100 `
#78
0N
#79
1N
b00000000000000000000000010011100 O
b00000000000000000000000010100000 ^
b00000000000000000000000010011100 _
b00000000000000000000000010100000 `
#80
0N
#81
1N
b00000000000000000000000010100000 O
b00000000000000000000000010100100 ^
b00000000000000000000000010100000 _
b00000000000000000000000010100100 `
#82
0N
#83
1N
b00000000000000000000000010100100 O
b00000000000000000000000010101000 ^
b00000000000000000000000010100100 _
b00000000000000000000000010101000 `
#84
0N
#85
1N
b00000000000000000000000010101000 O
b00000000000000000000000010101100 ^
b00000000000000000000000010101000 _
b00000000000000000000000010101100 `
#86
0N
#87
1N
b00000000000000000000000010101100 O
b00000000000000000000000010110000 ^
b00000000000000000000000010101100 _
b00000000000000000000000010110000 `
#88
0N
#89
1N
b00000000000000000000000010110000 O
b00000000000000000000000010110100 ^
b00000000000000000000000010110000 _
b00000000000000000000000010110100 `
#90
0N
#91
1N
b00000000000000000000000010110100 O
b00000000000000000000000010111000 ^
b00000000000000000000000010110100 _
b00000000000000000000000010111000 `
#92
0N
#93
1N
b00000000000000000000000010111000 O
b00000000000000000000000010111100 ^
b00000000000000000000000010111000 _
b00000000000000000000000010111100 `
#94
0N
#95
1N
b00000000000000000000000010111100 O
b00000000000000000000000011000000 ^
b00000000000000000000000010111100 _
b00000000000000000000000011000000 `
#96
0N
#97
1N
b00000000000000000000000011000000 O
b00000000000000000000000011000100 ^
b00000000000000000000000011000000 _
b00000000000000000000000011000100 `
#98
0N
#99
1N
b00000000000000000000000011000100 O
b00000000000000000000000011001000 ^
b00000000000000000000000011000100 _
b00000000000000000000000011001000 `
#100
0N
#101
1N
b00000000000000000000000011001000 O
b00000000000000000000000011001100 ^
b00000000000000000000000011001000 _
b00000000000000000000000011001100 `
#102
0N
#103
1N
b00000000000000000000000011001100 O
b00000000000000000000000011010000 ^
b00000000000000000000000011001100 _
b00000000000000000000000011010000 `
#104
0N
#105
1N
b00000000000000000000000011010000 O
b00000000000000000000000011010100 ^
b00000000000000000000000011010000 _
b00000000000000000000000011010100 `
#106
0N
#107
1N
b00000000000000000000000011010100 O
b00000000000000000000000011011000 ^
b00000000000000000000000011010100 _
b00000000000000000000000011011000 `
#108
0N
#109
1N
b00000000000000000000000011011000 O
b00000000000000000000000011011100 ^
b00000000000000000000000011011000 _
b00000000000000000000000011011100 `
#110
0N
#111
1N
b00000000000000000000000011011100 O
b00000000000000000000000011100000 ^
b00000000000000000000000011011100 _
b00000000000000000000000011100000 `
#112
0N
#113
1N
b00000000000000000000000011100000 O
b00000000000000000000000011100100 ^
b00000000000000000000000011100000 _
b00000000000000000000000011100100 `
#114
0N
#115
1N
b00000000000000000000000011100100 O
b00000000000000000000000011101000 ^
b00000000000000000000000011100100 _
b00000000000000000000000011101000 `
#116
0N
#117
1N
b00000000000000000000000011101000 O
b00000000000000000000000011101100 ^
b00000000000000000000000011101000 _
b00000000000000000000000011101100 `
#118
0N
#119
1N
b00000000000000000000000011101100 O
b00000000000000000000000011110000 ^
b00000000000000000000000011101100 _
b00000000000000000000000011110000 `
#120
0N
#121
1N
b00000000000000000000000011110000 O
b00000000000000000000000011110100 ^
b00000000000000000000000011110000 _
b00000000000000000000000011110100 `
#122
0N
#123
1N
b00000000000000000000000011110100 O
b00000000000000000000000011111000 ^
b00000000000000000000000011110100 _
b00000000000000000000000011111000 `
#124
0N
#125
1N
b00000000000000000000000011111000 O
b00000000000000000000000011111100 ^
b00000000000000000000000011111000 _
b00000000000000000000000011111100 `
#126
0N
#127
1N
b00000000000000000000000011111100 O
b00000000000000000000000100000000 ^
b00000000000000000000000011111100 _
b00000000000000000000000100000000 `
#128
0N
#129
1N
b00000000000000000000000100000000 O
b00000000000000000000000100000100 ^
b00000000000000000000000100000000 _
b00000000000000000000000100000100 `
#130
0N
#131
1N
b00000000000000000000000100000100 O
b00000000000000000000000100001000 ^
b00000000000000000000000100000100 _
b00000000000000000000000100001000 `
#132
0N
#133
1N
b00000000000000000000000100001000 O
b00000000000000000000000100001100 ^
b00000000000000000000000100001000 _
b00000000000000000000000100001100 `
#134
0N
#135
1N
b00000000000000000000000100001100 O
b00000000000000000000000100010000 ^
b00000000000000000000000100001100 _
b00000000000000000000000100010000 `
#136
0N
#137
1N
b00000000000000000000000100010000 O
b00000000000000000000000100010100 ^
b00000000000000000000000100010000 _
b00000000000000000000000100010100 `
#138
0N
#139
1N
b00000000000000000000000100010100 O
b00000000000000000000000100011000 ^
b00000000000000000000000100010100 _
b00000000000000000000000100011000 `
#140
0N
#141
1N
b00000000000000000000000100011000 O
b00000000000000000000000100011100 ^
b00000000000000000000000100011000 _
b00000000000000000000000100011100 `
#142
0N
#143
1N
b00000000000000000000000100011100 O
b00000000000000000000000100100000 ^
b00000000000000000000000100011100 _
b00000000000000000000000100100000 `
#144
0N
#145
1N
b00000000000000000000000100100000 O
b00000000000000000000000100100100 ^
b00000000000000000000000100100000 _
b00000000000000000000000100100100 `
#146
0N
