top.vcd
$version Generated by VerilatedVcd $end
$date Sat Dec 10 23:27:40 2022 $end
$timescale 1ps $end

 $scope module TOP $end
  $var wire  1 m clk $end
  $var wire 32 n data_out [31:0] $end
  $var wire  1 k rst $end
  $var wire  1 l trigger_i $end
  $scope module top $end
   $var wire 32 , ALUResultWire [31:0] $end
   $var wire  4 5 ALUctrlWire [3:0] $end
   $var wire  1 6 ALUsrcWire $end
   $var wire 32 + Aluop2Wire [31:0] $end
   $var wire  1 8 BranchSrcWire $end
   $var wire 32 o DW [31:0] $end
   $var wire  3 7 ImmSrcWire [2:0] $end
   $var wire 32 D ImmediateExtendWire [31:0] $end
   $var wire 25 C ImmediateWire [24:0] $end
   $var wire 32 / InstructionWire [31:0] $end
   $var wire  1 ; JALRWire $end
   $var wire  1 : JALWire $end
   $var wire 32 ( PC_wire [31:0] $end
   $var wire  1 ) PCsrcWire $end
   $var wire 32 * RD1Wire [31:0] $end
   $var wire 32 - RD2Wire [31:0] $end
   $var wire 32 E RamOutWire [31:0] $end
   $var wire  1 9 ResultSrcWire $end
   $var wire  1 . branchWire $end
   $var wire 32 % branch_PC [31:0] $end
   $var wire  1 m clk $end
   $var wire 32 n data_out [31:0] $end
   $var wire  3 1 funct3 [2:0] $end
   $var wire  1 2 funct7 $end
   $var wire 32 $ inc_PC [31:0] $end
   $var wire 32 ' jump_PC [31:0] $end
   $var wire  1 = memSignWire $end
   $var wire  2 < memTypeWire [1:0] $end
   $var wire  1 3 memWrite_enWire $end
   $var wire 32 & next_PC [31:0] $end
   $var wire  7 0 opcode [6:0] $end
   $var wire  5 @ rdWire [4:0] $end
   $var wire  1 4 regWrite_enWire $end
   $var wire  5 > rs1Wire [4:0] $end
   $var wire  5 ? rs2Wire [4:0] $end
   $var wire  1 k rst $end
   $var wire  1 l trigger_i $end
   $var wire 32 A wd3Wire [31:0] $end
   $var wire 32 B wd3Wire0 [31:0] $end
   $scope module ALU $end
    $var wire 32 , ALUResult_o [31:0] $end
    $var wire  4 5 ALUctrl_i [3:0] $end
    $var wire  3 1 BranchCtrl_i [2:0] $end
    $var wire  1 . Branch_o $end
    $var wire 32 o DATAWIDTH [31:0] $end
    $var wire 32 p SHIFT_WIDTH [31:0] $end
    $var wire 32 * SrcA_Signed [31:0] $end
    $var wire 32 * SrcA_i [31:0] $end
    $var wire 32 + SrcB_Signed [31:0] $end
    $var wire 32 + SrcB_i [31:0] $end
    $var wire  1 F overwrite_branch_o $end
   $upscope $end
   $scope module PC $end
    $var wire 32 o DW [31:0] $end
    $var wire 32 & PC_i [31:0] $end
    $var wire 32 ( PC_o [31:0] $end
    $var wire  1 m clk $end
    $var wire  1 k rst $end
   $upscope $end
   $scope module control $end
    $var wire  4 5 ALUctrl_o [3:0] $end
    $var wire  1 6 ALUsrc_o $end
    $var wire  1 8 BranchSrc_o $end
    $var wire  3 7 ImmSrc_o [2:0] $end
    $var wire  1 9 ResultSrc_o $end
    $var wire  3 1 funct3_i [2:0] $end
    $var wire  1 2 funct7bit_i $end
    $var wire  1 : jal_o $end
    $var wire  1 ; jalr_o $end
    $var wire  1 = memSign_o $end
    $var wire  2 < memType_o [1:0] $end
    $var wire  1 3 memWrite_en_o $end
    $var wire  7 0 op_i [6:0] $end
    $var wire  1 4 regWrite_en_o $end
   $upscope $end
   $scope module extend $end
    $var wire 32 o DATAWIDTH [31:0] $end
    $var wire 32 D ImmExt_o [31:0] $end
    $var wire  3 7 ImmSrc_i [2:0] $end
    $var wire 25 C Imm_i [31:7] $end
   $upscope $end
   $scope module memory $end
    $var wire 32 H RDWire [31:0] $end
    $var wire 32 G WDWire [31:0] $end
    $var wire 32 o WIDTH [31:0] $end
    $var wire 32 , a_i [31:0] $end
    $var wire 32 I a_ii [31:0] $end
    $var wire  1 m clk_i $end
    $var wire  1 = memsign_i $end
    $var wire  2 < memtype_i [1:0] $end
    $var wire 32 E rd_o [31:0] $end
    $var wire 32 - wd_i [31:0] $end
    $var wire  1 3 write_en_i $end
    $scope module ram $end
     $var wire 32 q DATA_W [31:0] $end
     $var wire 32 o WIDTH [31:0] $end
     $var wire 32 I a_i [31:0] $end
     $var wire  1 m clk_i $end
     $var wire 32 H rd_o [31:0] $end
     $var wire 32 G wd_i [31:0] $end
     $var wire  1 3 write_en_i $end
    $upscope $end
    $scope module ram_i $end
     $var wire 32 o WIDTH [31:0] $end
     $var wire 32 , a_i [31:0] $end
     $var wire  2 < memtype_i [1:0] $end
     $var wire 32 H rd_i [31:0] $end
     $var wire 32 - wd_i [31:0] $end
     $var wire 32 G wd_o [31:0] $end
     $var wire  2 J whichbyte_i [1:0] $end
    $upscope $end
    $scope module ram_o $end
     $var wire 32 o WIDTH [31:0] $end
     $var wire 32 , a_i [31:0] $end
     $var wire  1 = memsign_i $end
     $var wire  2 < memtype_i [1:0] $end
     $var wire 32 H rd_i [31:0] $end
     $var wire 32 E rd_o [31:0] $end
     $var wire  2 J whichbyte_i [1:0] $end
    $upscope $end
   $upscope $end
   $scope module register_file $end
    $var wire  5 > AD1_i [4:0] $end
    $var wire  5 ? AD2_i [4:0] $end
    $var wire  5 @ AD3_i [4:0] $end
    $var wire 32 p ADDRESS_WIDTH [31:0] $end
    $var wire 32 o DATA_WIDTH [31:0] $end
    $var wire 32 * RD1_o [31:0] $end
    $var wire 32 - RD2_o [31:0] $end
    $var wire  1 l TRIGGER_i $end
    $var wire 32 A WD3_i [31:0] $end
    $var wire  1 4 WE3_i $end
    $var wire 32 n a0_o [31:0] $end
    $var wire  1 m clk $end
    $var wire 32 K register_array[0] [31:0] $end
    $var wire 32 U register_array[10] [31:0] $end
    $var wire 32 V register_array[11] [31:0] $end
    $var wire 32 W register_array[12] [31:0] $end
    $var wire 32 X register_array[13] [31:0] $end
    $var wire 32 Y register_array[14] [31:0] $end
    $var wire 32 Z register_array[15] [31:0] $end
    $var wire 32 [ register_array[16] [31:0] $end
    $var wire 32 \ register_array[17] [31:0] $end
    $var wire 32 ] register_array[18] [31:0] $end
    $var wire 32 ^ register_array[19] [31:0] $end
    $var wire 32 L register_array[1] [31:0] $end
    $var wire 32 _ register_array[20] [31:0] $end
    $var wire 32 ` register_array[21] [31:0] $end
    $var wire 32 a register_array[22] [31:0] $end
    $var wire 32 b register_array[23] [31:0] $end
    $var wire 32 c register_array[24] [31:0] $end
    $var wire 32 d register_array[25] [31:0] $end
    $var wire 32 e register_array[26] [31:0] $end
    $var wire 32 f register_array[27] [31:0] $end
    $var wire 32 g register_array[28] [31:0] $end
    $var wire 32 h register_array[29] [31:0] $end
    $var wire 32 M register_array[2] [31:0] $end
    $var wire 32 i register_array[30] [31:0] $end
    $var wire 32 j register_array[31] [31:0] $end
    $var wire 32 N register_array[3] [31:0] $end
    $var wire 32 O register_array[4] [31:0] $end
    $var wire 32 P register_array[5] [31:0] $end
    $var wire 32 Q register_array[6] [31:0] $end
    $var wire 32 R register_array[7] [31:0] $end
    $var wire 32 S register_array[8] [31:0] $end
    $var wire 32 T register_array[9] [31:0] $end
    $scope module unnamedblk1 $end
     $var wire 32 # i [31:0] $end
    $upscope $end
   $upscope $end
   $scope module rom $end
    $var wire 32 q DATA_W [31:0] $end
    $var wire 32 o WIDTH [31:0] $end
    $var wire 32 ( a_i [31:0] $end
    $var wire 32 / rd_o [31:0] $end
   $upscope $end
  $upscope $end
 $upscope $end
$enddefinitions $end


#0
b00000000000000000000000000000000 #
b00000000000000000000000000000100 $
b00000000000000000000000000000000 %
b00000000000000000000000000000100 &
b00000000000000000000000000000000 '
b00000000000000000000000000000000 (
0)
b00000000000000000000000000000000 *
b00000000000000000000000000000000 +
b00000000000000000000000000000000 ,
b00000000000000000000000000000000 -
0.
b00000000000000000000000000000000 /
b0000000 0
b000 1
02
03
04
b0000 5
06
b000 7
08
09
0:
0;
b00 <
0=
b00000 >
b00000 ?
b00000 @
b00000000000000000000000000000000 A
b00000000000000000000000000000000 B
b0000000000000000000000000 C
b00000000000000000000000000000000 D
b00000000000000000000000000000000 E
0F
b00000000000000000000000000000000 G
b00000000000000000000000000000000 H
b00000000000000000000000000000000 I
b00 J
b00000000000000000000000000000000 K
b00000000000000000000000000000000 L
b00000000000000000000000000000000 M
b00000000000000000000000000000000 N
b00000000000000000000000000000000 O
b00000000000000000000000000000000 P
b00000000000000000000000000000000 Q
b00000000000000000000000000000000 R
b00000000000000000000000000000000 S
b00000000000000000000000000000000 T
b00000000000000000000000000000000 U
b00000000000000000000000000000000 V
b00000000000000000000000000000000 W
b00000000000000000000000000000000 X
b00000000000000000000000000000000 Y
b00000000000000000000000000000000 Z
b00000000000000000000000000000000 [
b00000000000000000000000000000000 \
b00000000000000000000000000000000 ]
b00000000000000000000000000000000 ^
b00000000000000000000000000000000 _
b00000000000000000000000000000000 `
b00000000000000000000000000000000 a
b00000000000000000000000000000000 b
b00000000000000000000000000000000 c
b00000000000000000000000000000000 d
b00000000000000000000000000000000 e
b00000000000000000000000000000000 f
b00000000000000000000000000000000 g
b00000000000000000000000000000000 h
b00000000000000000000000000000000 i
b00000000000000000000000000000000 j
0k
0l
0m
b00000000000000000000000000000000 n
b00000000000000000000000000100000 o
b00000000000000000000000000000101 p
b00000000000000000000000000001000 q
#1
b00000000000000000000000000100000 #
b00000000000000000000000000000001 %
b00000000000000000000000000000001 '
b00000000000000000000000000000001 +
b00000000000000000000000000000001 ,
b00000000000100000000010010010011 /
b0010011 0
14
16
b00001 ?
b01001 @
b00000000000000000000000000000001 A
b00000000000000000000000000000001 B
b0000000000010000000001001 C
b00000000000000000000000000000001 D
b11011101110011001011101110101010 E
b11011101110011001011101110101010 H
b01 J
1m
#2
0m
#3
b00000000000000000000000000001000 $
b00000000000000000000000100000011 %
b00000000000000000000000000001000 &
b00000000000000000000000100000011 '
b00000000000000000000000000000100 (
b00000000000000000000000011111111 +
b00000000000000000000000011111111 ,
b00001111111100000000100100010011 /
b11111 ?
b10010 @
b00000000000000000000000011111111 A
b00000000000000000000000011111111 B
b0000111111110000000010010 C
b00000000000000000000000011111111 D
b00000000000000000000000000000000 E
b00000000000000000000000000000000 H
b00000000000000000000000011111100 I
b11 J
b00000000000000000000000000000001 T
1m
#4
0m
#5
b00000000000000000000000000001100 $
b00000000000000000000000000001101 %
b00000000000000000000000000001100 &
b00000000000000000000000000001101 '
b00000000000000000000000000001000 (
b00000000000000000000000000000101 +
b00000000000000000000000000000101 ,
b00000000010100000000100110010011 /
b00101 ?
b10011 @
b00000000000000000000000000000101 A
b00000000000000000000000000000101 B
b0000000001010000000010011 C
b00000000000000000000000000000101 D
b10100001001100110010001000010001 E
b10100001001100110010001000010001 H
b00000000000000000000000000000100 I
b01 J
b00000000000000000000000011111111 ]
1m
#6
0m
#7
b00000000000000000000000000010000 $
b00000000000000000000000000010000 &
b00000000000000000000000000001100 (
b00000000000000000000000000000001 +
b00000000000000000000000000000001 ,
b00000000000100000000011010010011 /
b00001 ?
b01101 @
b00000000000000000000000000000001 A
b00000000000000000000000000000001 B
b0000000000010000000001101 C
b00000000000000000000000000000001 D
b11011101110011001011101110101010 E
b11011101110011001011101110101010 H
b00000000000000000000000000000000 I
b00000000000000000000000000000101 ^
1m
#8
0m
#9
b00000000000000000000000000010100 $
b00000000000000000000000000010000 %
b00000000000000000000000000010100 &
b00000000000000000000000000010000 '
b00000000000000000000000000010000 (
b00000000000000000000000000000000 +
b00000000000000000000000000000000 ,
1.
b00000000000000000000010100010011 /
b00000 ?
b01010 @
b00000000000000000000000000000000 A
b00000000000000000000000000000000 B
b0000000000000000000001010 C
b00000000000000000000000000000000 D
b00 J
b00000000000000000000000000000001 X
1m
#10
0m
#11
b00000000000000000000000000011000 $
b00000000000000000000000000010100 %
b00000000000000000000000000011000 &
b00000000000000000000000000010100 '
b00000000000000000000000000010100 (
b00000000000000000000011100010011 /
b01110 @
b0000000000000000000001110 C
1m
#12
0m
#13
b00000000000000000000000000011100 $
b00000000000000000000000000011000 %
b00000000000000000000000000011100 &
b00000000000000000000000000011000 '
b00000000000000000000000000011000 (
b00000000000000000000001010010011 /
b00101 @
b0000000000000000000000101 C
1m
#14
0m
#15
b00000000000000000000000000100000 $
b00000000000000000000000000111100 %
b00000000000000000000000000100000 &
b00000000000000000000000000111100 '
b00000000000000000000000000011100 (
b00000000000000000000000000000001 +
b00000000000000000000000000000001 ,
b00000000000000000000000000000001 -
0.
b00000010100100101000000001100011 /
b1100011 0
04
06
b010 7
18
b00101 >
b01001 ?
b00000 @
b00000000000000000000000000000001 A
b00000000000000000000000000000001 B
b0000001010010010100000000 C
b00000000000000000000000000100000 D
b00000000000000000000000000000001 G
b01 J
1m
#16
0m
#17
b00000000000000000000000000100100 $
b00000000000000000000000000100011 %
b00000000000000000000000000100100 &
b00000000000000000000000000100011 '
b00000000000000000000000000100000 (
b00000000000000000000000000000001 *
b00000000000000000000000000000011 +
b00000000000000000000000000000000 ,
b00000000000000000000000000000000 -
b00000000001101101101011000010011 /
b0010011 0
b101 1
14
b0111 5
16
b000 7
08
b01101 >
b00011 ?
b01100 @
b00000000000000000000000000000000 A
b00000000000000000000000000000000 B
b0000000000110110110101100 C
b00000000000000000000000000000011 D
b00000000000000000000000000000000 G
b00 J
1m
#18
0m
#19
b00000000000000000000000000101000 $
b00000000000000000000000000110001 %
b00000000000000000000000000101000 &
b00000000000000000000000000110001 '
b00000000000000000000000000100100 (
b00000000000000000000000000000000 *
b00000000000000000000000000000001 +
b00000000000000000000000000000001 ,
b00000000000000000000000000000001 -
1.
b00000000110101100100011000110011 /
b0110011 0
b100 1
b0100 5
06
b01100 >
b01101 ?
b00000000000000000000000000000001 A
b00000000000000000000000000000001 B
b0000000011010110010001100 C
b00000000000000000000000000001101 D
b00000000000000000000000000000001 G
b01 J
1m
#20
0m
#21
b00000000000000000000000000101100 $
b00000000000000000000000000101001 %
b00000000000000000000000000101100 &
b00000000000000000000000000101001 '
b00000000000000000000000000101000 (
b00000000000000000000000000000001 *
b00000000000000000000000000000000 -
b00000000000101100111011000010011 /
b0010011 0
b111 1
b0010 5
16
b00001 ?
b0000000000010110011101100 C
b00000000000000000000000000000001 D
b00000000000000000000000000000000 G
b00000000000000000000000000000001 W
1m
#22
0m
#23
b00000000000000000000000000110000 $
b00000000000000000000000000101101 %
b00000000000000000000000000110000 &
b00000000000000000000000000101101 '
b00000000000000000000000000101100 (
b00000000000000000000000000000010 ,
0.
b00000000000101101001011010010011 /
b001 1
b1000 5
b01101 >
b01101 @
b00000000000000000000000000000010 A
b00000000000000000000000000000010 B
b0000000000010110100101101 C
b10 J
1m
#24
0m
#25
b00000000000000000000000000110100 $
b00000000000000000000000000111100 %
b00000000000000000000000000110100 &
b00000000000000000000000000111100 '
b00000000000000000000000000110000 (
b00000000000000000000000000000010 *
b00000000000000000000000000000011 ,
b00000000000000000000000000000001 -
b00000000110001101000011010110011 /
b0110011 0
b000 1
b0000 5
06
b01100 ?
b00000000000000000000000000000011 A
b00000000000000000000000000000011 B
b0000000011000110100001101 C
b00000000000000000000000000001100 D
b00000000000000000000000000000001 G
b11 J
b00000000000000000000000000000010 X
1m
#26
0m
#27
b00000000000000000000000000111000 $
b00000000000000000000000001000011 %
b00000000000000000000000000111000 &
b00000000000000000000000001000011 '
b00000000000000000000000000110100 (
b00000000000000000000000000000011 *
b00000000000000000000000000001111 +
b00000000000000000000000000000000 -
b00000000111101101111011010010011 /
b0010011 0
b111 1
b0010 5
16
b01111 ?
b0000000011110110111101101 C
b00000000000000000000000000001111 D
b00000000000000000000000000000000 G
b00000000000000000000000000000011 X
1m
#28
0m
#29
b00000000000000000000000000111100 $
b00000000000000000000000000011100 %
b00000000000000000000000000011100 &
b00000000000000000000000000011100 '
b00000000000000000000000000111000 (
1)
b00000000000000000000000000000000 *
b11111111111111111111111111100100 +
b11111111111111111111111111100100 ,
1.
b11111110010111111111000011101111 /
b1101111 0
12
b1011 5
b100 7
18
1:
b11111 >
b00101 ?
b00001 @
b00000000000000000000000000111100 A
b11111111111111111111111111100100 B
b1111111001011111111100001 C
b11111111111111111111111111100100 D
b00000000000000000000000000000000 E
1F
b00000000000000000000000000000000 H
b11111111111111111111111111100100 I
b00 J
1m
#30
0m
#31
b00000000000000000000000000100000 $
b00000000000000000000000000111100 %
b00000000000000000000000000111100 &
b00000000000000000000000000111100 '
b00000000000000000000000000011100 (
b00000000000000000000000000000001 +
b00000000000000000000000000000001 ,
b00000000000000000000000000000001 -
b00000010100100101000000001100011 /
b1100011 0
b000 1
02
04
06
b010 7
0:
b00101 >
b01001 ?
b00000 @
b00000000000000000000000000000001 A
b00000000000000000000000000000001 B
b0000001010010010100000000 C
b00000000000000000000000000100000 D
b11011101110011001011101110101010 E
b00000000000000000000000000000001 G
b11011101110011001011101110101010 H
b00000000000000000000000000000000 I
b01 J
b00000000000000000000000000111100 L
1m
#32
1l
0m
#33
b00000000000000000000000001000000 $
b00000000000000000000000001011100 %
b00000000000000000000000001011100 &
b00000000000000000000000001011100 '
b00000000000000000000000000111100 (
b00000000000000000000000000100000 +
b00000000000000000000000000100000 ,
b00000000000000000000000000000000 -
b00000010000000000000000011101111 /
b1101111 0
14
16
b100 7
1:
b00000 >
b00000 ?
b00001 @
b00000000000000000000000001000000 A
b00000000000000000000000000100000 B
b0000001000000000000000001 C
b00000000000000000000000000000000 E
b00000000000000000000000000000000 G
b00000000000000000000000000000000 H
b00000000000000000000000000100000 I
b00 J
b00000000000000000000000000000001 P
1m
#34
0l
0m
#35
b00000000000000000000000001100000 $
b00000000000000000000000001011101 %
b00000000000000000000000001100000 &
b00000000000000000000000001011101 '
b00000000000000000000000001011100 (
0)
b00000000000000000000000000000001 +
b00000000000000000000000000000001 ,
b00000000000000000000000001000000 -
0.
b00000000000101011000010110010011 /
b0010011 0
b0000 5
b000 7
08
0:
b01011 >
b00001 ?
b01011 @
b00000000000000000000000000000001 A
b00000000000000000000000000000001 B
b0000000000010101100001011 C
b00000000000000000000000000000001 D
b11011101110011001011101110101010 E
0F
b00000000000000000000000001000000 G
b11011101110011001011101110101010 H
b00000000000000000000000000000000 I
b01 J
b00000000000000000000000001000000 L
1m
#36
0m
#37
b00000000000000000000000001100100 $
b00000000000000000000000001011100 %
b00000000000000000000000001011100 &
b00000000000000000000000001011100 '
b00000000000000000000000001100000 (
1)
b00000000000000000000000000000001 *
b00000000000000000000000000000101 +
b00000000000000000000000000000110 ,
b00000000000000000000000000000101 -
1.
b11111111001101011001111011100011 /
b1100011 0
b001 1
12
04
06
b010 7
18
b10011 ?
b11101 @
b00000000000000000000000000000110 A
b00000000000000000000000000000110 B
b1111111100110101100111101 C
b11111111111111111111111111111100 D
b10100001001100110010001000010001 E
b00000000000000000000000000000101 G
b10100001001100110010001000010001 H
b00000000000000000000000000000100 I
b10 J
b00000000000000000000000000000001 V
1m
#38
0m
#39
b00000000000000000000000001100000 $
b00000000000000000000000001011101 %
b00000000000000000000000001100000 &
b00000000000000000000000001011101 '
b00000000000000000000000001011100 (
0)
b00000000000000000000000000000001 +
b00000000000000000000000000000010 ,
b00000000000000000000000001000000 -
b00000000000101011000010110010011 /
b0010011 0
b000 1
02
14
16
b000 7
08
b00001 ?
b01011 @
b00000000000000000000000000000010 A
b00000000000000000000000000000010 B
b0000000000010101100001011 C
b00000000000000000000000000000001 D
b11011101110011001011101110101010 E
b00000000000000000000000001000000 G
b11011101110011001011101110101010 H
b00000000000000000000000000000000 I
1m
#40
0m
#41
b00000000000000000000000001100100 $
b00000000000000000000000001011100 %
b00000000000000000000000001011100 &
b00000000000000000000000001011100 '
b00000000000000000000000001100000 (
1)
b00000000000000000000000000000010 *
b00000000000000000000000000000101 +
b00000000000000000000000000000111 ,
b00000000000000000000000000000101 -
b11111111001101011001111011100011 /
b1100011 0
b001 1
12
04
06
b010 7
18
b10011 ?
b11101 @
b00000000000000000000000000000111 A
b00000000000000000000000000000111 B
b1111111100110101100111101 C
b11111111111111111111111111111100 D
b10100001001100110010001000010001 E
b00000000000000000000000000000101 G
b10100001001100110010001000010001 H
b00000000000000000000000000000100 I
b11 J
b00000000000000000000000000000010 V
1m
#42
0m
#43
b00000000000000000000000001100000 $
b00000000000000000000000001011101 %
b00000000000000000000000001100000 &
b00000000000000000000000001011101 '
b00000000000000000000000001011100 (
0)
b00000000000000000000000000000001 +
b00000000000000000000000000000011 ,
b00000000000000000000000001000000 -
0.
b00000000000101011000010110010011 /
b0010011 0
b000 1
02
14
16
b000 7
08
b00001 ?
b01011 @
b00000000000000000000000000000011 A
b00000000000000000000000000000011 B
b0000000000010101100001011 C
b00000000000000000000000000000001 D
b11011101110011001011101110101010 E
b00000000000000000000000001000000 G
b11011101110011001011101110101010 H
b00000000000000000000000000000000 I
1m
#44
0m
#45
b00000000000000000000000001100100 $
b00000000000000000000000001011100 %
b00000000000000000000000001011100 &
b00000000000000000000000001011100 '
b00000000000000000000000001100000 (
1)
b00000000000000000000000000000011 *
b00000000000000000000000000000101 +
b00000000000000000000000000001000 ,
b00000000000000000000000000000101 -
1.
b11111111001101011001111011100011 /
b1100011 0
b001 1
12
04
06
b010 7
18
b10011 ?
b11101 @
b00000000000000000000000000001000 A
b00000000000000000000000000001000 B
b1111111100110101100111101 C
b11111111111111111111111111111100 D
b10101110101011011010110010101011 E
b00000000000000000000000000000101 G
b10101110101011011010110010101011 H
b00000000000000000000000000001000 I
b00 J
b00000000000000000000000000000011 V
1m
#46
0m
#47
b00000000000000000000000001100000 $
b00000000000000000000000001011101 %
b00000000000000000000000001100000 &
b00000000000000000000000001011101 '
b00000000000000000000000001011100 (
0)
b00000000000000000000000000000001 +
b00000000000000000000000000000100 ,
b00000000000000000000000001000000 -
0.
b00000000000101011000010110010011 /
b0010011 0
b000 1
02
14
16
b000 7
08
b00001 ?
b01011 @
b00000000000000000000000000000100 A
b00000000000000000000000000000100 B
b0000000000010101100001011 C
b00000000000000000000000000000001 D
b10100001001100110010001000010001 E
b00000000000000000000000001000000 G
b10100001001100110010001000010001 H
b00000000000000000000000000000100 I
1m
#48
0m
#49
b00000000000000000000000001100100 $
b00000000000000000000000001011100 %
b00000000000000000000000001011100 &
b00000000000000000000000001011100 '
b00000000000000000000000001100000 (
1)
b00000000000000000000000000000100 *
b00000000000000000000000000000101 +
b00000000000000000000000000001001 ,
b00000000000000000000000000000101 -
1.
b11111111001101011001111011100011 /
b1100011 0
b001 1
12
04
06
b010 7
18
b10011 ?
b11101 @
b00000000000000000000000000001001 A
b00000000000000000000000000001001 B
b1111111100110101100111101 C
b11111111111111111111111111111100 D
b10101110101011011010110010101011 E
b00000000000000000000000000000101 G
b10101110101011011010110010101011 H
b00000000000000000000000000001000 I
b01 J
b00000000000000000000000000000100 V
1m
#50
0m
#51
b00000000000000000000000001100000 $
b00000000000000000000000001011101 %
b00000000000000000000000001100000 &
b00000000000000000000000001011101 '
b00000000000000000000000001011100 (
0)
b00000000000000000000000000000001 +
b00000000000000000000000000000101 ,
b00000000000000000000000001000000 -
0.
b00000000000101011000010110010011 /
b0010011 0
b000 1
02
14
16
b000 7
08
b00001 ?
b01011 @
b00000000000000000000000000000101 A
b00000000000000000000000000000101 B
b0000000000010101100001011 C
b00000000000000000000000000000001 D
b10100001001100110010001000010001 E
b00000000000000000000000001000000 G
b10100001001100110010001000010001 H
b00000000000000000000000000000100 I
1m
#52
0m
#53
b00000000000000000000000001100100 $
b00000000000000000000000001011100 %
b00000000000000000000000001100100 &
b00000000000000000000000001011100 '
b00000000000000000000000001100000 (
b00000000000000000000000000000101 *
b00000000000000000000000000000101 +
b00000000000000000000000000001010 ,
b00000000000000000000000000000101 -
b11111111001101011001111011100011 /
b1100011 0
b001 1
12
04
06
b010 7
18
b10011 ?
b11101 @
b00000000000000000000000000001010 A
b00000000000000000000000000001010 B
b1111111100110101100111101 C
b11111111111111111111111111111100 D
b10101110101011011010110010101011 E
b00000000000000000000000000000101 G
b10101110101011011010110010101011 H
b00000000000000000000000000001000 I
b10 J
b00000000000000000000000000000101 V
1m
#54
0m
#55
b00000000000000000000000001101000 $
b00000000000000000000000001100100 %
b00000000000000000000000001101000 &
b00000000000000000000000001100100 '
b00000000000000000000000001100100 (
b00000000000000000000000000000000 *
b00000000000000000000000000000000 +
b00000000000000000000000000000000 ,
b00000000000000000000000000000000 -
1.
b00000000000000000000010110010011 /
b0010011 0
b000 1
02
14
16
b000 7
08
b00000 >
b00000 ?
b01011 @
b00000000000000000000000000000000 A
b00000000000000000000000000000000 B
b0000000000000000000001011 C
b00000000000000000000000000000000 D
b11011101110011001011101110101010 E
b00000000000000000000000000000000 G
b11011101110011001011101110101010 H
b00000000000000000000000000000000 I
b00 J
1m
#56
0m
#57
b00000000000000000000000001101100 $
b00000000000000000000000001101000 %
b00000000000000000000000001000000 &
b00000000000000000000000001000000 '
b00000000000000000000000001101000 (
1)
b00000000000000000000000001000000 *
b00000000000000000000000001000000 ,
b00000000000000001000000011100111 /
b1100111 0
b1100 5
18
1:
1;
b00001 >
b00001 @
b00000000000000000000000001101100 A
b00000000000000000000000001000000 B
b0000000000000000100000001 C
b00000000000000000000000000000000 E
1F
b00000000000000000000000000000000 H
b00000000000000000000000001000000 I
b00000000000000000000000000000000 V
1m
#58
0m
#59
b00000000000000000000000001000100 $
b00000000000000000000000001000001 %
b00000000000000000000000001000100 &
b00000000000000000000000001000001 '
b00000000000000000000000001000000 (
0)
b00000000000000000000000000000000 *
b00000000000000000000000000000001 +
b00000000000000000000000000000000 ,
b00000000000000000000000001101100 -
b00000000000101010001001100010011 /
b0010011 0
b001 1
b1000 5
08
0:
0;
b01010 >
b00001 ?
b00110 @
b00000000000000000000000000000000 A
b00000000000000000000000000000000 B
b0000000000010101000100110 C
b00000000000000000000000000000001 D
b11011101110011001011101110101010 E
0F
b00000000000000000000000001101100 G
b11011101110011001011101110101010 H
b00000000000000000000000000000000 I
b00000000000000000000000001101100 L
1m
#60
0m
#61
b00000000000000000000000001001000 $
b00000000000000000000000001000101 %
b00000000000000000000000001001000 &
b00000000000000000000000001000101 '
b00000000000000000000000001000100 (
b00000000000000000000000000000001 ,
0.
b00000000000100110000010100010011 /
b000 1
b0000 5
b00110 >
b01010 @
b00000000000000000000000000000001 A
b00000000000000000000000000000001 B
b0000000000010011000001010 C
b01 J
1m
#62
0m
#63
b00000000000000000000000001001100 $
b00000000000000000000000000111100 %
b00000000000000000000000000111100 &
b00000000000000000000000000111100 '
b00000000000000000000000001001000 (
1)
b00000000000000000000000000000001 *
b00000000000000000000000011111111 +
b00000000000000000000000100000000 ,
b00000000000000000000000011111111 -
1.
b11111111001001010001101011100011 /
b1100011 0
b001 1
12
04
06
b010 7
18
b01010 >
b10010 ?
b10101 @
b00000000000000000000000100000000 A
b00000000000000000000000100000000 B
b1111111100100101000110101 C
b11111111111111111111111111110100 D
b00000000000000000000000000000000 E
b00000000000000000000000011111111 G
b00000000000000000000000000000000 H
b00000000000000000000000100000000 I
b00 J
b00000000000000000000000000000001 U
1m
b00000000000000000000000000000001 n
#64
0m
#65
b00000000000000000000000001000000 $
b00000000000000000000000001011100 %
b00000000000000000000000001011100 &
b00000000000000000000000001011100 '
b00000000000000000000000000111100 (
b00000000000000000000000000000000 *
b00000000000000000000000000100000 +
b00000000000000000000000000100000 ,
b00000000000000000000000000000000 -
b00000010000000000000000011101111 /
b1101111 0
b000 1
02
14
b1011 5
16
b100 7
1:
b00000 >
b00000 ?
b00001 @
b00000000000000000000000001000000 A
b00000000000000000000000000100000 B
b0000001000000000000000001 C
b00000000000000000000000000100000 D
1F
b00000000000000000000000000000000 G
b00000000000000000000000000100000 I
1m
#66
0m
#67
b00000000000000000000000001100000 $
b00000000000000000000000001011101 %
b00000000000000000000000001100000 &
b00000000000000000000000001011101 '
b00000000000000000000000001011100 (
0)
b00000000000000000000000000000001 +
b00000000000000000000000000000001 ,
b00000000000000000000000001000000 -
0.
b00000000000101011000010110010011 /
b0010011 0
b0000 5
b000 7
08
0:
b01011 >
b00001 ?
b01011 @
b00000000000000000000000000000001 A
b00000000000000000000000000000001 B
b0000000000010101100001011 C
b00000000000000000000000000000001 D
b11011101110011001011101110101010 E
0F
b00000000000000000000000001000000 G
b11011101110011001011101110101010 H
b00000000000000000000000000000000 I
b01 J
b00000000000000000000000001000000 L
1m
#68
0m
#69
b00000000000000000000000001100100 $
b00000000000000000000000001011100 %
b00000000000000000000000001011100 &
b00000000000000000000000001011100 '
b00000000000000000000000001100000 (
1)
b00000000000000000000000000000001 *
b00000000000000000000000000000101 +
b00000000000000000000000000000110 ,
b00000000000000000000000000000101 -
1.
b11111111001101011001111011100011 /
b1100011 0
b001 1
12
04
06
b010 7
18
b10011 ?
b11101 @
b00000000000000000000000000000110 A
b00000000000000000000000000000110 B
b1111111100110101100111101 C
b11111111111111111111111111111100 D
b10100001001100110010001000010001 E
b00000000000000000000000000000101 G
b10100001001100110010001000010001 H
b00000000000000000000000000000100 I
b10 J
b00000000000000000000000000000001 V
1m
#70
0m
#71
b00000000000000000000000001100000 $
b00000000000000000000000001011101 %
b00000000000000000000000001100000 &
b00000000000000000000000001011101 '
b00000000000000000000000001011100 (
0)
b00000000000000000000000000000001 +
b00000000000000000000000000000010 ,
b00000000000000000000000001000000 -
b00000000000101011000010110010011 /
b0010011 0
b000 1
02
14
16
b000 7
08
b00001 ?
b01011 @
b00000000000000000000000000000010 A
b00000000000000000000000000000010 B
b0000000000010101100001011 C
b00000000000000000000000000000001 D
b11011101110011001011101110101010 E
b00000000000000000000000001000000 G
b11011101110011001011101110101010 H
b00000000000000000000000000000000 I
1m
#72
0m
