top.vcd
$version Generated by VerilatedVcd $end
$date Thu Dec  8 13:48:32 2022 $end
$timescale 1ps $end

 $scope module TOP $end
  $var wire  1 h clk $end
  $var wire 32 i data_out [31:0] $end
  $var wire  1 f rst $end
  $var wire  1 g trigger_i $end
  $scope module top $end
   $var wire 32 , ALUResultWire [31:0] $end
   $var wire  4 5 ALUctrlWire [3:0] $end
   $var wire  1 6 ALUsrcWire $end
   $var wire 32 + Aluop2Wire [31:0] $end
   $var wire  1 8 BranchSrcWire $end
   $var wire 32 j DW [31:0] $end
   $var wire  3 7 ImmSrcWire [2:0] $end
   $var wire 32 C ImmediateExtendWire [31:0] $end
   $var wire 25 B ImmediateWire [24:0] $end
   $var wire 32 / InstructionWire [31:0] $end
   $var wire  1 < JALRWire $end
   $var wire  1 ; JALWire $end
   $var wire 32 ( PC_wire [31:0] $end
   $var wire  1 ) PCsrcWire $end
   $var wire 32 * RD1Wire [31:0] $end
   $var wire 32 - RD2Wire [31:0] $end
   $var wire 32 D RamOutWire [31:0] $end
   $var wire  1 : ResultSrcWire $end
   $var wire  1 9 addrSelectWire $end
   $var wire  1 . branchWire $end
   $var wire 32 % branch_PC [31:0] $end
   $var wire  1 h clk $end
   $var wire 32 i data_out [31:0] $end
   $var wire  3 1 funct3 [2:0] $end
   $var wire  1 2 funct7 $end
   $var wire 32 $ inc_PC [31:0] $end
   $var wire 32 ' jump_PC [31:0] $end
   $var wire  1 3 memWrite_enWire $end
   $var wire 32 & next_PC [31:0] $end
   $var wire  7 0 opcode [6:0] $end
   $var wire  5 ? rdWire [4:0] $end
   $var wire  1 4 regWrite_enWire $end
   $var wire  5 = rs1Wire [4:0] $end
   $var wire  5 > rs2Wire [4:0] $end
   $var wire  1 f rst $end
   $var wire  1 g trigger_i $end
   $var wire 32 @ wd3Wire [31:0] $end
   $var wire 32 A wd3Wire0 [31:0] $end
   $scope module ALU $end
    $var wire 32 , ALUResult_o [31:0] $end
    $var wire  4 5 ALUctrl_i [3:0] $end
    $var wire  3 1 BranchCtrl_i [2:0] $end
    $var wire  1 . Branch_o $end
    $var wire 32 j DATAWIDTH [31:0] $end
    $var wire 32 k SHIFT_WIDTH [31:0] $end
    $var wire 32 * SrcA_Signed [31:0] $end
    $var wire 32 * SrcA_i [31:0] $end
    $var wire 32 + SrcB_Signed [31:0] $end
    $var wire 32 + SrcB_i [31:0] $end
    $var wire  1 E overwrite_branch_o $end
   $upscope $end
   $scope module PC $end
    $var wire 32 j DW [31:0] $end
    $var wire 32 & PC_i [31:0] $end
    $var wire 32 ( PC_o [31:0] $end
    $var wire  1 h clk $end
    $var wire  1 f rst $end
   $upscope $end
   $scope module control $end
    $var wire  4 5 ALUctrl_o [3:0] $end
    $var wire  1 6 ALUsrc_o $end
    $var wire  1 8 BranchSrc_o $end
    $var wire  3 7 ImmSrc_o [2:0] $end
    $var wire  1 : ResultSrc_o $end
    $var wire  1 9 addrSelect_o $end
    $var wire  3 1 funct3_i [2:0] $end
    $var wire  1 2 funct7bit_i $end
    $var wire  1 ; jal_o $end
    $var wire  1 < jalr_o $end
    $var wire  1 3 memWrite_en_o $end
    $var wire  7 0 op_i [6:0] $end
    $var wire  1 4 regWrite_en_o $end
   $upscope $end
   $scope module extend $end
    $var wire 32 j DATAWIDTH [31:0] $end
    $var wire 32 C ImmExt_o [31:0] $end
    $var wire  3 7 ImmSrc_i [2:0] $end
    $var wire 25 B Imm_i [31:7] $end
   $upscope $end
   $scope module ram $end
    $var wire  1 9 AddrsCtrl_i $end
    $var wire 32 l DATA_W [31:0] $end
    $var wire 32 j WIDTH [31:0] $end
    $var wire 32 , a_i [31:0] $end
    $var wire  1 h clk_i $end
    $var wire 32 D rd_o [31:0] $end
    $var wire 32 - wd_i [31:0] $end
    $var wire  1 3 write_en_i $end
   $upscope $end
   $scope module register_file $end
    $var wire  5 = AD1_i [4:0] $end
    $var wire  5 > AD2_i [4:0] $end
    $var wire  5 ? AD3_i [4:0] $end
    $var wire 32 k ADDRESS_WIDTH [31:0] $end
    $var wire 32 j DATA_WIDTH [31:0] $end
    $var wire 32 * RD1_o [31:0] $end
    $var wire 32 - RD2_o [31:0] $end
    $var wire  1 g TRIGGER_i $end
    $var wire 32 @ WD3_i [31:0] $end
    $var wire  1 4 WE3_i $end
    $var wire 32 i a0_o [31:0] $end
    $var wire  1 h clk $end
    $var wire 32 F register_array[0] [31:0] $end
    $var wire 32 P register_array[10] [31:0] $end
    $var wire 32 Q register_array[11] [31:0] $end
    $var wire 32 R register_array[12] [31:0] $end
    $var wire 32 S register_array[13] [31:0] $end
    $var wire 32 T register_array[14] [31:0] $end
    $var wire 32 U register_array[15] [31:0] $end
    $var wire 32 V register_array[16] [31:0] $end
    $var wire 32 W register_array[17] [31:0] $end
    $var wire 32 X register_array[18] [31:0] $end
    $var wire 32 Y register_array[19] [31:0] $end
    $var wire 32 G register_array[1] [31:0] $end
    $var wire 32 Z register_array[20] [31:0] $end
    $var wire 32 [ register_array[21] [31:0] $end
    $var wire 32 \ register_array[22] [31:0] $end
    $var wire 32 ] register_array[23] [31:0] $end
    $var wire 32 ^ register_array[24] [31:0] $end
    $var wire 32 _ register_array[25] [31:0] $end
    $var wire 32 ` register_array[26] [31:0] $end
    $var wire 32 a register_array[27] [31:0] $end
    $var wire 32 b register_array[28] [31:0] $end
    $var wire 32 c register_array[29] [31:0] $end
    $var wire 32 H register_array[2] [31:0] $end
    $var wire 32 d register_array[30] [31:0] $end
    $var wire 32 e register_array[31] [31:0] $end
    $var wire 32 I register_array[3] [31:0] $end
    $var wire 32 J register_array[4] [31:0] $end
    $var wire 32 K register_array[5] [31:0] $end
    $var wire 32 L register_array[6] [31:0] $end
    $var wire 32 M register_array[7] [31:0] $end
    $var wire 32 N register_array[8] [31:0] $end
    $var wire 32 O register_array[9] [31:0] $end
    $scope module unnamedblk1 $end
     $var wire 32 # i [31:0] $end
    $upscope $end
   $upscope $end
   $scope module rom $end
    $var wire 32 l DATA_W [31:0] $end
    $var wire 32 j WIDTH [31:0] $end
    $var wire 32 ( a_i [31:0] $end
    $var wire 32 / rd_o [31:0] $end
   $upscope $end
  $upscope $end
 $upscope $end
$enddefinitions $end


#208
b00000000000000000000000000000000 #
b00000000000000000000000000000100 $
b00000000000000000000000000000000 %
b00000000000000000000000000000100 &
b00000000000000000000000000000000 '
b00000000000000000000000000000000 (
0)
b00000000000000000000000000000000 *
b00000000000000000000000000000000 +
b00000000000000000000000000000000 ,
b00000000000000000000000000000000 -
0.
b00000000000000000000000000000000 /
b0000000 0
b000 1
02
03
04
b0000 5
06
b000 7
08
09
0:
0;
0<
b00000 =
b00000 >
b00000 ?
b00000000000000000000000000000000 @
b00000000000000000000000000000000 A
b0000000000000000000000000 B
b00000000000000000000000000000000 C
b00000000000000000000000000000000 D
0E
b00000000000000000000000000000000 F
b00000000000000000000000000000000 G
b00000000000000000000000000000000 H
b00000000000000000000000000000000 I
b00000000000000000000000000000000 J
b00000000000000000000000000000000 K
b00000000000000000000000000000000 L
b00000000000000000000000000000000 M
b00000000000000000000000000000000 N
b00000000000000000000000000000000 O
b00000000000000000000000000000000 P
b00000000000000000000000000000000 Q
b00000000000000000000000000000000 R
b00000000000000000000000000000000 S
b00000000000000000000000000000000 T
b00000000000000000000000000000000 U
b00000000000000000000000000000000 V
b00000000000000000000000000000000 W
b00000000000000000000000000000000 X
b00000000000000000000000000000000 Y
b00000000000000000000000000000000 Z
b00000000000000000000000000000000 [
b00000000000000000000000000000000 \
b00000000000000000000000000000000 ]
b00000000000000000000000000000000 ^
b00000000000000000000000000000000 _
b00000000000000000000000000000000 `
b00000000000000000000000000000000 a
b00000000000000000000000000000000 b
b00000000000000000000000000000000 c
b00000000000000000000000000000000 d
b00000000000000000000000000000000 e
0f
0g
0h
b00000000000000000000000000000000 i
b00000000000000000000000000100000 j
b00000000000000000000000000000101 k
b00000000000000000000000000001000 l
#209
b00000000000000000000000000100000 #
b00000000000000000000000000000001 %
b00000000000000000000000000000001 '
b00000000000000000000000000000001 +
b00000000000000000000000000000001 ,
b00000000000100000000010010010011 /
b0010011 0
14
16
b00001 >
b01001 ?
b00000000000000000000000000000001 @
b00000000000000000000000000000001 A
b0000000000010000000001001 B
b00000000000000000000000000000001 C
b11111111111111111111111110111011 D
1h
#210
1g
0h
#211
b00000000000000000000000000001000 $
b00000000000000000000000100000011 %
b00000000000000000000000000001000 &
b00000000000000000000000100000011 '
b00000000000000000000000000000100 (
b00000000000000000000000011111111 +
b00000000000000000000000011111111 ,
b00001111111100000000100100010011 /
b11111 >
b10010 ?
b00000000000000000000000011111111 @
b00000000000000000000000011111111 A
b0000111111110000000010010 B
b00000000000000000000000011111111 C
b00000000000000000000000000000000 D
b00000000000000000000000000000001 K
b00000000000000000000000000000001 O
1h
#212
0h
#213
b00000000000000000000000000001100 $
b00000000000000000000000000001101 %
b00000000000000000000000000001100 &
b00000000000000000000000000001101 '
b00000000000000000000000000001000 (
b00000000000000000000000000000101 +
b00000000000000000000000000000101 ,
b00000000000000000000000000000001 -
b00000000010100000000100110010011 /
b00101 >
b10011 ?
b00000000000000000000000000000101 @
b00000000000000000000000000000101 A
b0000000001010000000010011 B
b00000000000000000000000000000101 C
b00000000000000000000000000100010 D
b00000000000000000000000011111111 X
1h
#214
0h
#215
b00000000000000000000000000010000 $
b00000000000000000000000000010000 &
b00000000000000000000000000001100 (
b00000000000000000000000000000001 +
b00000000000000000000000000000001 ,
b00000000000000000000000000000000 -
b00000000000100000000011010010011 /
b00001 >
b01101 ?
b00000000000000000000000000000001 @
b00000000000000000000000000000001 A
b0000000000010000000001101 B
b00000000000000000000000000000001 C
b11111111111111111111111110111011 D
b00000000000000000000000000000101 Y
1h
#216
0h
#217
b00000000000000000000000000010100 $
b00000000000000000000000000010000 %
b00000000000000000000000000010100 &
b00000000000000000000000000010000 '
b00000000000000000000000000010000 (
b00000000000000000000000000000000 +
b00000000000000000000000000000000 ,
1.
b00000000000000000000010100010011 /
b00000 >
b01010 ?
b00000000000000000000000000000000 @
b00000000000000000000000000000000 A
b0000000000000000000001010 B
b00000000000000000000000000000000 C
b11111111111111111111111110101010 D
b00000000000000000000000000000001 S
1h
#218
0h
#219
b00000000000000000000000000011000 $
b00000000000000000000000000010100 %
b00000000000000000000000000011000 &
b00000000000000000000000000010100 '
b00000000000000000000000000010100 (
b00000000000000000000011100010011 /
b01110 ?
b0000000000000000000001110 B
1h
#220
0h
#221
b00000000000000000000000000011100 $
b00000000000000000000000000011000 %
b00000000000000000000000000011100 &
b00000000000000000000000000011000 '
b00000000000000000000000000011000 (
b00000000000000000000001010010011 /
b00101 ?
b0000000000000000000000101 B
1h
#222
0h
#223
b00000000000000000000000000100000 $
b00000000000000000000000000111100 %
b00000000000000000000000000111100 &
b00000000000000000000000000111100 '
b00000000000000000000000000011100 (
1)
b00000000000000000000000000000001 *
b00000000000000000000000000000001 +
b00000000000000000000000000000010 ,
b00000000000000000000000000000001 -
b00000010100100101000000001100011 /
b1100011 0
04
06
b010 7
18
b00101 =
b01001 >
b00000 ?
b00000000000000000000000000000010 @
b00000000000000000000000000000010 A
b0000001010010010100000000 B
b00000000000000000000000000100000 C
b11111111111111111111111111001100 D
1h
#224
0h
#225
b00000000000000000000000001000000 $
b00000000000000000000000001011100 %
b00000000000000000000000001011100 &
b00000000000000000000000001011100 '
b00000000000000000000000000111100 (
b00000000000000000000000000000000 *
b00000000000000000000000000100000 +
b00000000000000000000000000100000 ,
b00000000000000000000000000000000 -
b00000010000000000000000011101111 /
b1101111 0
14
b1100 5
16
b100 7
1;
b00000 =
b00000 >
b00001 ?
b00000000000000000000000001000000 @
b00000000000000000000000000100000 A
b0000001000000000000000001 B
b00000000000000000000000000000000 D
1E
1h
#226
0h
#227
b00000000000000000000000001100000 $
b00000000000000000000000001011101 %
b00000000000000000000000001100000 &
b00000000000000000000000001011101 '
b00000000000000000000000001011100 (
0)
b00000000000000000000000000000001 +
b00000000000000000000000000000001 ,
b00000000000000000000000001000000 -
0.
b00000000000101011000010110010011 /
b0010011 0
b0000 5
b000 7
08
0;
b01011 =
b00001 >
b01011 ?
b00000000000000000000000000000001 @
b00000000000000000000000000000001 A
b0000000000010101100001011 B
b00000000000000000000000000000001 C
b11111111111111111111111110111011 D
0E
b00000000000000000000000001000000 G
1h
#228
0h
#229
b00000000000000000000000001100100 $
b00000000000000000000000001011100 %
b00000000000000000000000001011100 &
b00000000000000000000000001011100 '
b00000000000000000000000001100000 (
1)
b00000000000000000000000000000001 *
b00000000000000000000000000000101 +
b00000000000000000000000000000110 ,
b00000000000000000000000000000101 -
1.
b11111111001101011001111011100011 /
b1100011 0
b001 1
12
04
06
b010 7
18
b10011 >
b11101 ?
b00000000000000000000000000000110 @
b00000000000000000000000000000110 A
b1111111100110101100111101 B
b11111111111111111111111111111100 C
b00000000000000000000000000110011 D
b00000000000000000000000000000001 Q
1h
#230
0h
#231
b00000000000000000000000001100000 $
b00000000000000000000000001011101 %
b00000000000000000000000001100000 &
b00000000000000000000000001011101 '
b00000000000000000000000001011100 (
0)
b00000000000000000000000000000001 +
b00000000000000000000000000000010 ,
b00000000000000000000000001000000 -
b00000000000101011000010110010011 /
b0010011 0
b000 1
02
14
16
b000 7
08
b00001 >
b01011 ?
b00000000000000000000000000000010 @
b00000000000000000000000000000010 A
b0000000000010101100001011 B
b00000000000000000000000000000001 C
b11111111111111111111111111001100 D
1h
#232
0h
#233
b00000000000000000000000001100100 $
b00000000000000000000000001011100 %
b00000000000000000000000001011100 &
b00000000000000000000000001011100 '
b00000000000000000000000001100000 (
1)
b00000000000000000000000000000010 *
b00000000000000000000000000000101 +
b00000000000000000000000000000111 ,
b00000000000000000000000000000101 -
b11111111001101011001111011100011 /
b1100011 0
b001 1
12
04
06
b010 7
18
b10011 >
b11101 ?
b00000000000000000000000000000111 @
b00000000000000000000000000000111 A
b1111111100110101100111101 B
b11111111111111111111111111111100 C
b11111111111111111111111110100001 D
b00000000000000000000000000000010 Q
1h
#234
0h
#235
b00000000000000000000000001100000 $
b00000000000000000000000001011101 %
b00000000000000000000000001100000 &
b00000000000000000000000001011101 '
b00000000000000000000000001011100 (
0)
b00000000000000000000000000000001 +
b00000000000000000000000000000011 ,
b00000000000000000000000001000000 -
0.
b00000000000101011000010110010011 /
b0010011 0
b000 1
02
14
16
b000 7
08
b00001 >
b01011 ?
b00000000000000000000000000000011 @
b00000000000000000000000000000011 A
b0000000000010101100001011 B
b00000000000000000000000000000001 C
b11111111111111111111111111011101 D
1h
#236
0h
#237
b00000000000000000000000001100100 $
b00000000000000000000000001011100 %
b00000000000000000000000001011100 &
b00000000000000000000000001011100 '
b00000000000000000000000001100000 (
1)
b00000000000000000000000000000011 *
b00000000000000000000000000000101 +
b00000000000000000000000000001000 ,
b00000000000000000000000000000101 -
1.
b11111111001101011001111011100011 /
b1100011 0
b001 1
12
04
06
b010 7
18
b10011 >
b11101 ?
b00000000000000000000000000001000 @
b00000000000000000000000000001000 A
b1111111100110101100111101 B
b11111111111111111111111111111100 C
b11111111111111111111111110101011 D
b00000000000000000000000000000011 Q
1h
#238
0h
#239
b00000000000000000000000001100000 $
b00000000000000000000000001011101 %
b00000000000000000000000001100000 &
b00000000000000000000000001011101 '
b00000000000000000000000001011100 (
0)
b00000000000000000000000000000001 +
b00000000000000000000000000000100 ,
b00000000000000000000000001000000 -
0.
b00000000000101011000010110010011 /
b0010011 0
b000 1
02
14
16
b000 7
08
b00001 >
b01011 ?
b00000000000000000000000000000100 @
b00000000000000000000000000000100 A
b0000000000010101100001011 B
b00000000000000000000000000000001 C
b00000000000000000000000000010001 D
1h
#240
0h
#241
b00000000000000000000000001100100 $
b00000000000000000000000001011100 %
b00000000000000000000000001011100 &
b00000000000000000000000001011100 '
b00000000000000000000000001100000 (
1)
b00000000000000000000000000000100 *
b00000000000000000000000000000101 +
b00000000000000000000000000001001 ,
b00000000000000000000000000000101 -
1.
b11111111001101011001111011100011 /
b1100011 0
b001 1
12
04
06
b010 7
18
b10011 >
b11101 ?
b00000000000000000000000000001001 @
b00000000000000000000000000001001 A
b1111111100110101100111101 B
b11111111111111111111111111111100 C
b11111111111111111111111110101100 D
b00000000000000000000000000000100 Q
1h
#242
0h
#243
b00000000000000000000000001100000 $
b00000000000000000000000001011101 %
b00000000000000000000000001100000 &
b00000000000000000000000001011101 '
b00000000000000000000000001011100 (
0)
b00000000000000000000000000000001 +
b00000000000000000000000000000101 ,
b00000000000000000000000001000000 -
0.
b00000000000101011000010110010011 /
b0010011 0
b000 1
02
14
16
b000 7
08
b00001 >
b01011 ?
b00000000000000000000000000000101 @
b00000000000000000000000000000101 A
b0000000000010101100001011 B
b00000000000000000000000000000001 C
b00000000000000000000000000100010 D
1h
#244
0h
#245
b00000000000000000000000001100100 $
b00000000000000000000000001011100 %
b00000000000000000000000001100100 &
b00000000000000000000000001011100 '
b00000000000000000000000001100000 (
b00000000000000000000000000000101 *
b00000000000000000000000000000101 +
b00000000000000000000000000001010 ,
b00000000000000000000000000000101 -
b11111111001101011001111011100011 /
b1100011 0
b001 1
12
04
06
b010 7
18
b10011 >
b11101 ?
b00000000000000000000000000001010 @
b00000000000000000000000000001010 A
b1111111100110101100111101 B
b11111111111111111111111111111100 C
b11111111111111111111111110101101 D
b00000000000000000000000000000101 Q
1h
#246
0h
#247
b00000000000000000000000001101000 $
b00000000000000000000000001100100 %
b00000000000000000000000001101000 &
b00000000000000000000000001100100 '
b00000000000000000000000001100100 (
b00000000000000000000000000000000 *
b00000000000000000000000000000000 +
b00000000000000000000000000000000 ,
b00000000000000000000000000000000 -
1.
b00000000000000000000010110010011 /
b0010011 0
b000 1
02
14
16
b000 7
08
b00000 =
b00000 >
b01011 ?
b00000000000000000000000000000000 @
b00000000000000000000000000000000 A
b0000000000000000000001011 B
b00000000000000000000000000000000 C
b11111111111111111111111110101010 D
1h
#248
0h
#249
b00000000000000000000000001101100 $
b00000000000000001000000001101000 %
b00000000000000001000000000000000 &
b00000000000000001000000000000000 '
b00000000000000000000000001101000 (
1)
b00000000000000000000000001000000 *
b00000000000000001000000000000000 +
b00000000000000001000000000000000 ,
b00000000000000001000000011100111 /
b1100111 0
b1011 5
b100 7
18
1;
1<
b00001 =
b00001 ?
b00000000000000000000000001101100 @
b00000000000000001000000000000000 A
b0000000000000000100000001 B
b00000000000000001000000000000000 C
b00000000000000000000000000000000 D
1E
b00000000000000000000000000000000 Q
1h
#250
0h
#251
b00000000000000001000000000000100 $
b00000000000000001000000000000001 %
b00000000000000001000000000000100 &
b00000000000000001000000000000001 '
b00000000000000001000000000000000 (
0)
b00000000000000000000000000000000 *
b00000000000000000000000000000001 +
b00000000000000000000000000000001 ,
b00000000000000000000000001101100 -
0.
b00000000000100000000010010010011 /
b0010011 0
b0000 5
b000 7
08
0;
0<
b00000 =
b00001 >
b01001 ?
b00000000000000000000000000000001 @
b00000000000000000000000000000001 A
b0000000000010000000001001 B
b00000000000000000000000000000001 C
b11111111111111111111111110111011 D
0E
b00000000000000000000000001101100 G
1h
#252
0h
#253
b00000000000000001000000000001000 $
b00000000000000001000000100000011 %
b00000000000000001000000000001000 &
b00000000000000001000000100000011 '
b00000000000000001000000000000100 (
b00000000000000000000000011111111 +
b00000000000000000000000011111111 ,
b00000000000000000000000000000000 -
b00001111111100000000100100010011 /
b11111 >
b10010 ?
b00000000000000000000000011111111 @
b00000000000000000000000011111111 A
b0000111111110000000010010 B
b00000000000000000000000011111111 C
b00000000000000000000000000000000 D
1h
#254
0h
#255
b00000000000000001000000000001100 $
b00000000000000001000000000001101 %
b00000000000000001000000000001100 &
b00000000000000001000000000001101 '
b00000000000000001000000000001000 (
b00000000000000000000000000000101 +
b00000000000000000000000000000101 ,
b00000000000000000000000000000001 -
b00000000010100000000100110010011 /
b00101 >
b10011 ?
b00000000000000000000000000000101 @
b00000000000000000000000000000101 A
b0000000001010000000010011 B
b00000000000000000000000000000101 C
b00000000000000000000000000100010 D
1h
#256
0h
#257
b00000000000000001000000000010000 $
b00000000000000001000000000010000 &
b00000000000000001000000000001100 (
b00000000000000000000000000000001 +
b00000000000000000000000000000001 ,
b00000000000000000000000001101100 -
b00000000000100000000011010010011 /
b00001 >
b01101 ?
b00000000000000000000000000000001 @
b00000000000000000000000000000001 A
b0000000000010000000001101 B
b00000000000000000000000000000001 C
b11111111111111111111111110111011 D
1h
#258
0h
#259
b00000000000000001000000000010100 $
b00000000000000001000000000010000 %
b00000000000000001000000000010100 &
b00000000000000001000000000010000 '
b00000000000000001000000000010000 (
b00000000000000000000000000000000 +
b00000000000000000000000000000000 ,
b00000000000000000000000000000000 -
1.
b00000000000000000000010100010011 /
b00000 >
b01010 ?
b00000000000000000000000000000000 @
b00000000000000000000000000000000 A
b0000000000000000000001010 B
b00000000000000000000000000000000 C
b11111111111111111111111110101010 D
1h
#260
0h
#261
b00000000000000001000000000011000 $
b00000000000000001000000000010100 %
b00000000000000001000000000011000 &
b00000000000000001000000000010100 '
b00000000000000001000000000010100 (
b00000000000000000000011100010011 /
b01110 ?
b0000000000000000000001110 B
1h
#262
0h
#263
b00000000000000001000000000011100 $
b00000000000000001000000000011000 %
b00000000000000001000000000011100 &
b00000000000000001000000000011000 '
b00000000000000001000000000011000 (
b00000000000000000000001010010011 /
b00101 ?
b0000000000000000000000101 B
1h
#264
0h
#265
b00000000000000001000000000100000 $
b00000000000000001000000000111100 %
b00000000000000001000000000111100 &
b00000000000000001000000000111100 '
b00000000000000001000000000011100 (
1)
b00000000000000000000000000000001 *
b00000000000000000000000000000001 +
b00000000000000000000000000000010 ,
b00000000000000000000000000000001 -
b00000010100100101000000001100011 /
b1100011 0
04
06
b010 7
18
b00101 =
b01001 >
b00000 ?
b00000000000000000000000000000010 @
b00000000000000000000000000000010 A
b0000001010010010100000000 B
b00000000000000000000000000100000 C
b11111111111111111111111111001100 D
1h
#266
0h
#267
b00000000000000001000000001000000 $
b00000000000000001000000001011100 %
b00000000000000001000000001011100 &
b00000000000000001000000001011100 '
b00000000000000001000000000111100 (
b00000000000000000000000000000000 *
b00000000000000000000000000100000 +
b00000000000000000000000000100000 ,
b00000000000000000000000000000000 -
b00000010000000000000000011101111 /
b1101111 0
14
b1100 5
16
b100 7
1;
b00000 =
b00000 >
b00001 ?
b00000000000000001000000001000000 @
b00000000000000000000000000100000 A
b0000001000000000000000001 B
b00000000000000000000000000000000 D
1E
1h
#268
0h
#269
b00000000000000001000000001100000 $
b00000000000000001000000001011101 %
b00000000000000001000000001100000 &
b00000000000000001000000001011101 '
b00000000000000001000000001011100 (
0)
b00000000000000000000000000000001 +
b00000000000000000000000000000001 ,
b00000000000000001000000001000000 -
0.
b00000000000101011000010110010011 /
b0010011 0
b0000 5
b000 7
08
0;
b01011 =
b00001 >
b01011 ?
b00000000000000000000000000000001 @
b00000000000000000000000000000001 A
b0000000000010101100001011 B
b00000000000000000000000000000001 C
b11111111111111111111111110111011 D
0E
b00000000000000001000000001000000 G
1h
#270
0h
#271
b00000000000000001000000001100100 $
b00000000000000001000000001011100 %
b00000000000000001000000001011100 &
b00000000000000001000000001011100 '
b00000000000000001000000001100000 (
1)
b00000000000000000000000000000001 *
b00000000000000000000000000000101 +
b00000000000000000000000000000110 ,
b00000000000000000000000000000101 -
1.
b11111111001101011001111011100011 /
b1100011 0
b001 1
12
04
06
b010 7
18
b10011 >
b11101 ?
b00000000000000000000000000000110 @
b00000000000000000000000000000110 A
b1111111100110101100111101 B
b11111111111111111111111111111100 C
b00000000000000000000000000110011 D
b00000000000000000000000000000001 Q
1h
#272
0h
#273
b00000000000000001000000001100000 $
b00000000000000001000000001011101 %
b00000000000000001000000001100000 &
b00000000000000001000000001011101 '
b00000000000000001000000001011100 (
0)
b00000000000000000000000000000001 +
b00000000000000000000000000000010 ,
b00000000000000001000000001000000 -
b00000000000101011000010110010011 /
b0010011 0
b000 1
02
14
16
b000 7
08
b00001 >
b01011 ?
b00000000000000000000000000000010 @
b00000000000000000000000000000010 A
b0000000000010101100001011 B
b00000000000000000000000000000001 C
b11111111111111111111111111001100 D
1h
#274
0h
#275
b00000000000000001000000001100100 $
b00000000000000001000000001011100 %
b00000000000000001000000001011100 &
b00000000000000001000000001011100 '
b00000000000000001000000001100000 (
1)
b00000000000000000000000000000010 *
b00000000000000000000000000000101 +
b00000000000000000000000000000111 ,
b00000000000000000000000000000101 -
b11111111001101011001111011100011 /
b1100011 0
b001 1
12
04
06
b010 7
18
b10011 >
b11101 ?
b00000000000000000000000000000111 @
b00000000000000000000000000000111 A
b1111111100110101100111101 B
b11111111111111111111111111111100 C
b11111111111111111111111110100001 D
b00000000000000000000000000000010 Q
1h
#276
0h
#277
b00000000000000001000000001100000 $
b00000000000000001000000001011101 %
b00000000000000001000000001100000 &
b00000000000000001000000001011101 '
b00000000000000001000000001011100 (
0)
b00000000000000000000000000000001 +
b00000000000000000000000000000011 ,
b00000000000000001000000001000000 -
0.
b00000000000101011000010110010011 /
b0010011 0
b000 1
02
14
16
b000 7
08
b00001 >
b01011 ?
b00000000000000000000000000000011 @
b00000000000000000000000000000011 A
b0000000000010101100001011 B
b00000000000000000000000000000001 C
b11111111111111111111111111011101 D
1h
#278
0h
#279
b00000000000000001000000001100100 $
b00000000000000001000000001011100 %
b00000000000000001000000001011100 &
b00000000000000001000000001011100 '
b00000000000000001000000001100000 (
1)
b00000000000000000000000000000011 *
b00000000000000000000000000000101 +
b00000000000000000000000000001000 ,
b00000000000000000000000000000101 -
1.
b11111111001101011001111011100011 /
b1100011 0
b001 1
12
04
06
b010 7
18
b10011 >
b11101 ?
b00000000000000000000000000001000 @
b00000000000000000000000000001000 A
b1111111100110101100111101 B
b11111111111111111111111111111100 C
b11111111111111111111111110101011 D
b00000000000000000000000000000011 Q
1h
#280
0h
#281
b00000000000000001000000001100000 $
b00000000000000001000000001011101 %
b00000000000000001000000001100000 &
b00000000000000001000000001011101 '
b00000000000000001000000001011100 (
0)
b00000000000000000000000000000001 +
b00000000000000000000000000000100 ,
b00000000000000001000000001000000 -
0.
b00000000000101011000010110010011 /
b0010011 0
b000 1
02
14
16
b000 7
08
b00001 >
b01011 ?
b00000000000000000000000000000100 @
b00000000000000000000000000000100 A
b0000000000010101100001011 B
b00000000000000000000000000000001 C
b00000000000000000000000000010001 D
1h
#282
0h
#283
b00000000000000001000000001100100 $
b00000000000000001000000001011100 %
b00000000000000001000000001011100 &
b00000000000000001000000001011100 '
b00000000000000001000000001100000 (
1)
b00000000000000000000000000000100 *
b00000000000000000000000000000101 +
b00000000000000000000000000001001 ,
b00000000000000000000000000000101 -
1.
b11111111001101011001111011100011 /
b1100011 0
b001 1
12
04
06
b010 7
18
b10011 >
b11101 ?
b00000000000000000000000000001001 @
b00000000000000000000000000001001 A
b1111111100110101100111101 B
b11111111111111111111111111111100 C
b11111111111111111111111110101100 D
b00000000000000000000000000000100 Q
1h
#284
0h
#285
b00000000000000001000000001100000 $
b00000000000000001000000001011101 %
b00000000000000001000000001100000 &
b00000000000000001000000001011101 '
b00000000000000001000000001011100 (
0)
b00000000000000000000000000000001 +
b00000000000000000000000000000101 ,
b00000000000000001000000001000000 -
0.
b00000000000101011000010110010011 /
b0010011 0
b000 1
02
14
16
b000 7
08
b00001 >
b01011 ?
b00000000000000000000000000000101 @
b00000000000000000000000000000101 A
b0000000000010101100001011 B
b00000000000000000000000000000001 C
b00000000000000000000000000100010 D
1h
#286
0h
#287
b00000000000000001000000001100100 $
b00000000000000001000000001011100 %
b00000000000000001000000001100100 &
b00000000000000001000000001011100 '
b00000000000000001000000001100000 (
b00000000000000000000000000000101 *
b00000000000000000000000000000101 +
b00000000000000000000000000001010 ,
b00000000000000000000000000000101 -
b11111111001101011001111011100011 /
b1100011 0
b001 1
12
04
06
b010 7
18
b10011 >
b11101 ?
b00000000000000000000000000001010 @
b00000000000000000000000000001010 A
b1111111100110101100111101 B
b11111111111111111111111111111100 C
b11111111111111111111111110101101 D
b00000000000000000000000000000101 Q
1h
#288
0h
#289
b00000000000000001000000001101000 $
b00000000000000001000000001100100 %
b00000000000000001000000001101000 &
b00000000000000001000000001100100 '
b00000000000000001000000001100100 (
b00000000000000000000000000000000 *
b00000000000000000000000000000000 +
b00000000000000000000000000000000 ,
b00000000000000000000000000000000 -
1.
b00000000000000000000010110010011 /
b0010011 0
b000 1
02
14
16
b000 7
08
b00000 =
b00000 >
b01011 ?
b00000000000000000000000000000000 @
b00000000000000000000000000000000 A
b0000000000000000000001011 B
b00000000000000000000000000000000 C
b11111111111111111111111110101010 D
1h
#290
0h
#291
b00000000000000001000000001101100 $
b00000000000000010000000001101000 %
b00000000000000001000000000000000 &
b00000000000000001000000000000000 '
b00000000000000001000000001101000 (
1)
b00000000000000001000000001000000 *
b00000000000000001000000000000000 +
b00000000000000001000000000000000 ,
b00000000000000001000000011100111 /
b1100111 0
b1011 5
b100 7
18
1;
1<
b00001 =
b00001 ?
b00000000000000001000000001101100 @
b00000000000000001000000000000000 A
b0000000000000000100000001 B
b00000000000000001000000000000000 C
b00000000000000000000000000000000 D
1E
b00000000000000000000000000000000 Q
1h
#292
0h
