evidence/F1.vcd
$version Generated by VerilatedVcd $end
$date Mon Dec 12 16:56:01 2022 $end
$timescale 1ps $end

 $scope module TOP $end
  $var wire  1 p clk $end
  $var wire 32 q data_out [31:0] $end
  $var wire  1 n rst $end
  $var wire  1 o trigger_i $end
  $scope module top $end
   $var wire 32 , ALUResultWire [31:0] $end
   $var wire  4 5 ALUctrlWire [3:0] $end
   $var wire  1 6 ALUsrcWire $end
   $var wire  1 < AUIPCWire $end
   $var wire 32 + Aluop2Wire [31:0] $end
   $var wire  1 8 BranchSrcWire $end
   $var wire 32 r DW [31:0] $end
   $var wire  3 7 ImmSrcWire [2:0] $end
   $var wire 32 F ImmediateExtendWire [31:0] $end
   $var wire 25 E ImmediateWire [24:0] $end
   $var wire 32 / InstructionWire [31:0] $end
   $var wire  1 ; JALRWire $end
   $var wire  1 : JALWire $end
   $var wire 32 ( PC_wire [31:0] $end
   $var wire  1 ) PCsrcWire $end
   $var wire 32 * RD1Wire [31:0] $end
   $var wire 32 - RD2Wire [31:0] $end
   $var wire 32 G RamOutWire [31:0] $end
   $var wire  1 9 ResultSrcWire $end
   $var wire  1 . branchWire $end
   $var wire 32 % branch_PC [31:0] $end
   $var wire  1 p clk $end
   $var wire 32 q data_out [31:0] $end
   $var wire  3 1 funct3 [2:0] $end
   $var wire  1 2 funct7 $end
   $var wire 32 $ inc_PC [31:0] $end
   $var wire 32 ' jump_PC [31:0] $end
   $var wire  1 > memSignWire $end
   $var wire  2 = memTypeWire [1:0] $end
   $var wire  1 3 memWrite_enWire $end
   $var wire 32 & next_PC [31:0] $end
   $var wire  7 0 opcode [6:0] $end
   $var wire  5 A rdWire [4:0] $end
   $var wire  1 4 regWrite_enWire $end
   $var wire  5 ? rs1Wire [4:0] $end
   $var wire  5 @ rs2Wire [4:0] $end
   $var wire  1 n rst $end
   $var wire  1 o trigger_i $end
   $var wire 32 B wd3Wire [31:0] $end
   $var wire 32 C wd3Wire0 [31:0] $end
   $var wire 32 D wd3Wire1 [31:0] $end
   $scope module ALU $end
    $var wire 32 , ALUResult_o [31:0] $end
    $var wire  4 5 ALUctrl_i [3:0] $end
    $var wire  3 1 BranchCtrl_i [2:0] $end
    $var wire  1 . Branch_o $end
    $var wire 32 r DATAWIDTH [31:0] $end
    $var wire 32 s SHIFT_WIDTH [31:0] $end
    $var wire 32 * SrcA_Signed [31:0] $end
    $var wire 32 * SrcA_i [31:0] $end
    $var wire 32 + SrcB_Signed [31:0] $end
    $var wire 32 + SrcB_i [31:0] $end
    $var wire  1 H overwrite_branch_o $end
   $upscope $end
   $scope module PC $end
    $var wire 32 r DW [31:0] $end
    $var wire 32 & PC_i [31:0] $end
    $var wire 32 ( PC_o [31:0] $end
    $var wire  1 p clk $end
    $var wire  1 n rst $end
   $upscope $end
   $scope module control $end
    $var wire  4 5 ALUctrl_o [3:0] $end
    $var wire  1 6 ALUsrc_o $end
    $var wire  1 8 BranchSrc_o $end
    $var wire  3 7 ImmSrc_o [2:0] $end
    $var wire  1 9 ResultSrc_o $end
    $var wire  1 < auipc_o $end
    $var wire  3 1 funct3_i [2:0] $end
    $var wire  1 2 funct7bit_i $end
    $var wire  1 : jal_o $end
    $var wire  1 ; jalr_o $end
    $var wire  1 > memSign_o $end
    $var wire  2 = memType_o [1:0] $end
    $var wire  1 3 memWrite_en_o $end
    $var wire  7 0 op_i [6:0] $end
    $var wire  1 4 regWrite_en_o $end
   $upscope $end
   $scope module extend $end
    $var wire 32 r DATAWIDTH [31:0] $end
    $var wire 32 F ImmExt_o [31:0] $end
    $var wire  3 7 ImmSrc_i [2:0] $end
    $var wire 25 E Imm_i [31:7] $end
   $upscope $end
   $scope module memory $end
    $var wire 32 J RDWire [31:0] $end
    $var wire 32 I WDWire [31:0] $end
    $var wire 32 r WIDTH [31:0] $end
    $var wire 32 , a_i [31:0] $end
    $var wire 32 K a_ii [31:0] $end
    $var wire  1 p clk_i $end
    $var wire  1 > memsign_i $end
    $var wire  2 = memtype_i [1:0] $end
    $var wire 32 G rd_o [31:0] $end
    $var wire 32 - wd_i [31:0] $end
    $var wire  1 3 write_en_i $end
    $scope module ram $end
     $var wire 32 t DATA_W [31:0] $end
     $var wire 32 r WIDTH [31:0] $end
     $var wire 32 K a_i [31:0] $end
     $var wire  1 p clk_i $end
     $var wire 32 J rd_o [31:0] $end
     $var wire 32 I wd_i [31:0] $end
     $var wire  1 3 write_en_i $end
    $upscope $end
    $scope module ram_i $end
     $var wire 32 r WIDTH [31:0] $end
     $var wire 32 , a_i [31:0] $end
     $var wire  2 = memtype_i [1:0] $end
     $var wire 32 J rd_i [31:0] $end
     $var wire 32 - wd_i [31:0] $end
     $var wire 32 I wd_o [31:0] $end
     $var wire  2 L whichbyte_i [1:0] $end
    $upscope $end
    $scope module ram_o $end
     $var wire 32 r WIDTH [31:0] $end
     $var wire 32 , a_i [31:0] $end
     $var wire  1 > memsign_i $end
     $var wire  2 = memtype_i [1:0] $end
     $var wire 32 J rd_i [31:0] $end
     $var wire 32 G rd_o [31:0] $end
     $var wire  2 L whichbyte_i [1:0] $end
    $upscope $end
   $upscope $end
   $scope module register_file $end
    $var wire  5 ? AD1_i [4:0] $end
    $var wire  5 @ AD2_i [4:0] $end
    $var wire  5 A AD3_i [4:0] $end
    $var wire 32 s ADDRESS_WIDTH [31:0] $end
    $var wire 32 r DATA_WIDTH [31:0] $end
    $var wire 32 * RD1_o [31:0] $end
    $var wire 32 - RD2_o [31:0] $end
    $var wire  1 o TRIGGER_i $end
    $var wire 32 B WD3_i [31:0] $end
    $var wire  1 4 WE3_i $end
    $var wire 32 q a0_o [31:0] $end
    $var wire  1 p clk $end
    $var wire 32 M register_array[0] [31:0] $end
    $var wire 32 W register_array[10] [31:0] $end
    $var wire 32 X register_array[11] [31:0] $end
    $var wire 32 Y register_array[12] [31:0] $end
    $var wire 32 Z register_array[13] [31:0] $end
    $var wire 32 [ register_array[14] [31:0] $end
    $var wire 32 \ register_array[15] [31:0] $end
    $var wire 32 ] register_array[16] [31:0] $end
    $var wire 32 ^ register_array[17] [31:0] $end
    $var wire 32 _ register_array[18] [31:0] $end
    $var wire 32 ` register_array[19] [31:0] $end
    $var wire 32 N register_array[1] [31:0] $end
    $var wire 32 a register_array[20] [31:0] $end
    $var wire 32 b register_array[21] [31:0] $end
    $var wire 32 c register_array[22] [31:0] $end
    $var wire 32 d register_array[23] [31:0] $end
    $var wire 32 e register_array[24] [31:0] $end
    $var wire 32 f register_array[25] [31:0] $end
    $var wire 32 g register_array[26] [31:0] $end
    $var wire 32 h register_array[27] [31:0] $end
    $var wire 32 i register_array[28] [31:0] $end
    $var wire 32 j register_array[29] [31:0] $end
    $var wire 32 O register_array[2] [31:0] $end
    $var wire 32 k register_array[30] [31:0] $end
    $var wire 32 l register_array[31] [31:0] $end
    $var wire 32 P register_array[3] [31:0] $end
    $var wire 32 Q register_array[4] [31:0] $end
    $var wire 32 R register_array[5] [31:0] $end
    $var wire 32 S register_array[6] [31:0] $end
    $var wire 32 T register_array[7] [31:0] $end
    $var wire 32 U register_array[8] [31:0] $end
    $var wire 32 V register_array[9] [31:0] $end
    $scope module unnamedblk1 $end
     $var wire 32 # i [31:0] $end
    $upscope $end
   $upscope $end
   $scope module rom $end
    $var wire 32 t DATA_W [31:0] $end
    $var wire 32 r WIDTH [31:0] $end
    $var wire 32 ( a_i [31:0] $end
    $var wire 32 m offset_addr [31:0] $end
    $var wire 32 / rd_o [31:0] $end
   $upscope $end
  $upscope $end
 $upscope $end
$enddefinitions $end


#0
b00000000000000000000000000000000 #
b00000000000000000000000000000000 $
b00000000000000000000000000000000 %
b00000000000000000000000000000000 &
b00000000000000000000000000000000 '
b00000000000000000000000000000000 (
0)
b00000000000000000000000000000000 *
b00000000000000000000000000000000 +
b00000000000000000000000000000000 ,
b00000000000000000000000000000000 -
0.
b00000000000000000000000000000000 /
b0000000 0
b000 1
02
03
04
b0000 5
06
b000 7
08
09
0:
0;
0<
b00 =
0>
b00000 ?
b00000 @
b00000 A
b00000000000000000000000000000000 B
b00000000000000000000000000000000 C
b00000000000000000000000000000000 D
b0000000000000000000000000 E
b00000000000000000000000000000000 F
b00000000000000000000000000000000 G
0H
b00000000000000000000000000000000 I
b00000000000000000000000000000000 J
b00000000000000000000000000000000 K
b00 L
b00000000000000000000000000000000 M
b00000000000000000000000000000000 N
b00000000000000000000000000000000 O
b00000000000000000000000000000000 P
b00000000000000000000000000000000 Q
b00000000000000000000000000000000 R
b00000000000000000000000000000000 S
b00000000000000000000000000000000 T
b00000000000000000000000000000000 U
b00000000000000000000000000000000 V
b00000000000000000000000000000000 W
b00000000000000000000000000000000 X
b00000000000000000000000000000000 Y
b00000000000000000000000000000000 Z
b00000000000000000000000000000000 [
b00000000000000000000000000000000 \
b00000000000000000000000000000000 ]
b00000000000000000000000000000000 ^
b00000000000000000000000000000000 _
b00000000000000000000000000000000 `
b00000000000000000000000000000000 a
b00000000000000000000000000000000 b
b00000000000000000000000000000000 c
b00000000000000000000000000000000 d
b00000000000000000000000000000000 e
b00000000000000000000000000000000 f
b00000000000000000000000000000000 g
b00000000000000000000000000000000 h
b00000000000000000000000000000000 i
b00000000000000000000000000000000 j
b00000000000000000000000000000000 k
b00000000000000000000000000000000 l
b01000000010000000000000000000000 m
0n
0o
0p
b00000000000000000000000000000000 q
b00000000000000000000000000100000 r
b00000000000000000000000000000101 s
b00000000000000000000000000001000 t
#1
b00000000000000000000000000100000 #
b00000000000000000000000000000100 $
b00000000000000000000000000000001 %
b00000000000000000000000000000100 &
b00000000000000000000000000000001 '
b00000000000000000000000000000001 +
b00000000000000000000000000000001 ,
b00000000000100000000010010010011 /
b0010011 0
14
16
b00001 @
b01001 A
b00000000000000000000000000000001 B
b00000000000000000000000000000001 C
b00000000000000000000000000000001 D
b0000000000010000000001001 E
b00000000000000000000000000000001 F
b01 L
1p
#2
0p
#3
b00000000000000000000000000001000 $
b00000000000000000000000100000011 %
b00000000000000000000000000001000 &
b00000000000000000000000100000011 '
b00000000000000000000000000000100 (
b00000000000000000000000011111111 +
b00000000000000000000000011111111 ,
b00001111111100000000100100010011 /
b11111 @
b10010 A
b00000000000000000000000011111111 B
b00000000000000000000000011111111 C
b00000000000000000000000011111111 D
b0000111111110000000010010 E
b00000000000000000000000011111111 F
b00000000000000000000000011111100 K
b11 L
b00000000000000000000000000000001 V
b01000000010000000000000000000100 m
1p
#4
0p
#5
b00000000000000000000000000001100 $
b00000000000000000000000000001011 %
b00000000000000000000000000001100 &
b00000000000000000000000000001011 '
b00000000000000000000000000001000 (
b00000000000000000000000000000011 +
b00000000000000000000000000000011 ,
b00000000001100000000100110010011 /
b00011 @
b10011 A
b00000000000000000000000000000011 B
b00000000000000000000000000000011 C
b00000000000000000000000000000011 D
b0000000000110000000010011 E
b00000000000000000000000000000011 F
b00000000000000000000000000000000 K
b00000000000000000000000011111111 _
b01000000010000000000000000001000 m
1p
#6
0p
#7
b00000000000000000000000000010000 $
b00000000000000000000000000001101 %
b00000000000000000000000000010000 &
b00000000000000000000000000001101 '
b00000000000000000000000000001100 (
b00000000000000000000000000000001 +
b00000000000000000000000000000001 ,
b00000000000100000000011010010011 /
b00001 @
b01101 A
b00000000000000000000000000000001 B
b00000000000000000000000000000001 C
b00000000000000000000000000000001 D
b0000000000010000000001101 E
b00000000000000000000000000000001 F
b01 L
b00000000000000000000000000000011 `
b01000000010000000000000000001100 m
1p
#8
0p
#9
b00000000000000000000000000010100 $
b00000000000000000000000000010000 %
b00000000000000000000000000010100 &
b00000000000000000000000000010000 '
b00000000000000000000000000010000 (
b00000000000000000000000000000000 +
b00000000000000000000000000000000 ,
1.
b00000000000000000000010100010011 /
b00000 @
b01010 A
b00000000000000000000000000000000 B
b00000000000000000000000000000000 C
b00000000000000000000000000000000 D
b0000000000000000000001010 E
b00000000000000000000000000000000 F
b00 L
b00000000000000000000000000000001 Z
b01000000010000000000000000010000 m
1p
#10
0p
#11
b00000000000000000000000000011000 $
b00000000000000000000000000010100 %
b00000000000000000000000000011000 &
b00000000000000000000000000010100 '
b00000000000000000000000000010100 (
b00000000000000000000011100010011 /
b01110 A
b0000000000000000000001110 E
b01000000010000000000000000010100 m
1p
#12
0p
#13
b00000000000000000000000000011100 $
b00000000000000000000000000011000 %
b00000000000000000000000000011100 &
b00000000000000000000000000011000 '
b00000000000000000000000000011000 (
b00000000000000000000001010010011 /
b00101 A
b0000000000000000000000101 E
b01000000010000000000000000011000 m
1p
#14
0p
#15
b00000000000000000000000000100000 $
b00000000000000000000000000111100 %
b00000000000000000000000000100000 &
b00000000000000000000000000111100 '
b00000000000000000000000000011100 (
b00000000000000000000000000000001 +
b00000000000000000000000000000001 -
0.
b00000010100100101000000001100011 /
b1100011 0
04
b1111 5
06
b010 7
18
b00101 ?
b01001 @
b00000 A
b0000001010010010100000000 E
b00000000000000000000000000100000 F
b00000000000000000000000000000001 I
b01000000010000000000000000011100 m
1p
#16
0p
#17
b00000000000000000000000000100100 $
b00000000000000000000000000100011 %
b00000000000000000000000000100100 &
b00000000000000000000000000100011 '
b00000000000000000000000000100000 (
b00000000000000000000000000000001 *
b00000000000000000000000000000011 +
b00000000000000000000000000000000 -
b00000000001101101101011000010011 /
b0010011 0
b101 1
14
b0111 5
16
b000 7
08
b01101 ?
b00011 @
b01100 A
b0000000000110110110101100 E
b00000000000000000000000000000011 F
b00000000000000000000000000000000 I
b01000000010000000000000000100000 m
1p
#18
0p
#19
b00000000000000000000000000101000 $
b00000000000000000000000000110001 %
b00000000000000000000000000101000 &
b00000000000000000000000000110001 '
b00000000000000000000000000100100 (
b00000000000000000000000000000000 *
b00000000000000000000000000000001 +
b00000000000000000000000000000001 ,
b00000000000000000000000000000001 -
1.
b00000000110101100100011000110011 /
b0110011 0
b100 1
b0100 5
06
b01100 ?
b01101 @
b00000000000000000000000000000001 B
b00000000000000000000000000000001 C
b00000000000000000000000000000001 D
b0000000011010110010001100 E
b00000000000000000000000000001101 F
b00000000000000000000000000000001 I
b01 L
b01000000010000000000000000100100 m
1p
#20
0p
#21
b00000000000000000000000000101100 $
b00000000000000000000000000101001 %
b00000000000000000000000000101100 &
b00000000000000000000000000101001 '
b00000000000000000000000000101000 (
b00000000000000000000000000000001 *
b00000000000000000000000000000000 -
b00000000000101100111011000010011 /
b0010011 0
b111 1
b0010 5
16
b00001 @
b0000000000010110011101100 E
b00000000000000000000000000000001 F
b00000000000000000000000000000000 I
b00000000000000000000000000000001 Y
b01000000010000000000000000101000 m
1p
#22
0p
#23
b00000000000000000000000000110000 $
b00000000000000000000000000101101 %
b00000000000000000000000000110000 &
b00000000000000000000000000101101 '
b00000000000000000000000000101100 (
b00000000000000000000000000000010 ,
0.
b00000000000101101001011010010011 /
b001 1
b1000 5
b01101 ?
b01101 A
b00000000000000000000000000000010 B
b00000000000000000000000000000010 C
b00000000000000000000000000000010 D
b0000000000010110100101101 E
b10 L
b01000000010000000000000000101100 m
1p
#24
0p
#25
b00000000000000000000000000110100 $
b00000000000000000000000000111100 %
b00000000000000000000000000110100 &
b00000000000000000000000000111100 '
b00000000000000000000000000110000 (
b00000000000000000000000000000010 *
b00000000000000000000000000000011 ,
b00000000000000000000000000000001 -
b00000000110001101000011010110011 /
b0110011 0
b000 1
b0000 5
06
b01100 @
b00000000000000000000000000000011 B
b00000000000000000000000000000011 C
b00000000000000000000000000000011 D
b0000000011000110100001101 E
b00000000000000000000000000001100 F
b00000000000000000000000000000001 I
b11 L
b00000000000000000000000000000010 Z
b01000000010000000000000000110000 m
1p
#26
0p
#27
b00000000000000000000000000111000 $
b00000000000000000000000001000011 %
b00000000000000000000000000111000 &
b00000000000000000000000001000011 '
b00000000000000000000000000110100 (
b00000000000000000000000000000011 *
b00000000000000000000000000001111 +
b00000000000000000000000000000000 -
b00000000111101101111011010010011 /
b0010011 0
b111 1
b0010 5
16
b01111 @
b0000000011110110111101101 E
b00000000000000000000000000001111 F
b00000000000000000000000000000000 I
b00000000000000000000000000000011 Z
b01000000010000000000000000110100 m
1p
#28
0p
#29
b00000000000000000000000000111100 $
b00000000000000000000000000011100 %
b00000000000000000000000000011100 &
b00000000000000000000000000011100 '
b00000000000000000000000000111000 (
1)
b00000000000000000000000000000000 *
b11111111111111111111111111100100 +
b11111111111111111111111111100100 ,
1.
b11111110010111111111000011101111 /
b1101111 0
12
b1011 5
b100 7
18
1:
b11111 ?
b00101 @
b00001 A
b00000000000000000000000000111100 B
b11111111111111111111111111100100 C
b11111111111111111111111111100100 D
b1111111001011111111100001 E
b11111111111111111111111111100100 F
b11010001101101111100000011010101 G
1H
b11010001101101111100000011010101 J
b11111111111111111111111111100100 K
b00 L
b01000000010000000000000000111000 m
1p
#30
0p
#31
b00000000000000000000000000100000 $
b00000000000000000000000000111100 %
b00000000000000000000000000100000 &
b00000000000000000000000000111100 '
b00000000000000000000000000011100 (
0)
b00000000000000000000000000000001 +
b00000000000000000000000000000000 ,
b00000000000000000000000000000001 -
0.
b00000010100100101000000001100011 /
b1100011 0
b000 1
02
04
b1111 5
06
b010 7
0:
b00101 ?
b01001 @
b00000 A
b00000000000000000000000000000000 B
b00000000000000000000000000000000 C
b00000000000000000000000000000000 D
b0000001010010010100000000 E
b00000000000000000000000000100000 F
b00000000000000000000000000000000 G
0H
b00000000000000000000000000000001 I
b00000000000000000000000000000000 J
b00000000000000000000000000000000 K
b00000000000000000000000000111100 N
b01000000010000000000000000011100 m
1p
#32
0p
#33
b00000000000000000000000000100100 $
b00000000000000000000000000100011 %
b00000000000000000000000000100100 &
b00000000000000000000000000100011 '
b00000000000000000000000000100000 (
b00000000000000000000000000000011 *
b00000000000000000000000000000011 +
b00000000000000000000000000000000 -
1.
b00000000001101101101011000010011 /
b0010011 0
b101 1
14
b0111 5
16
b000 7
08
b01101 ?
b00011 @
b01100 A
b0000000000110110110101100 E
b00000000000000000000000000000011 F
b00000000000000000000000000000000 I
b01000000010000000000000000100000 m
1p
#34
0p
#35
b00000000000000000000000000101000 $
b00000000000000000000000000110001 %
b00000000000000000000000000101000 &
b00000000000000000000000000110001 '
b00000000000000000000000000100100 (
b00000000000000000000000000000000 *
b00000000000000000000000000000011 ,
b00000000000000000000000000000011 -
b00000000110101100100011000110011 /
b0110011 0
b100 1
b0100 5
06
b01100 ?
b01101 @
b00000000000000000000000000000011 B
b00000000000000000000000000000011 C
b00000000000000000000000000000011 D
b0000000011010110010001100 E
b00000000000000000000000000001101 F
b00000000000000000000000000000011 I
b11 L
b00000000000000000000000000000000 Y
b01000000010000000000000000100100 m
1p
#36
0p
#37
b00000000000000000000000000101100 $
b00000000000000000000000000101001 %
b00000000000000000000000000101100 &
b00000000000000000000000000101001 '
b00000000000000000000000000101000 (
b00000000000000000000000000000011 *
b00000000000000000000000000000001 +
b00000000000000000000000000000001 ,
b00000000000000000000000000111100 -
b00000000000101100111011000010011 /
b0010011 0
b111 1
b0010 5
16
b00001 @
b00000000000000000000000000000001 B
b00000000000000000000000000000001 C
b00000000000000000000000000000001 D
b0000000000010110011101100 E
b00000000000000000000000000000001 F
b00000000000000000000000000111100 I
b01 L
b00000000000000000000000000000011 Y
b01000000010000000000000000101000 m
1p
#38
0p
#39
b00000000000000000000000000110000 $
b00000000000000000000000000101101 %
b00000000000000000000000000110000 &
b00000000000000000000000000101101 '
b00000000000000000000000000101100 (
b00000000000000000000000000000110 ,
b00000000000101101001011010010011 /
b001 1
b1000 5
b01101 ?
b01101 A
b00000000000000000000000000000110 B
b00000000000000000000000000000110 C
b00000000000000000000000000000110 D
b0000000000010110100101101 E
b00000000000000000000000000000100 K
b10 L
b00000000000000000000000000000001 Y
b01000000010000000000000000101100 m
1p
#40
0p
#41
b00000000000000000000000000110100 $
b00000000000000000000000000111100 %
b00000000000000000000000000110100 &
b00000000000000000000000000111100 '
b00000000000000000000000000110000 (
b00000000000000000000000000000110 *
b00000000000000000000000000000111 ,
b00000000000000000000000000000001 -
0.
b00000000110001101000011010110011 /
b0110011 0
b000 1
b0000 5
06
b01100 @
b00000000000000000000000000000111 B
b00000000000000000000000000000111 C
b00000000000000000000000000000111 D
b0000000011000110100001101 E
b00000000000000000000000000001100 F
b00000000000000000000000000000001 I
b11 L
b00000000000000000000000000000110 Z
b01000000010000000000000000110000 m
1p
#42
0p
#43
b00000000000000000000000000111000 $
b00000000000000000000000001000011 %
b00000000000000000000000000111000 &
b00000000000000000000000001000011 '
b00000000000000000000000000110100 (
b00000000000000000000000000000111 *
b00000000000000000000000000001111 +
b00000000000000000000000000000000 -
b00000000111101101111011010010011 /
b0010011 0
b111 1
b0010 5
16
b01111 @
b0000000011110110111101101 E
b00000000000000000000000000001111 F
b00000000000000000000000000000000 I
b00000000000000000000000000000111 Z
b01000000010000000000000000110100 m
1p
#44
0p
#45
b00000000000000000000000000111100 $
b00000000000000000000000000011100 %
b00000000000000000000000000011100 &
b00000000000000000000000000011100 '
b00000000000000000000000000111000 (
1)
b00000000000000000000000000000000 *
b11111111111111111111111111100100 +
b11111111111111111111111111100100 ,
1.
b11111110010111111111000011101111 /
b1101111 0
12
b1011 5
b100 7
18
1:
b11111 ?
b00101 @
b00001 A
b00000000000000000000000000111100 B
b11111111111111111111111111100100 C
b11111111111111111111111111100100 D
b1111111001011111111100001 E
b11111111111111111111111111100100 F
b11010001101101111100000011010101 G
1H
b11010001101101111100000011010101 J
b11111111111111111111111111100100 K
b00 L
b01000000010000000000000000111000 m
1p
#46
0p
#47
b00000000000000000000000000100000 $
b00000000000000000000000000111100 %
b00000000000000000000000000100000 &
b00000000000000000000000000111100 '
b00000000000000000000000000011100 (
0)
b00000000000000000000000000000001 +
b00000000000000000000000000000000 ,
b00000000000000000000000000000001 -
0.
b00000010100100101000000001100011 /
b1100011 0
b000 1
02
04
b1111 5
06
b010 7
0:
b00101 ?
b01001 @
b00000 A
b00000000000000000000000000000000 B
b00000000000000000000000000000000 C
b00000000000000000000000000000000 D
b0000001010010010100000000 E
b00000000000000000000000000100000 F
b00000000000000000000000000000000 G
0H
b00000000000000000000000000000001 I
b00000000000000000000000000000000 J
b00000000000000000000000000000000 K
b01000000010000000000000000011100 m
1p
#48
0p
#49
b00000000000000000000000000100100 $
b00000000000000000000000000100011 %
b00000000000000000000000000100100 &
b00000000000000000000000000100011 '
b00000000000000000000000000100000 (
b00000000000000000000000000000111 *
b00000000000000000000000000000011 +
b00000000000000000000000000000000 -
1.
b00000000001101101101011000010011 /
b0010011 0
b101 1
14
b0111 5
16
b000 7
08
b01101 ?
b00011 @
b01100 A
b0000000000110110110101100 E
b00000000000000000000000000000011 F
b00000000000000000000000000000000 I
b01000000010000000000000000100000 m
1p
#50
0p
#51
b00000000000000000000000000101000 $
b00000000000000000000000000110001 %
b00000000000000000000000000101000 &
b00000000000000000000000000110001 '
b00000000000000000000000000100100 (
b00000000000000000000000000000000 *
b00000000000000000000000000000111 +
b00000000000000000000000000000111 ,
b00000000000000000000000000000111 -
b00000000110101100100011000110011 /
b0110011 0
b100 1
b0100 5
06
b01100 ?
b01101 @
b00000000000000000000000000000111 B
b00000000000000000000000000000111 C
b00000000000000000000000000000111 D
b0000000011010110010001100 E
b00000000000000000000000000001101 F
b00000000000000000000000000000111 I
b00000000000000000000000000000100 K
b11 L
b00000000000000000000000000000000 Y
b01000000010000000000000000100100 m
1p
#52
0p
#53
b00000000000000000000000000101100 $
b00000000000000000000000000101001 %
b00000000000000000000000000101100 &
b00000000000000000000000000101001 '
b00000000000000000000000000101000 (
b00000000000000000000000000000111 *
b00000000000000000000000000000001 +
b00000000000000000000000000000001 ,
b00000000000000000000000000111100 -
b00000000000101100111011000010011 /
b0010011 0
b111 1
b0010 5
16
b00001 @
b00000000000000000000000000000001 B
b00000000000000000000000000000001 C
b00000000000000000000000000000001 D
b0000000000010110011101100 E
b00000000000000000000000000000001 F
b00000000000000000000000000111100 I
b00000000000000000000000000000000 K
b01 L
b00000000000000000000000000000111 Y
b01000000010000000000000000101000 m
1p
#54
0p
#55
b00000000000000000000000000110000 $
b00000000000000000000000000101101 %
b00000000000000000000000000110000 &
b00000000000000000000000000101101 '
b00000000000000000000000000101100 (
b00000000000000000000000000001110 ,
b00000000000101101001011010010011 /
b001 1
b1000 5
b01101 ?
b01101 A
b00000000000000000000000000001110 B
b00000000000000000000000000001110 C
b00000000000000000000000000001110 D
b0000000000010110100101101 E
b00000000000000000000000000001100 K
b10 L
b00000000000000000000000000000001 Y
b01000000010000000000000000101100 m
1p
#56
0p
#57
b00000000000000000000000000110100 $
b00000000000000000000000000111100 %
b00000000000000000000000000110100 &
b00000000000000000000000000111100 '
b00000000000000000000000000110000 (
b00000000000000000000000000001110 *
b00000000000000000000000000001111 ,
b00000000000000000000000000000001 -
0.
b00000000110001101000011010110011 /
b0110011 0
b000 1
b0000 5
06
b01100 @
b00000000000000000000000000001111 B
b00000000000000000000000000001111 C
b00000000000000000000000000001111 D
b0000000011000110100001101 E
b00000000000000000000000000001100 F
b00000000000000000000000000000001 I
b11 L
b00000000000000000000000000001110 Z
b01000000010000000000000000110000 m
1p
#58
0p
#59
b00000000000000000000000000111000 $
b00000000000000000000000001000011 %
b00000000000000000000000000111000 &
b00000000000000000000000001000011 '
b00000000000000000000000000110100 (
b00000000000000000000000000001111 *
b00000000000000000000000000001111 +
b00000000000000000000000000000000 -
1.
b00000000111101101111011010010011 /
b0010011 0
b111 1
b0010 5
16
b01111 @
b0000000011110110111101101 E
b00000000000000000000000000001111 F
b00000000000000000000000000000000 I
b00000000000000000000000000001111 Z
b01000000010000000000000000110100 m
1p
#60
0p
#61
b00000000000000000000000000111100 $
b00000000000000000000000000011100 %
b00000000000000000000000000011100 &
b00000000000000000000000000011100 '
b00000000000000000000000000111000 (
1)
b00000000000000000000000000000000 *
b11111111111111111111111111100100 +
b11111111111111111111111111100100 ,
b11111110010111111111000011101111 /
b1101111 0
12
b1011 5
b100 7
18
1:
b11111 ?
b00101 @
b00001 A
b00000000000000000000000000111100 B
b11111111111111111111111111100100 C
b11111111111111111111111111100100 D
b1111111001011111111100001 E
b11111111111111111111111111100100 F
b11010001101101111100000011010101 G
1H
b11010001101101111100000011010101 J
b11111111111111111111111111100100 K
b00 L
b01000000010000000000000000111000 m
1p
#62
0p
#63
b00000000000000000000000000100000 $
b00000000000000000000000000111100 %
b00000000000000000000000000100000 &
b00000000000000000000000000111100 '
b00000000000000000000000000011100 (
0)
b00000000000000000000000000000001 +
b00000000000000000000000000000000 ,
b00000000000000000000000000000001 -
0.
b00000010100100101000000001100011 /
b1100011 0
b000 1
02
04
b1111 5
06
b010 7
0:
b00101 ?
b01001 @
b00000 A
b00000000000000000000000000000000 B
b00000000000000000000000000000000 C
b00000000000000000000000000000000 D
b0000001010010010100000000 E
b00000000000000000000000000100000 F
b00000000000000000000000000000000 G
0H
b00000000000000000000000000000001 I
b00000000000000000000000000000000 J
b00000000000000000000000000000000 K
b01000000010000000000000000011100 m
1p
#64
0p
#65
b00000000000000000000000000100100 $
b00000000000000000000000000100011 %
b00000000000000000000000000100100 &
b00000000000000000000000000100011 '
b00000000000000000000000000100000 (
b00000000000000000000000000001111 *
b00000000000000000000000000000011 +
b00000000000000000000000000000001 ,
b00000000000000000000000000000000 -
1.
b00000000001101101101011000010011 /
b0010011 0
b101 1
14
b0111 5
16
b000 7
08
b01101 ?
b00011 @
b01100 A
b00000000000000000000000000000001 B
b00000000000000000000000000000001 C
b00000000000000000000000000000001 D
b0000000000110110110101100 E
b00000000000000000000000000000011 F
b00000000000000000000000000000000 I
b01 L
b01000000010000000000000000100000 m
1p
#66
0p
#67
b00000000000000000000000000101000 $
b00000000000000000000000000110001 %
b00000000000000000000000000101000 &
b00000000000000000000000000110001 '
b00000000000000000000000000100100 (
b00000000000000000000000000000001 *
b00000000000000000000000000001111 +
b00000000000000000000000000001110 ,
b00000000000000000000000000001111 -
b00000000110101100100011000110011 /
b0110011 0
b100 1
b0100 5
06
b01100 ?
b01101 @
b00000000000000000000000000001110 B
b00000000000000000000000000001110 C
b00000000000000000000000000001110 D
b0000000011010110010001100 E
b00000000000000000000000000001101 F
b00000000000000000000000000001111 I
b00000000000000000000000000001100 K
b10 L
b01000000010000000000000000100100 m
1p
#68
0p
#69
b00000000000000000000000000101100 $
b00000000000000000000000000101001 %
b00000000000000000000000000101100 &
b00000000000000000000000000101001 '
b00000000000000000000000000101000 (
b00000000000000000000000000001110 *
b00000000000000000000000000000001 +
b00000000000000000000000000000000 ,
b00000000000000000000000000111100 -
b00000000000101100111011000010011 /
b0010011 0
b111 1
b0010 5
16
b00001 @
b00000000000000000000000000000000 B
b00000000000000000000000000000000 C
b00000000000000000000000000000000 D
b0000000000010110011101100 E
b00000000000000000000000000000001 F
b00000000000000000000000000111100 I
b00000000000000000000000000000000 K
b00 L
b00000000000000000000000000001110 Y
b01000000010000000000000000101000 m
1p
#70
0p
#71
b00000000000000000000000000110000 $
b00000000000000000000000000101101 %
b00000000000000000000000000110000 &
b00000000000000000000000000101101 '
b00000000000000000000000000101100 (
b00000000000000000000000000001111 *
b00000000000000000000000000011110 ,
b00000000000101101001011010010011 /
b001 1
b1000 5
b01101 ?
b01101 A
b00000000000000000000000000011110 B
b00000000000000000000000000011110 C
b00000000000000000000000000011110 D
b0000000000010110100101101 E
b00000000000000000000000000011100 K
b10 L
b00000000000000000000000000000000 Y
b01000000010000000000000000101100 m
1p
#72
0p
