initialriscv/top.vcd
$version Generated by VerilatedVcd $end
$date Tue Dec  6 02:11:03 2022 $end
$timescale 1ps $end

 $scope module TOP $end
  $var wire 32 l ALUoutWire [31:0] $end
  $var wire 32 j Aluop2Wire [31:0] $end
  $var wire 32 i ImmOpWire [31:0] $end
  $var wire 32 h InstructionWire [31:0] $end
  $var wire 32 k RD1Wire [31:0] $end
  $var wire 32 g a0out [31:0] $end
  $var wire  1 e clk $end
  $var wire  1 f rst $end
  $scope module top $end
   $var wire  3 q ALUctrlWire [2:0] $end
   $var wire 32 l ALUoutWire [31:0] $end
   $var wire  1 p ALUsrcWire $end
   $var wire 32 j Aluop2Wire [31:0] $end
   $var wire 32 x DW [31:0] $end
   $var wire  1 o EQWire $end
   $var wire 32 i ImmOpWire [31:0] $end
   $var wire  3 A ImmSrcWire [2:0] $end
   $var wire 32 h InstructionWire [31:0] $end
   $var wire 32 @ PCWire [31:0] $end
   $var wire  1 m PCsrcWire $end
   $var wire 32 k RD1Wire [31:0] $end
   $var wire 32 n RD2Wire [31:0] $end
   $var wire  1 p RegWriteWire $end
   $var wire 32 g a0out [31:0] $end
   $var wire 32 u branch_PC [31:0] $end
   $var wire  1 e clk $end
   $var wire 32 B inc_PC [31:0] $end
   $var wire 32 v next_PC [31:0] $end
   $var wire  5 t rd [4:0] $end
   $var wire  5 r rs1 [4:0] $end
   $var wire  5 s rs2 [4:0] $end
   $var wire  1 f rst $end
   $scope module PC $end
    $var wire 32 x DW [31:0] $end
    $var wire 32 v PC_i [31:0] $end
    $var wire 32 @ PC_o [31:0] $end
    $var wire  1 e clk $end
    $var wire  1 f rst $end
   $upscope $end
   $scope module RegFile $end
    $var wire  5 r AD1_i [4:0] $end
    $var wire  5 s AD2_i [4:0] $end
    $var wire  5 t AD3_i [4:0] $end
    $var wire 32 y ADDRESS_WIDTH [31:0] $end
    $var wire 32 x DATA_WIDTH [31:0] $end
    $var wire 32 k RD1_o [31:0] $end
    $var wire 32 n RD2_o [31:0] $end
    $var wire 32 l WD3_i [31:0] $end
    $var wire  1 p WE3_i $end
    $var wire 32 g a0_o [31:0] $end
    $var wire  1 e clk $end
    $var wire 32 C register_array[0] [31:0] $end
    $var wire 32 M register_array[10] [31:0] $end
    $var wire 32 N register_array[11] [31:0] $end
    $var wire 32 O register_array[12] [31:0] $end
    $var wire 32 P register_array[13] [31:0] $end
    $var wire 32 Q register_array[14] [31:0] $end
    $var wire 32 R register_array[15] [31:0] $end
    $var wire 32 S register_array[16] [31:0] $end
    $var wire 32 T register_array[17] [31:0] $end
    $var wire 32 U register_array[18] [31:0] $end
    $var wire 32 V register_array[19] [31:0] $end
    $var wire 32 D register_array[1] [31:0] $end
    $var wire 32 W register_array[20] [31:0] $end
    $var wire 32 X register_array[21] [31:0] $end
    $var wire 32 Y register_array[22] [31:0] $end
    $var wire 32 Z register_array[23] [31:0] $end
    $var wire 32 [ register_array[24] [31:0] $end
    $var wire 32 \ register_array[25] [31:0] $end
    $var wire 32 ] register_array[26] [31:0] $end
    $var wire 32 ^ register_array[27] [31:0] $end
    $var wire 32 _ register_array[28] [31:0] $end
    $var wire 32 ` register_array[29] [31:0] $end
    $var wire 32 E register_array[2] [31:0] $end
    $var wire 32 a register_array[30] [31:0] $end
    $var wire 32 b register_array[31] [31:0] $end
    $var wire 32 F register_array[3] [31:0] $end
    $var wire 32 G register_array[4] [31:0] $end
    $var wire 32 H register_array[5] [31:0] $end
    $var wire 32 I register_array[6] [31:0] $end
    $var wire 32 J register_array[7] [31:0] $end
    $var wire 32 K register_array[8] [31:0] $end
    $var wire 32 L register_array[9] [31:0] $end
    $scope module unnamedblk1 $end
     $var wire 32 # i [31:0] $end
    $upscope $end
   $upscope $end
   $scope module aluCPU $end
    $var wire  3 q ALUctrl_i [2:0] $end
    $var wire 32 k ALUop1_i [31:0] $end
    $var wire 32 j ALUop2_i [31:0] $end
    $var wire 32 l ALUout_o [31:0] $end
    $var wire 32 x DW [31:0] $end
    $var wire  1 o Eq_o $end
   $upscope $end
   $scope module control $end
    $var wire  3 q ALUctrl_o [2:0] $end
    $var wire  1 p ALUsrc_o $end
    $var wire 32 x AW [31:0] $end
    $var wire  1 o Eq_i $end
    $var wire  3 A ImmSrc_o [2:0] $end
    $var wire  1 m PCsrc_o $end
    $var wire  1 p RegWrite_o $end
    $var wire 32 h instr_i [31:0] $end
    $var wire  7 w opcode [6:0] $end
   $upscope $end
   $scope module extendo $end
    $var wire 32 x DW [31:0] $end
    $var wire 32 i ImmOp_o [31:0] $end
    $var wire  3 A ImmSrc_i [2:0] $end
    $var wire 12 c immediate [11:0] $end
    $var wire 32 h instr_i [31:0] $end
    $var wire  1 d msb $end
   $upscope $end
   $scope module romF $end
    $var wire 32 x ADDRESS_WIDTH [31:0] $end
    $var wire 32 z DATA_WIDTH [31:0] $end
    $var wire 32 @ a_i [31:0] $end
    $var wire 32 h rd_o [31:0] $end
    $var wire  8 $ rom_array[0] [7:0] $end
    $var wire  8 . rom_array[10] [7:0] $end
    $var wire  8 / rom_array[11] [7:0] $end
    $var wire  8 0 rom_array[12] [7:0] $end
    $var wire  8 1 rom_array[13] [7:0] $end
    $var wire  8 2 rom_array[14] [7:0] $end
    $var wire  8 3 rom_array[15] [7:0] $end
    $var wire  8 4 rom_array[16] [7:0] $end
    $var wire  8 5 rom_array[17] [7:0] $end
    $var wire  8 6 rom_array[18] [7:0] $end
    $var wire  8 7 rom_array[19] [7:0] $end
    $var wire  8 % rom_array[1] [7:0] $end
    $var wire  8 8 rom_array[20] [7:0] $end
    $var wire  8 9 rom_array[21] [7:0] $end
    $var wire  8 : rom_array[22] [7:0] $end
    $var wire  8 ; rom_array[23] [7:0] $end
    $var wire  8 < rom_array[24] [7:0] $end
    $var wire  8 = rom_array[25] [7:0] $end
    $var wire  8 > rom_array[26] [7:0] $end
    $var wire  8 ? rom_array[27] [7:0] $end
    $var wire  8 & rom_array[2] [7:0] $end
    $var wire  8 ' rom_array[3] [7:0] $end
    $var wire  8 ( rom_array[4] [7:0] $end
    $var wire  8 ) rom_array[5] [7:0] $end
    $var wire  8 * rom_array[6] [7:0] $end
    $var wire  8 + rom_array[7] [7:0] $end
    $var wire  8 , rom_array[8] [7:0] $end
    $var wire  8 - rom_array[9] [7:0] $end
   $upscope $end
  $upscope $end
 $upscope $end
$enddefinitions $end


#0
b00000000000000000000000000000000 #
b00000000 $
b00000000 %
b00000000 &
b00000000 '
b00000000 (
b00000000 )
b00000000 *
b00000000 +
b00000000 ,
b00000000 -
b00000000 .
b00000000 /
b00000000 0
b00000000 1
b00000000 2
b00000000 3
b00000000 4
b00000000 5
b00000000 6
b00000000 7
b00000000 8
b00000000 9
b00000000 :
b00000000 ;
b00000000 <
b00000000 =
b00000000 >
b00000000 ?
b00000000000000000000000000000000 @
b000 A
b00000000000000000000000000000100 B
b00000000000000000000000000000000 C
b00000000000000000000000000000000 D
b00000000000000000000000000000000 E
b00000000000000000000000000000000 F
b00000000000000000000000000000000 G
b00000000000000000000000000000000 H
b00000000000000000000000000000000 I
b00000000000000000000000000000000 J
b00000000000000000000000000000000 K
b00000000000000000000000000000000 L
b00000000000000000000000000000000 M
b00000000000000000000000000000000 N
b00000000000000000000000000000000 O
b00000000000000000000000000000000 P
b00000000000000000000000000000000 Q
b00000000000000000000000000000000 R
b00000000000000000000000000000000 S
b00000000000000000000000000000000 T
b00000000000000000000000000000000 U
b00000000000000000000000000000000 V
b00000000000000000000000000000000 W
b00000000000000000000000000000000 X
b00000000000000000000000000000000 Y
b00000000000000000000000000000000 Z
b00000000000000000000000000000000 [
b00000000000000000000000000000000 \
b00000000000000000000000000000000 ]
b00000000000000000000000000000000 ^
b00000000000000000000000000000000 _
b00000000000000000000000000000000 `
b00000000000000000000000000000000 a
b00000000000000000000000000000000 b
b000000000000 c
0d
0e
0f
b00000000000000000000000000000000 g
b00000000000000000000000000000000 h
b00000000000000000000000000000000 i
b00000000000000000000000000000000 j
b00000000000000000000000000000000 k
b00000000000000000000000000000000 l
0m
b00000000000000000000000000000000 n
1o
0p
b000 q
b00000 r
b00000 s
b00000 t
b00000000000000000000000000000000 u
b00000000000000000000000000000100 v
b0000000 w
b00000000000000000000000000100000 x
b00000000000000000000000000000101 y
b00000000000000000000000000001000 z
#1
b00000000000000000000000000100000 #
b00001111 $
b11110000 %
b00000011 &
b00010011 '
b00000101 *
b00010011 +
b00001111 ,
b00000101 .
b10010011 /
b00000101 1
b10000101 2
b00010011 3
b00010101 5
b10000101 6
b10010011 7
b11111110 8
b01100101 9
b10011000 :
b11100011 ;
b11111110 <
b00000011 =
b00010000 >
b000011111111 c
1e
b00001111111100000000001100010011 h
b00000000000000000000000011111111 i
b00000000000000000000000011111111 j
b00000000000000000000000011111111 l
0o
1p
b11111 s
b00110 t
b00000000000000000000000011111111 u
b0010011 w
#2
0e
1f
#3
b00000000000000000000000011111111 I
1e
#4
0e
#5
1e
#6
0e
0f
#7
b00000000000000000000000000000100 @
b00000000000000000000000000001000 B
b000000000000 c
1e
b00000000000000000000010100010011 h
b00000000000000000000000000000000 i
b00000000000000000000000000000000 j
b00000000000000000000000000000000 l
1o
b00000 s
b01010 t
b00000000000000000000000000000100 u
b00000000000000000000000000001000 v
#8
0e
#9
b00000000000000000000000000001000 @
b00000000000000000000000000001100 B
b000011110000 c
1e
b00001111000000000000010110010011 h
b00000000000000000000000011110000 i
b00000000000000000000000011110000 j
b00000000000000000000000011110000 l
0o
b10000 s
b01011 t
b00000000000000000000000011111000 u
b00000000000000000000000000001100 v
#10
0e
#11
b00000000000000000000000000001100 @
b00000000000000000000000000010000 B
b00000000000000000000000011110000 N
b000000000000 c
1e
b00000000000001011000010100010011 h
b00000000000000000000000000000000 i
b00000000000000000000000000000000 j
b00000000000000000000000011110000 k
b01011 r
b00000 s
b01010 t
b00000000000000000000000000001100 u
b00000000000000000000000000010000 v
#12
0e
#13
b00000000000000000000000000010000 @
b00000000000000000000000000010100 B
b00000000000000000000000011110000 M
b000000000001 c
1e
b00000000000000000000000011110000 g
b00000000000101011000010110010011 h
b00000000000000000000000000000001 i
b00000000000000000000000000000001 j
b00000000000000000000000011110001 l
b00001 s
b01011 t
b00000000000000000000000000010001 u
b00000000000000000000000000010100 v
#14
0e
#15
b00000000000000000000000000010100 @
b001 A
b00000000000000000000000000011000 B
b00000000000000000000000011110001 N
b111111111000 c
1d
1e
b11111110011001011001100011100011 h
b11111111111111111111111111111000 i
b00000000000000000000000011111111 j
b00000000000000000000000011110001 k
b00000000000000000000000000000000 l
1m
b00000000000000000000000011111111 n
0p
b001 q
b00110 s
b10001 t
b00000000000000000000000000001100 u
b00000000000000000000000000001100 v
b1100011 w
#16
0e
#17
b00000000000000000000000000001100 @
b000 A
b00000000000000000000000000010000 B
b000000000000 c
0d
1e
b00000000000001011000010100010011 h
b00000000000000000000000000000000 i
b00000000000000000000000000000000 j
b00000000000000000000000011110001 l
0m
b00000000000000000000000000000000 n
1p
b000 q
b00000 s
b01010 t
b00000000000000000000000000010000 v
b0010011 w
#18
0e
#19
b00000000000000000000000000010000 @
b00000000000000000000000000010100 B
b00000000000000000000000011110001 M
b000000000001 c
1e
b00000000000000000000000011110001 g
b00000000000101011000010110010011 h
b00000000000000000000000000000001 i
b00000000000000000000000000000001 j
b00000000000000000000000011110010 l
b00001 s
b01011 t
b00000000000000000000000000010001 u
b00000000000000000000000000010100 v
#20
0e
#21
b00000000000000000000000000010100 @
b001 A
b00000000000000000000000000011000 B
b00000000000000000000000011110010 N
b111111111000 c
1d
1e
b11111110011001011001100011100011 h
b11111111111111111111111111111000 i
b00000000000000000000000011111111 j
b00000000000000000000000011110010 k
b00000000000000000000000000000000 l
1m
b00000000000000000000000011111111 n
0p
b001 q
b00110 s
b10001 t
b00000000000000000000000000001100 u
b00000000000000000000000000001100 v
b1100011 w
#22
0e
#23
b00000000000000000000000000001100 @
b000 A
b00000000000000000000000000010000 B
b000000000000 c
0d
1e
b00000000000001011000010100010011 h
b00000000000000000000000000000000 i
b00000000000000000000000000000000 j
b00000000000000000000000011110010 l
0m
b00000000000000000000000000000000 n
1p
b000 q
b00000 s
b01010 t
b00000000000000000000000000010000 v
b0010011 w
#24
0e
#25
b00000000000000000000000000010000 @
b00000000000000000000000000010100 B
b00000000000000000000000011110010 M
b000000000001 c
1e
b00000000000000000000000011110010 g
b00000000000101011000010110010011 h
b00000000000000000000000000000001 i
b00000000000000000000000000000001 j
b00000000000000000000000011110011 l
b00001 s
b01011 t
b00000000000000000000000000010001 u
b00000000000000000000000000010100 v
#26
0e
#27
b00000000000000000000000000010100 @
b001 A
b00000000000000000000000000011000 B
b00000000000000000000000011110011 N
b111111111000 c
1d
1e
b11111110011001011001100011100011 h
b11111111111111111111111111111000 i
b00000000000000000000000011111111 j
b00000000000000000000000011110011 k
b00000000000000000000000000000000 l
1m
b00000000000000000000000011111111 n
0p
b001 q
b00110 s
b10001 t
b00000000000000000000000000001100 u
b00000000000000000000000000001100 v
b1100011 w
#28
0e
#29
b00000000000000000000000000001100 @
b000 A
b00000000000000000000000000010000 B
b000000000000 c
0d
1e
b00000000000001011000010100010011 h
b00000000000000000000000000000000 i
b00000000000000000000000000000000 j
b00000000000000000000000011110011 l
0m
b00000000000000000000000000000000 n
1p
b000 q
b00000 s
b01010 t
b00000000000000000000000000010000 v
b0010011 w
#30
0e
#31
b00000000000000000000000000010000 @
b00000000000000000000000000010100 B
b00000000000000000000000011110011 M
b000000000001 c
1e
b00000000000000000000000011110011 g
b00000000000101011000010110010011 h
b00000000000000000000000000000001 i
b00000000000000000000000000000001 j
b00000000000000000000000011110100 l
b00001 s
b01011 t
b00000000000000000000000000010001 u
b00000000000000000000000000010100 v
#32
0e
#33
b00000000000000000000000000010100 @
b001 A
b00000000000000000000000000011000 B
b00000000000000000000000011110100 N
b111111111000 c
1d
1e
b11111110011001011001100011100011 h
b11111111111111111111111111111000 i
b00000000000000000000000011111111 j
b00000000000000000000000011110100 k
b00000000000000000000000000000000 l
1m
b00000000000000000000000011111111 n
0p
b001 q
b00110 s
b10001 t
b00000000000000000000000000001100 u
b00000000000000000000000000001100 v
b1100011 w
#34
0e
#35
b00000000000000000000000000001100 @
b000 A
b00000000000000000000000000010000 B
b000000000000 c
0d
1e
b00000000000001011000010100010011 h
b00000000000000000000000000000000 i
b00000000000000000000000000000000 j
b00000000000000000000000011110100 l
0m
b00000000000000000000000000000000 n
1p
b000 q
b00000 s
b01010 t
b00000000000000000000000000010000 v
b0010011 w
#36
0e
#37
b00000000000000000000000000010000 @
b00000000000000000000000000010100 B
b00000000000000000000000011110100 M
b000000000001 c
1e
b00000000000000000000000011110100 g
b00000000000101011000010110010011 h
b00000000000000000000000000000001 i
b00000000000000000000000000000001 j
b00000000000000000000000011110101 l
b00001 s
b01011 t
b00000000000000000000000000010001 u
b00000000000000000000000000010100 v
#38
0e
#39
b00000000000000000000000000010100 @
b001 A
b00000000000000000000000000011000 B
b00000000000000000000000011110101 N
b111111111000 c
1d
1e
b11111110011001011001100011100011 h
b11111111111111111111111111111000 i
b00000000000000000000000011111111 j
b00000000000000000000000011110101 k
b00000000000000000000000000000000 l
1m
b00000000000000000000000011111111 n
0p
b001 q
b00110 s
b10001 t
b00000000000000000000000000001100 u
b00000000000000000000000000001100 v
b1100011 w
#40
0e
#41
b00000000000000000000000000001100 @
b000 A
b00000000000000000000000000010000 B
b000000000000 c
0d
1e
b00000000000001011000010100010011 h
b00000000000000000000000000000000 i
b00000000000000000000000000000000 j
b00000000000000000000000011110101 l
0m
b00000000000000000000000000000000 n
1p
b000 q
b00000 s
b01010 t
b00000000000000000000000000010000 v
b0010011 w
#42
0e
#43
b00000000000000000000000000010000 @
b00000000000000000000000000010100 B
b00000000000000000000000011110101 M
b000000000001 c
1e
b00000000000000000000000011110101 g
b00000000000101011000010110010011 h
b00000000000000000000000000000001 i
b00000000000000000000000000000001 j
b00000000000000000000000011110110 l
b00001 s
b01011 t
b00000000000000000000000000010001 u
b00000000000000000000000000010100 v
#44
0e
#45
b00000000000000000000000000010100 @
b001 A
b00000000000000000000000000011000 B
b00000000000000000000000011110110 N
b111111111000 c
1d
1e
b11111110011001011001100011100011 h
b11111111111111111111111111111000 i
b00000000000000000000000011111111 j
b00000000000000000000000011110110 k
b00000000000000000000000000000000 l
1m
b00000000000000000000000011111111 n
0p
b001 q
b00110 s
b10001 t
b00000000000000000000000000001100 u
b00000000000000000000000000001100 v
b1100011 w
#46
0e
#47
b00000000000000000000000000001100 @
b000 A
b00000000000000000000000000010000 B
b000000000000 c
0d
1e
b00000000000001011000010100010011 h
b00000000000000000000000000000000 i
b00000000000000000000000000000000 j
b00000000000000000000000011110110 l
0m
b00000000000000000000000000000000 n
1p
b000 q
b00000 s
b01010 t
b00000000000000000000000000010000 v
b0010011 w
#48
0e
#49
b00000000000000000000000000010000 @
b00000000000000000000000000010100 B
b00000000000000000000000011110110 M
b000000000001 c
1e
b00000000000000000000000011110110 g
b00000000000101011000010110010011 h
b00000000000000000000000000000001 i
b00000000000000000000000000000001 j
b00000000000000000000000011110111 l
b00001 s
b01011 t
b00000000000000000000000000010001 u
b00000000000000000000000000010100 v
#50
0e
#51
b00000000000000000000000000010100 @
b001 A
b00000000000000000000000000011000 B
b00000000000000000000000011110111 N
b111111111000 c
1d
1e
b11111110011001011001100011100011 h
b11111111111111111111111111111000 i
b00000000000000000000000011111111 j
b00000000000000000000000011110111 k
b00000000000000000000000000000000 l
1m
b00000000000000000000000011111111 n
0p
b001 q
b00110 s
b10001 t
b00000000000000000000000000001100 u
b00000000000000000000000000001100 v
b1100011 w
#52
0e
#53
b00000000000000000000000000001100 @
b000 A
b00000000000000000000000000010000 B
b000000000000 c
0d
1e
b00000000000001011000010100010011 h
b00000000000000000000000000000000 i
b00000000000000000000000000000000 j
b00000000000000000000000011110111 l
0m
b00000000000000000000000000000000 n
1p
b000 q
b00000 s
b01010 t
b00000000000000000000000000010000 v
b0010011 w
#54
0e
#55
b00000000000000000000000000010000 @
b00000000000000000000000000010100 B
b00000000000000000000000011110111 M
b000000000001 c
1e
b00000000000000000000000011110111 g
b00000000000101011000010110010011 h
b00000000000000000000000000000001 i
b00000000000000000000000000000001 j
b00000000000000000000000011111000 l
b00001 s
b01011 t
b00000000000000000000000000010001 u
b00000000000000000000000000010100 v
#56
0e
#57
b00000000000000000000000000010100 @
b001 A
b00000000000000000000000000011000 B
b00000000000000000000000011111000 N
b111111111000 c
1d
1e
b11111110011001011001100011100011 h
b11111111111111111111111111111000 i
b00000000000000000000000011111111 j
b00000000000000000000000011111000 k
b00000000000000000000000000000000 l
1m
b00000000000000000000000011111111 n
0p
b001 q
b00110 s
b10001 t
b00000000000000000000000000001100 u
b00000000000000000000000000001100 v
b1100011 w
#58
0e
#59
b00000000000000000000000000001100 @
b000 A
b00000000000000000000000000010000 B
b000000000000 c
0d
1e
b00000000000001011000010100010011 h
b00000000000000000000000000000000 i
b00000000000000000000000000000000 j
b00000000000000000000000011111000 l
0m
b00000000000000000000000000000000 n
1p
b000 q
b00000 s
b01010 t
b00000000000000000000000000010000 v
b0010011 w
#60
0e
#61
b00000000000000000000000000010000 @
b00000000000000000000000000010100 B
b00000000000000000000000011111000 M
b000000000001 c
1e
b00000000000000000000000011111000 g
b00000000000101011000010110010011 h
b00000000000000000000000000000001 i
b00000000000000000000000000000001 j
b00000000000000000000000011111001 l
b00001 s
b01011 t
b00000000000000000000000000010001 u
b00000000000000000000000000010100 v
#62
0e
#63
b00000000000000000000000000010100 @
b001 A
b00000000000000000000000000011000 B
b00000000000000000000000011111001 N
b111111111000 c
1d
1e
b11111110011001011001100011100011 h
b11111111111111111111111111111000 i
b00000000000000000000000011111111 j
b00000000000000000000000011111001 k
b00000000000000000000000000000000 l
1m
b00000000000000000000000011111111 n
0p
b001 q
b00110 s
b10001 t
b00000000000000000000000000001100 u
b00000000000000000000000000001100 v
b1100011 w
#64
0e
#65
b00000000000000000000000000001100 @
b000 A
b00000000000000000000000000010000 B
b000000000000 c
0d
1e
b00000000000001011000010100010011 h
b00000000000000000000000000000000 i
b00000000000000000000000000000000 j
b00000000000000000000000011111001 l
0m
b00000000000000000000000000000000 n
1p
b000 q
b00000 s
b01010 t
b00000000000000000000000000010000 v
b0010011 w
#66
0e
#67
b00000000000000000000000000010000 @
b00000000000000000000000000010100 B
b00000000000000000000000011111001 M
b000000000001 c
1e
b00000000000000000000000011111001 g
b00000000000101011000010110010011 h
b00000000000000000000000000000001 i
b00000000000000000000000000000001 j
b00000000000000000000000011111010 l
b00001 s
b01011 t
b00000000000000000000000000010001 u
b00000000000000000000000000010100 v
#68
0e
#69
b00000000000000000000000000010100 @
b001 A
b00000000000000000000000000011000 B
b00000000000000000000000011111010 N
b111111111000 c
1d
1e
b11111110011001011001100011100011 h
b11111111111111111111111111111000 i
b00000000000000000000000011111111 j
b00000000000000000000000011111010 k
b00000000000000000000000000000000 l
1m
b00000000000000000000000011111111 n
0p
b001 q
b00110 s
b10001 t
b00000000000000000000000000001100 u
b00000000000000000000000000001100 v
b1100011 w
#70
0e
#71
b00000000000000000000000000001100 @
b000 A
b00000000000000000000000000010000 B
b000000000000 c
0d
1e
b00000000000001011000010100010011 h
b00000000000000000000000000000000 i
b00000000000000000000000000000000 j
b00000000000000000000000011111010 l
0m
b00000000000000000000000000000000 n
1p
b000 q
b00000 s
b01010 t
b00000000000000000000000000010000 v
b0010011 w
#72
0e
#73
b00000000000000000000000000010000 @
b00000000000000000000000000010100 B
b00000000000000000000000011111010 M
b000000000001 c
1e
b00000000000000000000000011111010 g
b00000000000101011000010110010011 h
b00000000000000000000000000000001 i
b00000000000000000000000000000001 j
b00000000000000000000000011111011 l
b00001 s
b01011 t
b00000000000000000000000000010001 u
b00000000000000000000000000010100 v
#74
0e
#75
b00000000000000000000000000010100 @
b001 A
b00000000000000000000000000011000 B
b00000000000000000000000011111011 N
b111111111000 c
1d
1e
b11111110011001011001100011100011 h
b11111111111111111111111111111000 i
b00000000000000000000000011111111 j
b00000000000000000000000011111011 k
b00000000000000000000000000000000 l
1m
b00000000000000000000000011111111 n
0p
b001 q
b00110 s
b10001 t
b00000000000000000000000000001100 u
b00000000000000000000000000001100 v
b1100011 w
#76
0e
#77
b00000000000000000000000000001100 @
b000 A
b00000000000000000000000000010000 B
b000000000000 c
0d
1e
b00000000000001011000010100010011 h
b00000000000000000000000000000000 i
b00000000000000000000000000000000 j
b00000000000000000000000011111011 l
0m
b00000000000000000000000000000000 n
1p
b000 q
b00000 s
b01010 t
b00000000000000000000000000010000 v
b0010011 w
#78
0e
#79
b00000000000000000000000000010000 @
b00000000000000000000000000010100 B
b00000000000000000000000011111011 M
b000000000001 c
1e
b00000000000000000000000011111011 g
b00000000000101011000010110010011 h
b00000000000000000000000000000001 i
b00000000000000000000000000000001 j
b00000000000000000000000011111100 l
b00001 s
b01011 t
b00000000000000000000000000010001 u
b00000000000000000000000000010100 v
#80
0e
#81
b00000000000000000000000000010100 @
b001 A
b00000000000000000000000000011000 B
b00000000000000000000000011111100 N
b111111111000 c
1d
1e
b11111110011001011001100011100011 h
b11111111111111111111111111111000 i
b00000000000000000000000011111111 j
b00000000000000000000000011111100 k
b00000000000000000000000000000000 l
1m
b00000000000000000000000011111111 n
0p
b001 q
b00110 s
b10001 t
b00000000000000000000000000001100 u
b00000000000000000000000000001100 v
b1100011 w
#82
0e
#83
b00000000000000000000000000001100 @
b000 A
b00000000000000000000000000010000 B
b000000000000 c
0d
1e
b00000000000001011000010100010011 h
b00000000000000000000000000000000 i
b00000000000000000000000000000000 j
b00000000000000000000000011111100 l
0m
b00000000000000000000000000000000 n
1p
b000 q
b00000 s
b01010 t
b00000000000000000000000000010000 v
b0010011 w
#84
0e
#85
b00000000000000000000000000010000 @
b00000000000000000000000000010100 B
b00000000000000000000000011111100 M
b000000000001 c
1e
b00000000000000000000000011111100 g
b00000000000101011000010110010011 h
b00000000000000000000000000000001 i
b00000000000000000000000000000001 j
b00000000000000000000000011111101 l
b00001 s
b01011 t
b00000000000000000000000000010001 u
b00000000000000000000000000010100 v
#86
0e
#87
b00000000000000000000000000010100 @
b001 A
b00000000000000000000000000011000 B
b00000000000000000000000011111101 N
b111111111000 c
1d
1e
b11111110011001011001100011100011 h
b11111111111111111111111111111000 i
b00000000000000000000000011111111 j
b00000000000000000000000011111101 k
b00000000000000000000000000000000 l
1m
b00000000000000000000000011111111 n
0p
b001 q
b00110 s
b10001 t
b00000000000000000000000000001100 u
b00000000000000000000000000001100 v
b1100011 w
#88
0e
#89
b00000000000000000000000000001100 @
b000 A
b00000000000000000000000000010000 B
b000000000000 c
0d
1e
b00000000000001011000010100010011 h
b00000000000000000000000000000000 i
b00000000000000000000000000000000 j
b00000000000000000000000011111101 l
0m
b00000000000000000000000000000000 n
1p
b000 q
b00000 s
b01010 t
b00000000000000000000000000010000 v
b0010011 w
#90
0e
#91
b00000000000000000000000000010000 @
b00000000000000000000000000010100 B
b00000000000000000000000011111101 M
b000000000001 c
1e
b00000000000000000000000011111101 g
b00000000000101011000010110010011 h
b00000000000000000000000000000001 i
b00000000000000000000000000000001 j
b00000000000000000000000011111110 l
b00001 s
b01011 t
b00000000000000000000000000010001 u
b00000000000000000000000000010100 v
#92
0e
#93
b00000000000000000000000000010100 @
b001 A
b00000000000000000000000000011000 B
b00000000000000000000000011111110 N
b111111111000 c
1d
1e
b11111110011001011001100011100011 h
b11111111111111111111111111111000 i
b00000000000000000000000011111111 j
b00000000000000000000000011111110 k
b00000000000000000000000000000000 l
1m
b00000000000000000000000011111111 n
0p
b001 q
b00110 s
b10001 t
b00000000000000000000000000001100 u
b00000000000000000000000000001100 v
b1100011 w
#94
0e
#95
b00000000000000000000000000001100 @
b000 A
b00000000000000000000000000010000 B
b000000000000 c
0d
1e
b00000000000001011000010100010011 h
b00000000000000000000000000000000 i
b00000000000000000000000000000000 j
b00000000000000000000000011111110 l
0m
b00000000000000000000000000000000 n
1p
b000 q
b00000 s
b01010 t
b00000000000000000000000000010000 v
b0010011 w
#96
0e
#97
b00000000000000000000000000010000 @
b00000000000000000000000000010100 B
b00000000000000000000000011111110 M
b000000000001 c
1e
b00000000000000000000000011111110 g
b00000000000101011000010110010011 h
b00000000000000000000000000000001 i
b00000000000000000000000000000001 j
b00000000000000000000000011111111 l
b00001 s
b01011 t
b00000000000000000000000000010001 u
b00000000000000000000000000010100 v
#98
0e
#99
b00000000000000000000000000010100 @
b001 A
b00000000000000000000000000011000 B
b00000000000000000000000011111111 N
b111111111000 c
1d
1e
b11111110011001011001100011100011 h
b11111111111111111111111111111000 i
b00000000000000000000000011111111 j
b00000000000000000000000011111111 k
b00000000000000000000000000000000 l
b00000000000000000000000011111111 n
1o
0p
b001 q
b00110 s
b10001 t
b00000000000000000000000000001100 u
b00000000000000000000000000011000 v
b1100011 w
