BranchTests/BranchTests.vcd
$version Generated by VerilatedVcd $end
$date Mon Dec 12 19:34:23 2022 $end
$timescale 1ps $end

 $scope module TOP $end
  $var wire  1 +! clk $end
  $var wire 32 ,! data_out [31:0] $end
  $var wire  1 )! rst $end
  $var wire  1 *! trigger_i $end
  $scope module top $end
   $var wire  5 N AD3E_2 [4:0] $end
   $var wire  5 Y AD3E_3 [4:0] $end
   $var wire  5 _ AD3E_4 [4:0] $end
   $var wire 32 S ALUResultE_3 [31:0] $end
   $var wire 32 [ ALUResultE_4 [31:0] $end
   $var wire 32 O ALUResultWire [31:0] $end
   $var wire  4 B ALUctrlDE_2 [3:0] $end
   $var wire  4 . ALUctrlWire [3:0] $end
   $var wire  1 / ALUsrcWire $end
   $var wire  1 L AUIPCE_2 $end
   $var wire  1 W AUIPCE_3 $end
   $var wire  1 3 AUIPCWire $end
   $var wire 32 /! Aluop2Wire [31:0] $end
   $var wire  1 1 BranchSrcWire $end
   $var wire 32 2! DW [31:0] $end
   $var wire 32 H ImmExtE_2 [31:0] $end
   $var wire  3 0 ImmSrcWire [2:0] $end
   $var wire 32 > ImmediateExtendWire [31:0] $end
   $var wire 25 = ImmediateWire [24:0] $end
   $var wire 32 f InstructionWire [31:0] $end
   $var wire  1 C JALRE_2 $end
   $var wire  1 7 JALRWire $end
   $var wire  1 6 JALWire $end
   $var wire 32 ( PCE [31:0] $end
   $var wire 32 D PCE_2 [31:0] $end
   $var wire 32 e PC_wire [31:0] $end
   $var wire  1 % PCsrcWire $end
   $var wire 32 E RD1E_2 [31:0] $end
   $var wire 32 .! RD1Wire [31:0] $end
   $var wire 32 G RD2E_2 [31:0] $end
   $var wire 32 T RD2E_3 [31:0] $end
   $var wire 32 0! RD2Wire [31:0] $end
   $var wire 32 Z RamOutWire [31:0] $end
   $var wire 32 \ RamOutWireE_4 [31:0] $end
   $var wire  1 2 ResultSrcWire $end
   $var wire 32 F SrcBE_2 [31:0] $end
   $var wire  1 A branchSrcE_2 $end
   $var wire  1 P branchWire $end
   $var wire 32 # branch_PC [31:0] $end
   $var wire  1 +! clk $end
   $var wire 32 ,! data_out [31:0] $end
   $var wire  3 * funct3 [2:0] $end
   $var wire  3 I funct3E_2 [2:0] $end
   $var wire  1 + funct7 $end
   $var wire 32 ' incPCE [31:0] $end
   $var wire 32 d inc_PC [31:0] $end
   $var wire 32 & instrE [31:0] $end
   $var wire 32 $ jump_PC [31:0] $end
   $var wire  1 5 memSignWire $end
   $var wire  1 K memSignWireE_2 $end
   $var wire  1 V memSignWireE_3 $end
   $var wire  2 4 memTypeWire [1:0] $end
   $var wire  2 J memTypeWireE_2 [1:0] $end
   $var wire  2 U memTypeWireE_3 [1:0] $end
   $var wire  1 @ memWriteE_2 $end
   $var wire  1 R memWriteE_3 $end
   $var wire  1 , memWrite_enWire $end
   $var wire 32 -! next_PC [31:0] $end
   $var wire  7 ) opcode [6:0] $end
   $var wire  5 : rdWire [4:0] $end
   $var wire  1 M regWriteWireE_2 $end
   $var wire  1 X regWriteWireE_3 $end
   $var wire  1 ^ regWriteWireE_4 $end
   $var wire  1 - regWrite_enWire $end
   $var wire  1 ? resultSrcE_2 $end
   $var wire  1 Q resultSrcE_3 $end
   $var wire  1 ] resultSrcE_4 $end
   $var wire  5 8 rs1Wire [4:0] $end
   $var wire  5 9 rs2Wire [4:0] $end
   $var wire  1 )! rst $end
   $var wire  1 *! trigger_i $end
   $var wire 32 ; wd3Wire [31:0] $end
   $var wire 32 < wd3Wire0 [31:0] $end
   $scope module ALU $end
    $var wire 32 O ALUResult_o [31:0] $end
    $var wire  4 B ALUctrl_i [3:0] $end
    $var wire  3 I BranchCtrl_i [2:0] $end
    $var wire  1 P Branch_o $end
    $var wire 32 2! DATAWIDTH [31:0] $end
    $var wire 32 3! SHIFT_WIDTH [31:0] $end
    $var wire 32 E SrcA_Signed [31:0] $end
    $var wire 32 E SrcA_i [31:0] $end
    $var wire 32 F SrcB_Signed [31:0] $end
    $var wire 32 F SrcB_i [31:0] $end
    $var wire  1 ` overwrite_branch_o $end
   $upscope $end
   $scope module PC $end
    $var wire 32 2! DW [31:0] $end
    $var wire 32 -! PC_i [31:0] $end
    $var wire 32 e PC_o [31:0] $end
    $var wire  1 +! clk $end
    $var wire  1 )! rst $end
   $upscope $end
   $scope module control $end
    $var wire  4 . ALUctrl_o [3:0] $end
    $var wire  1 / ALUsrc_o $end
    $var wire  1 1 BranchSrc_o $end
    $var wire  3 0 ImmSrc_o [2:0] $end
    $var wire  1 2 ResultSrc_o $end
    $var wire  1 3 auipc_o $end
    $var wire  3 * funct3_i [2:0] $end
    $var wire  1 + funct7bit_i $end
    $var wire  1 6 jal_o $end
    $var wire  1 7 jalr_o $end
    $var wire  1 5 memSign_o $end
    $var wire  2 4 memType_o [1:0] $end
    $var wire  1 , memWrite_en_o $end
    $var wire  7 ) op_i [6:0] $end
    $var wire  1 - regWrite_en_o $end
   $upscope $end
   $scope module decode_reg_file $end
    $var wire  5 : AD3D_i [4:0] $end
    $var wire  5 N AD3E_o [4:0] $end
    $var wire  4 . ALUCtrlD_i [3:0] $end
    $var wire  4 B ALUctrlE_o [3:0] $end
    $var wire  1 3 AUIPCWireD_i $end
    $var wire  1 L AUIPCWireE_o $end
    $var wire 32 2! DATA_WIDTH [31:0] $end
    $var wire 32 > ImmExtD_i [31:0] $end
    $var wire 32 H ImmExtE_o [31:0] $end
    $var wire  1 7 JALRD_i $end
    $var wire  1 C JALRE_o $end
    $var wire 32 ( PCD_i [31:0] $end
    $var wire 32 D PCE_o [31:0] $end
    $var wire 32 .! RD1D_i [31:0] $end
    $var wire 32 E RD1E_o [31:0] $end
    $var wire 32 0! RD2D_i [31:0] $end
    $var wire 32 G RD2E_o [31:0] $end
    $var wire 32 3! REGISTER_ADDRESS_WIDTH [31:0] $end
    $var wire 32 /! SrcBD_i [31:0] $end
    $var wire 32 F SrcBE_o [31:0] $end
    $var wire  1 1 branchSrcD_i $end
    $var wire  1 A branchSrcE_o $end
    $var wire  1 +! clk $end
    $var wire  3 * funct3D_i [2:0] $end
    $var wire  3 I funct3E_o [2:0] $end
    $var wire  1 5 memSignWireD_i $end
    $var wire  1 K memSignWireE_o $end
    $var wire  2 4 memTypeWireD_i [1:0] $end
    $var wire  2 J memTypeWireE_o [1:0] $end
    $var wire  1 , memWriteD_i $end
    $var wire  1 @ memWriteE_o $end
    $var wire  1 - regWriteD_i $end
    $var wire  1 M regWriteE_o $end
    $var wire  1 2 resultSrcD_i $end
    $var wire  1 ? resultSrcE_o $end
   $upscope $end
   $scope module execute_reg_file $end
    $var wire  5 N AD3D_i [4:0] $end
    $var wire  5 Y AD3E_o [4:0] $end
    $var wire 32 O ALUresultD_i [31:0] $end
    $var wire 32 S ALUresultE_o [31:0] $end
    $var wire  1 L AUIPCD_i $end
    $var wire  1 W AUIPCE_o $end
    $var wire 32 2! DATA_WIDTH [31:0] $end
    $var wire 32 G RD2D_i [31:0] $end
    $var wire 32 T RD2E_o [31:0] $end
    $var wire 32 3! REGISTER_ADDRESS_WIDTH [31:0] $end
    $var wire  1 +! clk $end
    $var wire  1 K memSignD_i $end
    $var wire  1 V memSignE_o $end
    $var wire  2 J memTypeD_i [1:0] $end
    $var wire  2 U memTypeE_o [1:0] $end
    $var wire  1 @ memWriteD_i $end
    $var wire  1 R memWriteE_o $end
    $var wire  1 M regWriteD_i $end
    $var wire  1 X regWriteE_o $end
    $var wire  1 ? resultSRCD_i $end
    $var wire  1 Q resultSRCE_o $end
   $upscope $end
   $scope module extend $end
    $var wire 32 2! DATAWIDTH [31:0] $end
    $var wire 32 > ImmExt_o [31:0] $end
    $var wire  3 0 ImmSrc_i [2:0] $end
    $var wire 25 = Imm_i [31:7] $end
   $upscope $end
   $scope module fetch_reg_file $end
    $var wire 32 2! DATA_WIDTH [31:0] $end
    $var wire 32 e PCD_i [31:0] $end
    $var wire 32 ( PCE_o [31:0] $end
    $var wire  1 +! clk $end
    $var wire 32 d incPCD_i [31:0] $end
    $var wire 32 ' incPCE_o [31:0] $end
    $var wire 32 f instrD_i [31:0] $end
    $var wire 32 & instrE_o [31:0] $end
   $upscope $end
   $scope module mem_reg_file $end
    $var wire  5 Y AD3D_i [4:0] $end
    $var wire  5 _ AD3E_o [4:0] $end
    $var wire 32 S ALUResultD_i [31:0] $end
    $var wire 32 [ ALUResultE_o [31:0] $end
    $var wire 32 2! DATA_WIDTH [31:0] $end
    $var wire 32 Z RD2D_i [31:0] $end
    $var wire 32 \ RD2E_o [31:0] $end
    $var wire 32 3! REGISTER_ADDRESS_WIDTH [31:0] $end
    $var wire  1 Q ResultSrcD_i $end
    $var wire  1 ] ResultSrcE_o $end
    $var wire  1 +! clk $end
    $var wire  1 X regWriteD_i $end
    $var wire  1 ^ regWriteE_o $end
   $upscope $end
   $scope module memory $end
    $var wire 32 a RDWire [31:0] $end
    $var wire 32 1! WDWire [31:0] $end
    $var wire 32 2! WIDTH [31:0] $end
    $var wire 32 O a_i [31:0] $end
    $var wire 32 b a_ii [31:0] $end
    $var wire  1 +! clk_i $end
    $var wire  1 5 memsign_i $end
    $var wire  2 4 memtype_i [1:0] $end
    $var wire 32 Z rd_o [31:0] $end
    $var wire 32 0! wd_i [31:0] $end
    $var wire  1 , write_en_i $end
    $scope module ram $end
     $var wire 32 4! DATA_W [31:0] $end
     $var wire 32 2! WIDTH [31:0] $end
     $var wire 32 b a_i [31:0] $end
     $var wire  1 +! clk_i $end
     $var wire 32 a rd_o [31:0] $end
     $var wire 32 1! wd_i [31:0] $end
     $var wire  1 , write_en_i $end
    $upscope $end
    $scope module ram_i $end
     $var wire 32 2! WIDTH [31:0] $end
     $var wire 32 O a_i [31:0] $end
     $var wire  2 4 memtype_i [1:0] $end
     $var wire 32 a rd_i [31:0] $end
     $var wire 32 0! wd_i [31:0] $end
     $var wire 32 1! wd_o [31:0] $end
     $var wire  2 c whichbyte_i [1:0] $end
    $upscope $end
    $scope module ram_o $end
     $var wire 32 2! WIDTH [31:0] $end
     $var wire 32 O a_i [31:0] $end
     $var wire  1 5 memsign_i $end
     $var wire  2 4 memtype_i [1:0] $end
     $var wire 32 a rd_i [31:0] $end
     $var wire 32 Z rd_o [31:0] $end
     $var wire  2 c whichbyte_i [1:0] $end
    $upscope $end
   $upscope $end
   $scope module register_file $end
    $var wire  5 8 AD1_i [4:0] $end
    $var wire  5 9 AD2_i [4:0] $end
    $var wire  5 _ AD3_i [4:0] $end
    $var wire 32 3! ADDRESS_WIDTH [31:0] $end
    $var wire 32 2! DATA_WIDTH [31:0] $end
    $var wire 32 .! RD1_o [31:0] $end
    $var wire 32 0! RD2_o [31:0] $end
    $var wire  1 *! TRIGGER_i $end
    $var wire 32 ; WD3_i [31:0] $end
    $var wire  1 ^ WE3_i $end
    $var wire 32 ,! a0_o [31:0] $end
    $var wire  1 +! clk $end
    $var wire 32 g register_array[0] [31:0] $end
    $var wire 32 q register_array[10] [31:0] $end
    $var wire 32 r register_array[11] [31:0] $end
    $var wire 32 s register_array[12] [31:0] $end
    $var wire 32 t register_array[13] [31:0] $end
    $var wire 32 u register_array[14] [31:0] $end
    $var wire 32 v register_array[15] [31:0] $end
    $var wire 32 w register_array[16] [31:0] $end
    $var wire 32 x register_array[17] [31:0] $end
    $var wire 32 y register_array[18] [31:0] $end
    $var wire 32 z register_array[19] [31:0] $end
    $var wire 32 h register_array[1] [31:0] $end
    $var wire 32 { register_array[20] [31:0] $end
    $var wire 32 | register_array[21] [31:0] $end
    $var wire 32 } register_array[22] [31:0] $end
    $var wire 32 ~ register_array[23] [31:0] $end
    $var wire 32 !! register_array[24] [31:0] $end
    $var wire 32 "! register_array[25] [31:0] $end
    $var wire 32 #! register_array[26] [31:0] $end
    $var wire 32 $! register_array[27] [31:0] $end
    $var wire 32 %! register_array[28] [31:0] $end
    $var wire 32 &! register_array[29] [31:0] $end
    $var wire 32 i register_array[2] [31:0] $end
    $var wire 32 '! register_array[30] [31:0] $end
    $var wire 32 (! register_array[31] [31:0] $end
    $var wire 32 j register_array[3] [31:0] $end
    $var wire 32 k register_array[4] [31:0] $end
    $var wire 32 l register_array[5] [31:0] $end
    $var wire 32 m register_array[6] [31:0] $end
    $var wire 32 n register_array[7] [31:0] $end
    $var wire 32 o register_array[8] [31:0] $end
    $var wire 32 p register_array[9] [31:0] $end
   $upscope $end
   $scope module rom $end
    $var wire 32 4! DATA_W [31:0] $end
    $var wire 32 2! WIDTH [31:0] $end
    $var wire 32 e a_i [31:0] $end
    $var wire 32 f rd_o [31:0] $end
   $upscope $end
  $upscope $end
 $upscope $end
$enddefinitions $end


#0
b00000000000000000000000000000000 #
b00000000000000000000000000000000 $
0%
b00000000000000000000000000000000 &
b00000000000000000000000000000000 '
b00000000000000000000000000000000 (
b0000000 )
b000 *
0+
0,
0-
b0000 .
0/
b000 0
01
02
03
b00 4
05
06
07
b00000 8
b00000 9
b00000 :
b00000000000000000000000000000000 ;
b00000000000000000000000000000000 <
b0000000000000000000000000 =
b00000000000000000000000000000000 >
0?
0@
0A
b0000 B
0C
b00000000000000000000000000000000 D
b00000000000000000000000000000000 E
b00000000000000000000000000000000 F
b00000000000000000000000000000000 G
b00000000000000000000000000000000 H
b000 I
b00 J
0K
0L
0M
b00000 N
b00000000000000000000000000000000 O
0P
0Q
0R
b00000000000000000000000000000000 S
b00000000000000000000000000000000 T
b00 U
0V
0W
0X
b00000 Y
b00000000000000000000000000000000 Z
b00000000000000000000000000000000 [
b00000000000000000000000000000000 \
0]
0^
b00000 _
0`
b00000000000000000000000000000000 a
b00000000000000000000000000000000 b
b00 c
b00000000000000000000000000000100 d
b00000000000000000000000000000000 e
b00000000000000000000000000000000 f
b00000000000000000000000000000000 g
b00000000000000000000000000000000 h
b00000000000000000000000000000000 i
b00000000000000000000000000000000 j
b00000000000000000000000000000000 k
b00000000000000000000000000000000 l
b00000000000000000000000000000000 m
b00000000000000000000000000000000 n
b00000000000000000000000000000000 o
b00000000000000000000000000000000 p
b00000000000000000000000000000000 q
b00000000000000000000000000000000 r
b00000000000000000000000000000000 s
b00000000000000000000000000000000 t
b00000000000000000000000000000000 u
b00000000000000000000000000000000 v
b00000000000000000000000000000000 w
b00000000000000000000000000000000 x
b00000000000000000000000000000000 y
b00000000000000000000000000000000 z
b00000000000000000000000000000000 {
b00000000000000000000000000000000 |
b00000000000000000000000000000000 }
b00000000000000000000000000000000 ~
b00000000000000000000000000000000 !!
b00000000000000000000000000000000 "!
b00000000000000000000000000000000 #!
b00000000000000000000000000000000 $!
b00000000000000000000000000000000 %!
b00000000000000000000000000000000 &!
b00000000000000000000000000000000 '!
b00000000000000000000000000000000 (!
0)!
0*!
0+!
b00000000000000000000000000000000 ,!
b00000000000000000000000000000100 -!
b00000000000000000000000000000000 .!
b00000000000000000000000000000000 /!
b00000000000000000000000000000000 0!
b00000000000000000000000000000000 1!
b00000000000000000000000000100000 2!
b00000000000000000000000000000101 3!
b00000000000000000000000000001000 4!
#1
1P
b00000000000000000000000000010011 f
1+!
#2
b00000000000000000000000000010011 &
b00000000000000000000000000000100 '
b0010011 )
1-
1/
0+!
#3
b00000000000000000000000000001000 d
b00000000000000000000000000000100 e
1+!
b00000000000000000000000000001000 -!
#4
b00000000000000000000000000001000 '
b00000000000000000000000000000100 (
1M
0+!
#5
b00000000000000000000000000001100 d
b00000000000000000000000000001000 e
1+!
b00000000000000000000000000001100 -!
#6
b00000000000000000000000000000100 #
b00000000000000000000000000000100 $
b00000000000000000000000000001100 '
b00000000000000000000000000001000 (
b00000000000000000000000000000100 D
1X
0+!
#7
b00000000000000000000000000010000 d
b00000000000000000000000000001100 e
1+!
b00000000000000000000000000010000 -!
#8
b00000000000000000000000000001000 #
b00000000000000000000000000001000 $
b00000000000000000000000000010000 '
b00000000000000000000000000001100 (
b00000000000000000000000000001000 D
1^
0+!
#9
b00000000000000000000000000010100 d
b00000000000000000000000000010000 e
1+!
b00000000000000000000000000010100 -!
#10
b00000000000000000000000000001100 #
b00000000000000000000000000001100 $
b00000000000000000000000000010100 '
b00000000000000000000000000010000 (
b00000000000000000000000000001100 D
0+!
#11
b00000000000000000000000000011000 d
b00000000000000000000000000010100 e
b00000000101000000000011000010011 f
1+!
b00000000000000000000000000011000 -!
#12
b00000000000000000000000000010000 #
b00000000000000000000000000010000 $
b00000000101000000000011000010011 &
b00000000000000000000000000011000 '
b00000000000000000000000000010100 (
b01010 9
b01100 :
b0000000010100000000001100 =
b00000000000000000000000000001010 >
b00000000000000000000000000010000 D
0+!
b00000000000000000000000000001010 /!
#13
b00000000000000000000000000011100 d
b00000000000000000000000000011000 e
b00000000000000000000000000010011 f
1+!
b00000000000000000000000000011100 -!
#14
b00000000000000000000000000011110 #
b00000000000000000000000000011110 $
b00000000000000000000000000010011 &
b00000000000000000000000000011100 '
b00000000000000000000000000011000 (
b00000 9
b00000 :
b0000000000000000000000000 =
b00000000000000000000000000000000 >
b00000000000000000000000000010100 D
b00000000000000000000000000001010 F
b00000000000000000000000000001010 H
b01100 N
b00000000000000000000000000001010 O
0P
b00000000000000000000000000001000 b
b10 c
0+!
b00000000000000000000000000000000 /!
#15
b00000000000000000000000000100000 d
b00000000000000000000000000011100 e
1+!
b00000000000000000000000000100000 -!
#16
b00000000000000000000000000011000 #
b00000000000000000000000000011000 $
b00000000000000000000000000100000 '
b00000000000000000000000000011100 (
b00000000000000000000000000011000 D
b00000000000000000000000000000000 F
b00000000000000000000000000000000 H
b00000 N
b00000000000000000000000000000000 O
1P
b00000000000000000000000000001010 S
b01100 Y
b00000000000000000000000000000000 b
b00 c
0+!
#17
b00000000000000000000000000100100 d
b00000000000000000000000000100000 e
1+!
b00000000000000000000000000100100 -!
#18
b00000000000000000000000000011100 #
b00000000000000000000000000011100 $
b00000000000000000000000000100100 '
b00000000000000000000000000100000 (
b00000000000000000000000000001010 ;
b00000000000000000000000000001010 <
b00000000000000000000000000011100 D
b00000000000000000000000000000000 S
b00000 Y
b00000000000000000000000000001010 [
b01100 _
0+!
#19
b00000000000000000000000000101000 d
b00000000000000000000000000100100 e
b00000000000000000000000000001010 s
1+!
b00000000000000000000000000101000 -!
#20
b00000000000000000000000000100000 #
b00000000000000000000000000100000 $
b00000000000000000000000000101000 '
b00000000000000000000000000100100 (
b00000000000000000000000000000000 ;
b00000000000000000000000000000000 <
b00000000000000000000000000100000 D
b00000000000000000000000000000000 [
b00000 _
0+!
#21
b00000000000000000000000000101100 d
b00000000000000000000000000101000 e
1+!
b00000000000000000000000000101100 -!
#22
b00000000000000000000000000100100 #
b00000000000000000000000000100100 $
b00000000000000000000000000101100 '
b00000000000000000000000000101000 (
b00000000000000000000000000100100 D
0+!
#23
b00000000000000000000000000110000 d
b00000000000000000000000000101100 e
b00000010110101100000000001100011 f
1+!
b00000000000000000000000000110000 -!
#24
b00000000000000000000000000101000 #
b00000000000000000000000000101000 $
b00000010110101100000000001100011 &
b00000000000000000000000000110000 '
b00000000000000000000000000101100 (
b1100011 )
0-
b1111 .
0/
b010 0
11
b01100 8
b01101 9
b0000001011010110000000000 =
b00000000000000000000000000100000 >
b00000000000000000000000000101000 D
0+!
b00000000000000000000000000001010 .!
#25
b00000000000000000000000000110100 d
b00000000000000000000000000110000 e
b00000000101000000000010110010011 f
1+!
b00000000000000000000000000110100 -!
#26
b00000000000000000000000001001100 #
b00000000000000000000000001001100 $
b00000000101000000000010110010011 &
b00000000000000000000000000110100 '
b00000000000000000000000000110000 (
b0010011 )
1-
b0000 .
1/
b000 0
01
b00000 8
b01010 9
b01011 :
b0000000010100000000001011 =
b00000000000000000000000000001010 >
1A
b1111 B
b00000000000000000000000000101100 D
b00000000000000000000000000001010 E
b00000000000000000000000000100000 H
0M
0P
0+!
b00000000000000000000000000000000 .!
b00000000000000000000000000001010 /!
#27
b00000000000000000000000000111000 d
b00000000000000000000000000110100 e
b00000000000000000000000000010011 f
1+!
b00000000000000000000000000111000 -!
#28
b00000000000000000000000000111010 #
b00000000000000000000000000111010 $
b00000000000000000000000000010011 &
b00000000000000000000000000111000 '
b00000000000000000000000000110100 (
b00000 9
b00000 :
b0000000000000000000000000 =
b00000000000000000000000000000000 >
0A
b0000 B
b00000000000000000000000000110000 D
b00000000000000000000000000000000 E
b00000000000000000000000000001010 F
b00000000000000000000000000001010 H
1M
b01011 N
b00000000000000000000000000001010 O
0X
b00000000000000000000000000001000 b
b10 c
0+!
b00000000000000000000000000000000 /!
#29
b00000000000000000000000000111100 d
b00000000000000000000000000111000 e
1+!
b00000000000000000000000000111100 -!
#30
b00000000000000000000000000110100 #
b00000000000000000000000000110100 $
b00000000000000000000000000111100 '
b00000000000000000000000000111000 (
b00000000000000000000000000110100 D
b00000000000000000000000000000000 F
b00000000000000000000000000000000 H
b00000 N
b00000000000000000000000000000000 O
1P
b00000000000000000000000000001010 S
1X
b01011 Y
0^
b00000000000000000000000000000000 b
b00 c
0+!
#31
b00000000000000000000000001000000 d
b00000000000000000000000000111100 e
1+!
b00000000000000000000000001000000 -!
#32
b00000000000000000000000000111000 #
b00000000000000000000000000111000 $
b00000000000000000000000001000000 '
b00000000000000000000000000111100 (
b00000000000000000000000000001010 ;
b00000000000000000000000000001010 <
b00000000000000000000000000111000 D
b00000000000000000000000000000000 S
b00000 Y
b00000000000000000000000000001010 [
1^
b01011 _
0+!
#33
b00000000000000000000000001000100 d
b00000000000000000000000001000000 e
b00000000000000000000000000001010 r
1+!
b00000000000000000000000001000100 -!
#34
b00000000000000000000000000111100 #
b00000000000000000000000000111100 $
b00000000000000000000000001000100 '
b00000000000000000000000001000000 (
b00000000000000000000000000000000 ;
b00000000000000000000000000000000 <
b00000000000000000000000000111100 D
b00000000000000000000000000000000 [
b00000 _
0+!
#35
b00000000000000000000000001001000 d
b00000000000000000000000001000100 e
1+!
b00000000000000000000000001001000 -!
#36
b00000000000000000000000001000000 #
b00000000000000000000000001000000 $
b00000000000000000000000001001000 '
b00000000000000000000000001000100 (
b00000000000000000000000001000000 D
0+!
#37
b00000000000000000000000001001100 d
b00000000000000000000000001001000 e
b00000010101101100000101001100011 f
1+!
b00000000000000000000000001001100 -!
#38
b00000000000000000000000001000100 #
b00000000000000000000000001000100 $
b00000010101101100000101001100011 &
b00000000000000000000000001001100 '
b00000000000000000000000001001000 (
b1100011 )
0-
b1111 .
0/
b010 0
11
b01100 8
b01011 9
b10100 :
b0000001010110110000010100 =
b00000000000000000000000000110100 >
b00000000000000000000000001000100 D
0+!
b00000000000000000000000000001010 .!
b00000000000000000000000000001010 /!
b00000000000000000000000000001010 0!
b00000000000000000000000000001010 1!
#39
b00000000000000000000000001010000 d
b00000000000000000000000001001100 e
b00000000000000000000000000010011 f
1+!
b00000000000000000000000001010000 -!
#40
b00000000000000000000000001111100 #
b00000000000000000000000001111100 $
1%
b00000000000000000000000000010011 &
b00000000000000000000000001010000 '
b00000000000000000000000001001100 (
b0010011 )
1-
b0000 .
1/
b000 0
01
b00000 8
b00000 9
b00000 :
b0000000000000000000000000 =
b00000000000000000000000000000000 >
1A
b1111 B
b00000000000000000000000001001000 D
b00000000000000000000000000001010 E
b00000000000000000000000000001010 F
b00000000000000000000000000001010 G
b00000000000000000000000000110100 H
0M
b10100 N
0+!
b00000000000000000000000001111100 -!
b00000000000000000000000000000000 .!
b00000000000000000000000000000000 /!
b00000000000000000000000000000000 0!
b00000000000000000000000000000000 1!
#41
b00000000000000000000000010000000 d
b00000000000000000000000001111100 e
1+!
#42
b00000000000000000000000001001100 #
b00000000000000000000000001001100 $
0%
b00000000000000000000000010000000 '
b00000000000000000000000001111100 (
0A
b0000 B
b00000000000000000000000001001100 D
b00000000000000000000000000000000 E
b00000000000000000000000000000000 F
b00000000000000000000000000000000 G
b00000000000000000000000000000000 H
1M
b00000 N
b00000000000000000000000000001010 T
0X
b10100 Y
0+!
b00000000000000000000000010000000 -!
#43
b00000000000000000000000010000100 d
b00000000000000000000000010000000 e
1+!
b00000000000000000000000010000100 -!
#44
b00000000000000000000000001111100 #
b00000000000000000000000001111100 $
b00000000000000000000000010000100 '
b00000000000000000000000010000000 (
b00000000000000000000000001111100 D
b00000000000000000000000000000000 T
1X
b00000 Y
0^
b10100 _
0+!
#45
b00000000000000000000000010001000 d
b00000000000000000000000010000100 e
1+!
b00000000000000000000000010001000 -!
#46
b00000000000000000000000010000000 #
b00000000000000000000000010000000 $
b00000000000000000000000010001000 '
b00000000000000000000000010000100 (
b00000000000000000000000010000000 D
1^
b00000 _
0+!
#47
b00000000000000000000000010001100 d
b00000000000000000000000010001000 e
1+!
b00000000000000000000000010001100 -!
#48
b00000000000000000000000010000100 #
b00000000000000000000000010000100 $
b00000000000000000000000010001100 '
b00000000000000000000000010001000 (
b00000000000000000000000010000100 D
0+!
#49
b00000000000000000000000010010000 d
b00000000000000000000000010001100 e
1+!
b00000000000000000000000010010000 -!
#50
b00000000000000000000000010001000 #
b00000000000000000000000010001000 $
b00000000000000000000000010010000 '
b00000000000000000000000010001100 (
b00000000000000000000000010001000 D
0+!
#51
b00000000000000000000000010010100 d
b00000000000000000000000010010000 e
b00000010101101100001000001100011 f
1+!
b00000000000000000000000010010100 -!
#52
b00000000000000000000000010001100 #
b00000000000000000000000010001100 $
b00000010101101100001000001100011 &
b00000000000000000000000010010100 '
b00000000000000000000000010010000 (
b1100011 )
b001 *
0-
b1111 .
0/
b010 0
11
b01100 8
b01011 9
b0000001010110110000100000 =
b00000000000000000000000000100000 >
b00000000000000000000000010001100 D
0+!
b00000000000000000000000000001010 .!
b00000000000000000000000000001010 /!
b00000000000000000000000000001010 0!
b00000000000000000000000000001010 1!
#53
b00000000000000000000000010011000 d
b00000000000000000000000010010100 e
b00000000000000000000010110010011 f
1+!
b00000000000000000000000010011000 -!
#54
b00000000000000000000000010110000 #
b00000000000000000000000010110000 $
b00000000000000000000010110010011 &
b00000000000000000000000010011000 '
b00000000000000000000000010010100 (
b0010011 )
b000 *
1-
b0000 .
1/
b000 0
01
b00000 8
b00000 9
b01011 :
b0000000000000000000001011 =
b00000000000000000000000000000000 >
1A
b1111 B
b00000000000000000000000010010000 D
b00000000000000000000000000001010 E
b00000000000000000000000000001010 F
b00000000000000000000000000001010 G
b00000000000000000000000000100000 H
b001 I
0M
0P
0+!
b00000000000000000000000000000000 .!
b00000000000000000000000000000000 /!
b00000000000000000000000000000000 0!
b00000000000000000000000000000000 1!
#55
b00000000000000000000000010011100 d
b00000000000000000000000010011000 e
b00000000000000000000000000010011 f
1+!
b00000000000000000000000010011100 -!
#56
b00000000000000000000000010010100 #
b00000000000000000000000010010100 $
b00000000000000000000000000010011 &
b00000000000000000000000010011100 '
b00000000000000000000000010011000 (
b00000 :
b0000000000000000000000000 =
0A
b0000 B
b00000000000000000000000010010100 D
b00000000000000000000000000000000 E
b00000000000000000000000000000000 F
b00000000000000000000000000000000 G
b00000000000000000000000000000000 H
b000 I
1M
b01011 N
1P
b00000000000000000000000000001010 T
0X
0+!
#57
b00000000000000000000000010100000 d
b00000000000000000000000010011100 e
1+!
b00000000000000000000000010100000 -!
#58
b00000000000000000000000010011000 #
b00000000000000000000000010011000 $
b00000000000000000000000010100000 '
b00000000000000000000000010011100 (
b00000000000000000000000010011000 D
b00000 N
b00000000000000000000000000000000 T
1X
b01011 Y
0^
0+!
#59
b00000000000000000000000010100100 d
b00000000000000000000000010100000 e
1+!
b00000000000000000000000010100100 -!
#60
b00000000000000000000000010011100 #
b00000000000000000000000010011100 $
b00000000000000000000000010100100 '
b00000000000000000000000010100000 (
b00000000000000000000000010011100 D
b00000 Y
1^
b01011 _
0+!
#61
b00000000000000000000000010101000 d
b00000000000000000000000010100100 e
b00000000000000000000000000000000 r
1+!
b00000000000000000000000010101000 -!
#62
b00000000000000000000000010100000 #
b00000000000000000000000010100000 $
b00000000000000000000000010101000 '
b00000000000000000000000010100100 (
b00000000000000000000000010100000 D
b00000 _
0+!
#63
b00000000000000000000000010101100 d
b00000000000000000000000010101000 e
1+!
b00000000000000000000000010101100 -!
#64
b00000000000000000000000010100100 #
b00000000000000000000000010100100 $
b00000000000000000000000010101100 '
b00000000000000000000000010101000 (
b00000000000000000000000010100100 D
0+!
#65
b00000000000000000000000010110000 d
b00000000000000000000000010101100 e
b00000010101101100001000001100011 f
1+!
b00000000000000000000000010110000 -!
#66
b00000000000000000000000010101000 #
b00000000000000000000000010101000 $
b00000010101101100001000001100011 &
b00000000000000000000000010110000 '
b00000000000000000000000010101100 (
b1100011 )
b001 *
0-
b1111 .
0/
b010 0
11
b01100 8
b01011 9
b0000001010110110000100000 =
b00000000000000000000000000100000 >
b00000000000000000000000010101000 D
0+!
b00000000000000000000000000001010 .!
#67
b00000000000000000000000010110100 d
b00000000000000000000000010110000 e
b00000000000000000000000000010011 f
1+!
b00000000000000000000000010110100 -!
#68
b00000000000000000000000011001100 #
b00000000000000000000000011001100 $
1%
b00000000000000000000000000010011 &
b00000000000000000000000010110100 '
b00000000000000000000000010110000 (
b0010011 )
b000 *
1-
b0000 .
1/
b000 0
01
b00000 8
b00000 9
b0000000000000000000000000 =
b00000000000000000000000000000000 >
1A
b1111 B
b00000000000000000000000010101100 D
b00000000000000000000000000001010 E
b00000000000000000000000000100000 H
b001 I
0M
0+!
b00000000000000000000000011001100 -!
b00000000000000000000000000000000 .!
#69
b00000000000000000000000011010000 d
b00000000000000000000000011001100 e
1+!
#70
b00000000000000000000000010110000 #
b00000000000000000000000010110000 $
0%
b00000000000000000000000011010000 '
b00000000000000000000000011001100 (
0A
b0000 B
b00000000000000000000000010110000 D
b00000000000000000000000000000000 E
b00000000000000000000000000000000 H
b000 I
1M
0X
0+!
b00000000000000000000000011010000 -!
