BranchTests/BranchTest.vcd
$version Generated by VerilatedVcd $end
$date Thu Dec  8 01:33:13 2022 $end
$timescale 1ps $end

 $scope module TOP $end
  $var wire 32 _ ALUResultWire [31:0] $end
  $var wire 32 ^ Aluop2Wire [31:0] $end
  $var wire 32 Q InstructionWire [31:0] $end
  $var wire 32 P PC_wire [31:0] $end
  $var wire 32 ] RD1Wire [31:0] $end
  $var wire  1 O clk $end
  $var wire 32 Z data_out [31:0] $end
  $var wire 32 [ data_out1 [31:0] $end
  $var wire 32 \ data_out2 [31:0] $end
  $var wire  3 S funct3 [2:0] $end
  $var wire  1 T funct7 $end
  $var wire  7 R opcode [6:0] $end
  $var wire  5 W rdWire [4:0] $end
  $var wire  5 U rs1Wire [4:0] $end
  $var wire  5 V rs2Wire [4:0] $end
  $var wire  1 M rst $end
  $var wire  1 N trigger_i $end
  $var wire 32 X wd3Wire [31:0] $end
  $var wire 32 Y wd3Wire0 [31:0] $end
  $scope module top $end
   $var wire 32 _ ALUResultWire [31:0] $end
   $var wire  4 & ALUctrlWire [3:0] $end
   $var wire  1 g ALUsrcWire $end
   $var wire 32 ^ Aluop2Wire [31:0] $end
   $var wire  1 h BranchSrcWire $end
   $var wire 32 k DW [31:0] $end
   $var wire  3 ' ImmSrcWire [2:0] $end
   $var wire 32 * ImmediateExtendWire [31:0] $end
   $var wire 25 j ImmediateWire [24:0] $end
   $var wire 32 Q InstructionWire [31:0] $end
   $var wire  1 ) JALWire $end
   $var wire 32 P PC_wire [31:0] $end
   $var wire  1 d PCsrcWire $end
   $var wire 32 ] RD1Wire [31:0] $end
   $var wire 32 $ RD2Wire [31:0] $end
   $var wire 32 + RamOutWire [31:0] $end
   $var wire  1 i ResultSrcWire $end
   $var wire  1 ( addrSelectWire $end
   $var wire  1 % branchWire $end
   $var wire 32 a branch_PC [31:0] $end
   $var wire  1 O clk $end
   $var wire 32 Z data_out [31:0] $end
   $var wire 32 [ data_out1 [31:0] $end
   $var wire 32 \ data_out2 [31:0] $end
   $var wire  3 S funct3 [2:0] $end
   $var wire  1 T funct7 $end
   $var wire 32 ` inc_PC [31:0] $end
   $var wire 32 c jump_PC [31:0] $end
   $var wire  1 e memWrite_enWire $end
   $var wire 32 b next_PC [31:0] $end
   $var wire  7 R opcode [6:0] $end
   $var wire  5 W rdWire [4:0] $end
   $var wire  1 f regWrite_enWire $end
   $var wire  5 U rs1Wire [4:0] $end
   $var wire  5 V rs2Wire [4:0] $end
   $var wire  1 M rst $end
   $var wire  1 N trigger_i $end
   $var wire 32 X wd3Wire [31:0] $end
   $var wire 32 Y wd3Wire0 [31:0] $end
   $scope module ALU $end
    $var wire 32 _ ALUResult_o [31:0] $end
    $var wire  4 & ALUctrl_i [3:0] $end
    $var wire  3 S BranchCtrl_i [2:0] $end
    $var wire  1 % Branch_o $end
    $var wire 32 k DATAWIDTH [31:0] $end
    $var wire 32 l SHIFT_WIDTH [31:0] $end
    $var wire 32 ] SrcA_Signed [31:0] $end
    $var wire 32 ] SrcA_i [31:0] $end
    $var wire 32 ^ SrcB_Signed [31:0] $end
    $var wire 32 ^ SrcB_i [31:0] $end
    $var wire  1 , overwrite_branch_o $end
   $upscope $end
   $scope module PC $end
    $var wire 32 k DW [31:0] $end
    $var wire 32 b PC_i [31:0] $end
    $var wire 32 P PC_o [31:0] $end
    $var wire  1 O clk $end
    $var wire  1 M rst $end
   $upscope $end
   $scope module control $end
    $var wire  4 & ALUctrl_o [3:0] $end
    $var wire  1 g ALUsrc_o $end
    $var wire  1 h BranchSrc_o $end
    $var wire  3 ' ImmSrc_o [2:0] $end
    $var wire  1 i ResultSrc_o $end
    $var wire  1 ( addrSelect_o $end
    $var wire  3 S funct3_i [2:0] $end
    $var wire  1 T funct7bit_i $end
    $var wire  1 ) jal_o $end
    $var wire  1 e memWrite_en_o $end
    $var wire  7 R op_i [6:0] $end
    $var wire  1 f regWrite_en_o $end
   $upscope $end
   $scope module extend $end
    $var wire 32 k DATAWIDTH [31:0] $end
    $var wire 32 * ImmExt_o [31:0] $end
    $var wire  3 ' ImmSrc_i [2:0] $end
    $var wire 25 j Imm_i [31:7] $end
   $upscope $end
   $scope module ram $end
    $var wire  1 ( AddrsCtrl_i $end
    $var wire 32 m DATA_W [31:0] $end
    $var wire 32 k WIDTH [31:0] $end
    $var wire 32 _ a_i [31:0] $end
    $var wire  1 O clk_i $end
    $var wire 32 + rd_o [31:0] $end
    $var wire 32 $ wd_i [31:0] $end
    $var wire  1 e write_en_i $end
   $upscope $end
   $scope module register_file $end
    $var wire  5 U AD1_i [4:0] $end
    $var wire  5 V AD2_i [4:0] $end
    $var wire  5 W AD3_i [4:0] $end
    $var wire 32 l ADDRESS_WIDTH [31:0] $end
    $var wire 32 k DATA_WIDTH [31:0] $end
    $var wire 32 ] RD1_o [31:0] $end
    $var wire 32 $ RD2_o [31:0] $end
    $var wire  1 N TRIGGER_i $end
    $var wire 32 X WD3_i [31:0] $end
    $var wire  1 f WE3_i $end
    $var wire 32 Z a0_o [31:0] $end
    $var wire 32 n a1 [31:0] $end
    $var wire 32 [ a1_o [31:0] $end
    $var wire 32 \ a2_o [31:0] $end
    $var wire  1 O clk $end
    $var wire 32 - register_array[0] [31:0] $end
    $var wire 32 7 register_array[10] [31:0] $end
    $var wire 32 8 register_array[11] [31:0] $end
    $var wire 32 9 register_array[12] [31:0] $end
    $var wire 32 : register_array[13] [31:0] $end
    $var wire 32 ; register_array[14] [31:0] $end
    $var wire 32 < register_array[15] [31:0] $end
    $var wire 32 = register_array[16] [31:0] $end
    $var wire 32 > register_array[17] [31:0] $end
    $var wire 32 ? register_array[18] [31:0] $end
    $var wire 32 @ register_array[19] [31:0] $end
    $var wire 32 . register_array[1] [31:0] $end
    $var wire 32 A register_array[20] [31:0] $end
    $var wire 32 B register_array[21] [31:0] $end
    $var wire 32 C register_array[22] [31:0] $end
    $var wire 32 D register_array[23] [31:0] $end
    $var wire 32 E register_array[24] [31:0] $end
    $var wire 32 F register_array[25] [31:0] $end
    $var wire 32 G register_array[26] [31:0] $end
    $var wire 32 H register_array[27] [31:0] $end
    $var wire 32 I register_array[28] [31:0] $end
    $var wire 32 J register_array[29] [31:0] $end
    $var wire 32 / register_array[2] [31:0] $end
    $var wire 32 K register_array[30] [31:0] $end
    $var wire 32 L register_array[31] [31:0] $end
    $var wire 32 0 register_array[3] [31:0] $end
    $var wire 32 1 register_array[4] [31:0] $end
    $var wire 32 2 register_array[5] [31:0] $end
    $var wire 32 3 register_array[6] [31:0] $end
    $var wire 32 4 register_array[7] [31:0] $end
    $var wire 32 5 register_array[8] [31:0] $end
    $var wire 32 6 register_array[9] [31:0] $end
    $scope module unnamedblk1 $end
     $var wire 32 # i [31:0] $end
    $upscope $end
   $upscope $end
   $scope module rom $end
    $var wire 32 m DATA_W [31:0] $end
    $var wire 32 k WIDTH [31:0] $end
    $var wire 32 P a_i [31:0] $end
    $var wire 32 Q rd_o [31:0] $end
   $upscope $end
  $upscope $end
 $upscope $end
$enddefinitions $end


#52
b00000000000000000000000000000000 #
b00000000000000000000000000000000 $
0%
b0000 &
b000 '
0(
0)
b00000000000000000000000000000000 *
b00000000000000000000000000000000 +
0,
b00000000000000000000000000000000 -
b00000000000000000000000000000000 .
b00000000000000000000000000000000 /
b00000000000000000000000000000000 0
b00000000000000000000000000000000 1
b00000000000000000000000000000000 2
b00000000000000000000000000000000 3
b00000000000000000000000000000000 4
b00000000000000000000000000000000 5
b00000000000000000000000000000000 6
b00000000000000000000000000000000 7
b00000000000000000000000000000000 8
b00000000000000000000000000000000 9
b00000000000000000000000000000000 :
b00000000000000000000000000000000 ;
b00000000000000000000000000000000 <
b00000000000000000000000000000000 =
b00000000000000000000000000000000 >
b00000000000000000000000000000000 ?
b00000000000000000000000000000000 @
b00000000000000000000000000000000 A
b00000000000000000000000000000000 B
b00000000000000000000000000000000 C
b00000000000000000000000000000000 D
b00000000000000000000000000000000 E
b00000000000000000000000000000000 F
b00000000000000000000000000000000 G
b00000000000000000000000000000000 H
b00000000000000000000000000000000 I
b00000000000000000000000000000000 J
b00000000000000000000000000000000 K
b00000000000000000000000000000000 L
0M
0N
0O
b00000000000000000000000000000000 P
b00000000000000000000000000000000 Q
b0000000 R
b000 S
0T
b00000 U
b00000 V
b00000 W
b00000000000000000000000000000000 X
b00000000000000000000000000000000 Y
b00000000000000000000000000000000 Z
b00000000000000000000000000000000 [
b00000000000000000000000000000000 \
b00000000000000000000000000000000 ]
b00000000000000000000000000000000 ^
b00000000000000000000000000000000 _
b00000000000000000000000000000100 `
b00000000000000000000000000000000 a
b00000000000000000000000000000100 b
b00000000000000000000000000000000 c
0d
0e
0f
0g
0h
0i
b0000000000000000000000000 j
b00000000000000000000000000100000 k
b00000000000000000000000000000101 l
b00000000000000000000000000001000 m
b00000000000000000000000000000000 n
#53
b00000000000000000000000000100000 #
b00000000000000000000000000001010 *
b00000000000000000000000001100110 +
1O
b00000000101000000000011000010011 Q
b0010011 R
b01010 V
b01100 W
b00000000000000000000000000001010 X
b00000000000000000000000000001010 Y
b00000000000000000000000000001010 ^
b00000000000000000000000000001010 _
b00000000000000000000000000001010 a
b00000000000000000000000000001010 c
1f
1g
b0000000010100000000001100 j
#54
0O
#55
b010 '
b00000000000000000000000000001100 *
b00000000000000000000000000001010 9
1O
b00000000000000000000000000000100 P
b00000000110101100000011001100011 Q
b1100011 R
b01100 U
b01101 V
b00000000000000000000000000001010 [
b00000000000000000000000000001010 ]
b00000000000000000000000000000000 ^
b00000000000000000000000000001000 `
b00000000000000000000000000010000 a
b00000000000000000000000000001000 b
b00000000000000000000000000010000 c
0f
0g
1h
b0000000011010110000001100 j
#56
0O
#57
b000 '
b00000000000000000000000000001010 *
1O
b00000000000000000000000000001000 P
b00000000101000000000010110010011 Q
b0010011 R
b00000 U
b01010 V
b01011 W
b00000000000000000000000000000000 ]
b00000000000000000000000000001010 ^
b00000000000000000000000000001100 `
b00000000000000000000000000010010 a
b00000000000000000000000000001100 b
b00000000000000000000000000010010 c
1f
1g
0h
b0000000010100000000001011 j
#58
0O
#59
b00000000000000000000000000001010 $
1%
b010 '
b00000000000000000000000000001100 *
b00000000000000000000000000000000 +
b00000000000000000000000000001010 8
1O
b00000000000000000000000000001100 P
b00000000101101100000011001100011 Q
b1100011 R
b01100 U
b01011 V
b01100 W
b00000000000000000000000000010100 X
b00000000000000000000000000010100 Y
b00000000000000000000000000001010 Z
b00000000000000000000000000001010 ]
b00000000000000000000000000010100 _
b00000000000000000000000000010000 `
b00000000000000000000000000011000 a
b00000000000000000000000000011000 b
b00000000000000000000000000011000 c
1d
0f
0g
1h
b0000000010110110000001100 j
#60
0O
#61
0%
1O
b00000000000000000000000000011000 P
b00000000101101100001011001100011 Q
b001 S
b00000000000000000000000000011100 `
b00000000000000000000000000100100 a
b00000000000000000000000000011100 b
b00000000000000000000000000100100 c
0d
b0000000010110110000101100 j
#62
0O
#63
b00000000000000000000000000000000 $
1%
b000 '
b00000000000000000000000000000000 *
b11111111111111111111111111011101 +
1O
b00000000000000000000000000011100 P
b00000000000000000000010110010011 Q
b0010011 R
b000 S
b00000 U
b00000 V
b01011 W
b00000000000000000000000000000000 X
b00000000000000000000000000000000 Y
b00000000000000000000000000000000 ]
b00000000000000000000000000000000 ^
b00000000000000000000000000000000 _
b00000000000000000000000000100000 `
b00000000000000000000000000011100 a
b00000000000000000000000000100000 b
b00000000000000000000000000011100 c
1f
1g
0h
b0000000000000000000001011 j
#64
0O
#65
b010 '
b00000000000000000000000000001100 *
b00000000000000000000000001100110 +
b00000000000000000000000000000000 8
1O
b00000000000000000000000000100000 P
b00000000101101100001011001100011 Q
b1100011 R
b001 S
b01100 U
b01011 V
b01100 W
b00000000000000000000000000001010 X
b00000000000000000000000000001010 Y
b00000000000000000000000000000000 Z
b00000000000000000000000000001010 ]
b00000000000000000000000000001010 _
b00000000000000000000000000100100 `
b00000000000000000000000000101100 a
b00000000000000000000000000101100 b
b00000000000000000000000000101100 c
1d
0f
0g
1h
b0000000010110110000101100 j
#66
0O
#67
0%
b00000000000000000000000000010000 *
1O
b00000000000000000000000000101100 P
b00000000101101100100100001100011 Q
b100 S
b10000 W
b00000000000000000000000000110000 `
b00000000000000000000000000111100 a
b00000000000000000000000000110000 b
b00000000000000000000000000111100 c
0d
b0000000010110110010010000 j
#68
0O
#69
b000 '
b00000000000000000000000000010100 *
b00000000000000000000000000000000 +
1O
b00000000000000000000000000110000 P
b00000001010000000000011100010011 Q
b0010011 R
b000 S
b00000 U
b10100 V
b01110 W
b00000000000000000000000000010100 X
b00000000000000000000000000010100 Y
b00000000000000000000000000000000 ]
b00000000000000000000000000010100 ^
b00000000000000000000000000010100 _
b00000000000000000000000000110100 `
b00000000000000000000000001000100 a
b00000000000000000000000000110100 b
b00000000000000000000000001000100 c
1f
1g
0h
b0000000101000000000001110 j
#70
0O
#71
b00000000000000000000000000010100 $
b0001 &
b00000000000000000000010000001110 *
b00000000000000000000000000010100 ;
1O
b00000000000000000000000000110100 P
b01000000111001100000011000110011 Q
b0110011 R
1T
b01100 U
b01110 V
b01100 W
b11111111111111111111111111110110 X
b11111111111111111111111111110110 Y
b00000000000000000000000000001010 ]
b11111111111111111111111111110110 _
b00000000000000000000000000111000 `
b00000000000000000000010001000010 a
b00000000000000000000000000111000 b
b00000000000000000000010001000010 c
0g
b0100000011100110000001100 j
#72
0O
#73
b00000000000000000000000000000000 $
1%
b010 '
b00000000000000000000000000001100 *
b11111111111111111111111111110110 9
1O
b00000000000000000000000000111000 P
b00000000101101100100011001100011 Q
b1100011 R
b100 S
0T
b01011 V
b11111111111111111111111111110110 [
b11111111111111111111111111110110 ]
b00000000000000000000000000000000 ^
b00000000000000000000000000111100 `
b00000000000000000000000001000100 a
b00000000000000000000000001000100 b
b00000000000000000000000001000100 c
1d
0f
1h
b0000000010110110010001100 j
#74
0O
#75
0%
b00000000000000000000000000010000 *
1O
b00000000000000000000000001000100 P
b00000000101101100101100001100011 Q
b101 S
b10000 W
b00000000000000000000000001001000 `
b00000000000000000000000001010100 a
b00000000000000000000000001001000 b
b00000000000000000000000001010100 c
0d
b0000000010110110010110000 j
#76
0O
#77
b0000 &
b000 '
b00000000000000000000000000010100 *
1O
b00000000000000000000000001001000 P
b00000001010000000000011100010011 Q
b0010011 R
b000 S
b00000 U
b10100 V
b01110 W
b00000000000000000000000000010100 X
b00000000000000000000000000010100 Y
b00000000000000000000000000000000 ]
b00000000000000000000000000010100 ^
b00000000000000000000000000010100 _
b00000000000000000000000001001100 `
b00000000000000000000000001011100 a
b00000000000000000000000001001100 b
b00000000000000000000000001011100 c
1f
1g
0h
b0000000101000000000001110 j
#78
0O
#79
b00000000000000000000000000010100 $
b0001 &
b00000000000000000000010000001110 *
1O
b00000000000000000000000001001100 P
b01000000111001011000010110110011 Q
b0110011 R
1T
b01011 U
b01110 V
b01011 W
b11111111111111111111111111101100 X
b11111111111111111111111111101100 Y
b11111111111111111111111111101100 _
b00000000000000000000000001010000 `
b00000000000000000000010001011010 a
b00000000000000000000000001010000 b
b00000000000000000000010001011010 c
0g
b0100000011100101100001011 j
#80
0O
#81
b11111111111111111111111111101100 $
1%
b010 '
b00000000000000000000000000001100 *
b11111111111111111111111111011101 +
b11111111111111111111111111101100 8
1O
b00000000000000000000000001010000 P
b00000000101101011101011001100011 Q
b1100011 R
b101 S
0T
b01011 V
b01100 W
b00000000000000000000000000000000 X
b00000000000000000000000000000000 Y
b11111111111111111111111111101100 Z
b11111111111111111111111111101100 ]
b11111111111111111111111111101100 ^
b00000000000000000000000000000000 _
b00000000000000000000000001010100 `
b00000000000000000000000001011100 a
b00000000000000000000000001011100 b
b00000000000000000000000001011100 c
1d
0f
1h
b0000000010110101110101100 j
#82
0O
#83
b00000000000000000000000000000000 $
0%
b0000 &
b000 '
b00000000000000000000000000001010 *
b00000000000000000000000001100110 +
1O
b00000000000000000000000001011100 P
b00000000101000000000010110010011 Q
b0010011 R
b000 S
b00000 U
b01010 V
b01011 W
b00000000000000000000000000001010 X
b00000000000000000000000000001010 Y
b00000000000000000000000000000000 ]
b00000000000000000000000000001010 ^
b00000000000000000000000000001010 _
b00000000000000000000000001100000 `
b00000000000000000000000001100110 a
b00000000000000000000000001100000 b
b00000000000000000000000001100110 c
0d
1f
1g
0h
b0000000010100000000001011 j
#84
0O
#85
b00000000000000000000000000010100 *
b00000000000000000000000000000000 +
b00000000000000000000000000001010 8
1O
b00000000000000000000000001100000 P
b00000001010000000000011000010011 Q
b10100 V
b01100 W
b00000000000000000000000000010100 X
b00000000000000000000000000010100 Y
b00000000000000000000000000001010 Z
b00000000000000000000000000010100 ^
b00000000000000000000000000010100 _
b00000000000000000000000001100100 `
b00000000000000000000000001110100 a
b00000000000000000000000001100100 b
b00000000000000000000000001110100 c
b0000000101000000000001100 j
#86
0O
#87
b00000000000000000000000000001010 $
b010 '
b00000000000000000000000000001000 *
b00000000000000000000000000010100 9
1O
b00000000000000000000000001100100 P
b00000000101101100110010001100011 Q
b1100011 R
b110 S
b01100 U
b01011 V
b01000 W
b00000000000000000000000000011110 X
b00000000000000000000000000011110 Y
b00000000000000000000000000010100 [
b00000000000000000000000000010100 ]
b00000000000000000000000000001010 ^
b00000000000000000000000000011110 _
b00000000000000000000000001101000 `
b00000000000000000000000001101100 a
b00000000000000000000000001101000 b
b00000000000000000000000001101100 c
0f
0g
1h
b0000000010110110011001000 j
#88
0O
#89
b00000000000000000000000000010100 $
1%
b00000000000000000000000000001100 *
1O
b00000000000000000000000001101000 P
b00000000110001011110011001100011 Q
b01011 U
b01100 V
b01100 W
b00000000000000000000000000001010 ]
b00000000000000000000000000010100 ^
b00000000000000000000000001101100 `
b00000000000000000000000001110100 a
b00000000000000000000000001110100 b
b00000000000000000000000001110100 c
1d
b0000000011000101111001100 j
#90
0O
#91
0%
b00000000000000000000000000001000 *
1O
b00000000000000000000000001110100 P
b00000000110001011111010001100011 Q
b111 S
b01000 W
b00000000000000000000000001111000 `
b00000000000000000000000001111100 a
b00000000000000000000000001111000 b
b00000000000000000000000001111100 c
0d
b0000000011000101111101000 j
#92
0O
#93
b00000000000000000000000000001010 $
1%
b00000000000000000000000000001100 *
1O
b00000000000000000000000001111000 P
b00000000101101100111011001100011 Q
b01100 U
b01011 V
b01100 W
b00000000000000000000000000010100 ]
b00000000000000000000000000001010 ^
b00000000000000000000000001111100 `
b00000000000000000000000010000100 a
b00000000000000000000000010000100 b
b00000000000000000000000010000100 c
1d
b0000000010110110011101100 j
#94
0O
#95
b00000000000000000000000000000000 $
b000 '
b00000000000000000000000000000000 *
b11111111111111111111111111011101 +
1O
b00000000000000000000000010000100 P
b00000000000000000000000000010011 Q
b0010011 R
b000 S
b00000 U
b00000 V
b00000 W
b00000000000000000000000000000000 X
b00000000000000000000000000000000 Y
b00000000000000000000000000000000 ]
b00000000000000000000000000000000 ^
b00000000000000000000000000000000 _
b00000000000000000000000010001000 `
b00000000000000000000000010001000 b
0d
1f
1g
0h
b0000000000000000000000000 j
#96
0O
#97
1O
b00000000000000000000000010001000 P
b00000000000000000000000000000000 Q
b0000000 R
b00000000000000000000000010001100 `
b00000000000000000000000010001000 a
b00000000000000000000000010001100 b
b00000000000000000000000010001000 c
0f
0g
#98
0O
#99
1O
b00000000000000000000000010001100 P
b00000000000000000000000010010000 `
b00000000000000000000000010001100 a
b00000000000000000000000010010000 b
b00000000000000000000000010001100 c
#100
0O
#101
1O
b00000000000000000000000010010000 P
b00000000000000000000000010010100 `
b00000000000000000000000010010000 a
b00000000000000000000000010010100 b
b00000000000000000000000010010000 c
#102
0O
#103
1O
b00000000000000000000000010010100 P
b00000000000000000000000010011000 `
b00000000000000000000000010010100 a
b00000000000000000000000010011000 b
b00000000000000000000000010010100 c
#104
0O
#105
1O
b00000000000000000000000010011000 P
b00000000000000000000000010011100 `
b00000000000000000000000010011000 a
b00000000000000000000000010011100 b
b00000000000000000000000010011000 c
#106
0O
#107
1O
b00000000000000000000000010011100 P
b00000000000000000000000010100000 `
b00000000000000000000000010011100 a
b00000000000000000000000010100000 b
b00000000000000000000000010011100 c
#108
0O
#109
1O
b00000000000000000000000010100000 P
b00000000000000000000000010100100 `
b00000000000000000000000010100000 a
b00000000000000000000000010100100 b
b00000000000000000000000010100000 c
#110
0O
#111
1O
b00000000000000000000000010100100 P
b00000000000000000000000010101000 `
b00000000000000000000000010100100 a
b00000000000000000000000010101000 b
b00000000000000000000000010100100 c
#112
0O
#113
1O
b00000000000000000000000010101000 P
b00000000000000000000000010101100 `
b00000000000000000000000010101000 a
b00000000000000000000000010101100 b
b00000000000000000000000010101000 c
#114
0O
#115
1O
b00000000000000000000000010101100 P
b00000000000000000000000010110000 `
b00000000000000000000000010101100 a
b00000000000000000000000010110000 b
b00000000000000000000000010101100 c
#116
0O
#117
1O
b00000000000000000000000010110000 P
b00000000000000000000000010110100 `
b00000000000000000000000010110000 a
b00000000000000000000000010110100 b
b00000000000000000000000010110000 c
#118
0O
#119
1O
b00000000000000000000000010110100 P
b00000000000000000000000010111000 `
b00000000000000000000000010110100 a
b00000000000000000000000010111000 b
b00000000000000000000000010110100 c
#120
0O
#121
1O
b00000000000000000000000010111000 P
b00000000000000000000000010111100 `
b00000000000000000000000010111000 a
b00000000000000000000000010111100 b
b00000000000000000000000010111000 c
#122
0O
#123
1O
b00000000000000000000000010111100 P
b00000000000000000000000011000000 `
b00000000000000000000000010111100 a
b00000000000000000000000011000000 b
b00000000000000000000000010111100 c
#124
0O
#125
1O
b00000000000000000000000011000000 P
b00000000000000000000000011000100 `
b00000000000000000000000011000000 a
b00000000000000000000000011000100 b
b00000000000000000000000011000000 c
#126
0O
#127
1O
b00000000000000000000000011000100 P
b00000000000000000000000011001000 `
b00000000000000000000000011000100 a
b00000000000000000000000011001000 b
b00000000000000000000000011000100 c
#128
0O
#129
1O
b00000000000000000000000011001000 P
b00000000000000000000000011001100 `
b00000000000000000000000011001000 a
b00000000000000000000000011001100 b
b00000000000000000000000011001000 c
#130
0O
#131
1O
b00000000000000000000000011001100 P
b00000000000000000000000011010000 `
b00000000000000000000000011001100 a
b00000000000000000000000011010000 b
b00000000000000000000000011001100 c
#132
0O
#133
1O
b00000000000000000000000011010000 P
b00000000000000000000000011010100 `
b00000000000000000000000011010000 a
b00000000000000000000000011010100 b
b00000000000000000000000011010000 c
#134
0O
#135
1O
b00000000000000000000000011010100 P
b00000000000000000000000011011000 `
b00000000000000000000000011010100 a
b00000000000000000000000011011000 b
b00000000000000000000000011010100 c
#136
0O
#137
1O
b00000000000000000000000011011000 P
b00000000000000000000000011011100 `
b00000000000000000000000011011000 a
b00000000000000000000000011011100 b
b00000000000000000000000011011000 c
#138
0O
#139
1O
b00000000000000000000000011011100 P
b00000000000000000000000011100000 `
b00000000000000000000000011011100 a
b00000000000000000000000011100000 b
b00000000000000000000000011011100 c
#140
0O
#141
1O
b00000000000000000000000011100000 P
b00000000000000000000000011100100 `
b00000000000000000000000011100000 a
b00000000000000000000000011100100 b
b00000000000000000000000011100000 c
#142
0O
#143
1O
b00000000000000000000000011100100 P
b00000000000000000000000011101000 `
b00000000000000000000000011100100 a
b00000000000000000000000011101000 b
b00000000000000000000000011100100 c
#144
0O
#145
1O
b00000000000000000000000011101000 P
b00000000000000000000000011101100 `
b00000000000000000000000011101000 a
b00000000000000000000000011101100 b
b00000000000000000000000011101000 c
#146
0O
#147
1O
b00000000000000000000000011101100 P
b00000000000000000000000011110000 `
b00000000000000000000000011101100 a
b00000000000000000000000011110000 b
b00000000000000000000000011101100 c
#148
0O
#149
1O
b00000000000000000000000011110000 P
b00000000000000000000000011110100 `
b00000000000000000000000011110000 a
b00000000000000000000000011110100 b
b00000000000000000000000011110000 c
#150
0O
#151
1O
b00000000000000000000000011110100 P
b00000000000000000000000011111000 `
b00000000000000000000000011110100 a
b00000000000000000000000011111000 b
b00000000000000000000000011110100 c
#152
0O
#153
1O
b00000000000000000000000011111000 P
b00000000000000000000000011111100 `
b00000000000000000000000011111000 a
b00000000000000000000000011111100 b
b00000000000000000000000011111000 c
#154
0O
#155
1O
b00000000000000000000000011111100 P
b00000000000000000000000100000000 `
b00000000000000000000000011111100 a
b00000000000000000000000100000000 b
b00000000000000000000000011111100 c
#156
0O
#157
1O
b00000000000000000000000100000000 P
b00000000000000000000000100000100 `
b00000000000000000000000100000000 a
b00000000000000000000000100000100 b
b00000000000000000000000100000000 c
#158
0O
#159
1O
b00000000000000000000000100000100 P
b00000000000000000000000100001000 `
b00000000000000000000000100000100 a
b00000000000000000000000100001000 b
b00000000000000000000000100000100 c
#160
0O
#161
1O
b00000000000000000000000100001000 P
b00000000000000000000000100001100 `
b00000000000000000000000100001000 a
b00000000000000000000000100001100 b
b00000000000000000000000100001000 c
#162
0O
#163
1O
b00000000000000000000000100001100 P
b00000000000000000000000100010000 `
b00000000000000000000000100001100 a
b00000000000000000000000100010000 b
b00000000000000000000000100001100 c
#164
0O
#165
1O
b00000000000000000000000100010000 P
b00000000000000000000000100010100 `
b00000000000000000000000100010000 a
b00000000000000000000000100010100 b
b00000000000000000000000100010000 c
#166
0O
#167
1O
b00000000000000000000000100010100 P
b00000000000000000000000100011000 `
b00000000000000000000000100010100 a
b00000000000000000000000100011000 b
b00000000000000000000000100010100 c
#168
0O
#169
1O
b00000000000000000000000100011000 P
b00000000000000000000000100011100 `
b00000000000000000000000100011000 a
b00000000000000000000000100011100 b
b00000000000000000000000100011000 c
#170
0O
#171
1O
b00000000000000000000000100011100 P
b00000000000000000000000100100000 `
b00000000000000000000000100011100 a
b00000000000000000000000100100000 b
b00000000000000000000000100011100 c
#172
0O
#173
1O
b00000000000000000000000100100000 P
b00000000000000000000000100100100 `
b00000000000000000000000100100000 a
b00000000000000000000000100100100 b
b00000000000000000000000100100000 c
#174
0O
#175
1O
b00000000000000000000000100100100 P
b00000000000000000000000100101000 `
b00000000000000000000000100100100 a
b00000000000000000000000100101000 b
b00000000000000000000000100100100 c
#176
0O
#177
1O
b00000000000000000000000100101000 P
b00000000000000000000000100101100 `
b00000000000000000000000100101000 a
b00000000000000000000000100101100 b
b00000000000000000000000100101000 c
#178
0O
#179
1O
b00000000000000000000000100101100 P
b00000000000000000000000100110000 `
b00000000000000000000000100101100 a
b00000000000000000000000100110000 b
b00000000000000000000000100101100 c
#180
0O
#181
1O
b00000000000000000000000100110000 P
b00000000000000000000000100110100 `
b00000000000000000000000100110000 a
b00000000000000000000000100110100 b
b00000000000000000000000100110000 c
#182
0O
#183
1O
b00000000000000000000000100110100 P
b00000000000000000000000100111000 `
b00000000000000000000000100110100 a
b00000000000000000000000100111000 b
b00000000000000000000000100110100 c
#184
0O
#185
1O
b00000000000000000000000100111000 P
b00000000000000000000000100111100 `
b00000000000000000000000100111000 a
b00000000000000000000000100111100 b
b00000000000000000000000100111000 c
#186
0O
#187
1O
b00000000000000000000000100111100 P
b00000000000000000000000101000000 `
b00000000000000000000000100111100 a
b00000000000000000000000101000000 b
b00000000000000000000000100111100 c
#188
0O
#189
1O
b00000000000000000000000101000000 P
b00000000000000000000000101000100 `
b00000000000000000000000101000000 a
b00000000000000000000000101000100 b
b00000000000000000000000101000000 c
#190
0O
#191
1O
b00000000000000000000000101000100 P
b00000000000000000000000101001000 `
b00000000000000000000000101000100 a
b00000000000000000000000101001000 b
b00000000000000000000000101000100 c
#192
0O
#193
1O
b00000000000000000000000101001000 P
b00000000000000000000000101001100 `
b00000000000000000000000101001000 a
b00000000000000000000000101001100 b
b00000000000000000000000101001000 c
#194
0O
#195
1O
b00000000000000000000000101001100 P
b00000000000000000000000101010000 `
b00000000000000000000000101001100 a
b00000000000000000000000101010000 b
b00000000000000000000000101001100 c
#196
0O
#197
1O
b00000000000000000000000101010000 P
b00000000000000000000000101010100 `
b00000000000000000000000101010000 a
b00000000000000000000000101010100 b
b00000000000000000000000101010000 c
#198
0O
#199
1O
b00000000000000000000000101010100 P
b00000000000000000000000101011000 `
b00000000000000000000000101010100 a
b00000000000000000000000101011000 b
b00000000000000000000000101010100 c
#200
0O
#201
1O
b00000000000000000000000101011000 P
b00000000000000000000000101011100 `
b00000000000000000000000101011000 a
b00000000000000000000000101011100 b
b00000000000000000000000101011000 c
#202
0O
#203
1O
b00000000000000000000000101011100 P
b00000000000000000000000101100000 `
b00000000000000000000000101011100 a
b00000000000000000000000101100000 b
b00000000000000000000000101011100 c
#204
0O
#205
1O
b00000000000000000000000101100000 P
b00000000000000000000000101100100 `
b00000000000000000000000101100000 a
b00000000000000000000000101100100 b
b00000000000000000000000101100000 c
#206
0O
#207
1O
b00000000000000000000000101100100 P
b00000000000000000000000101101000 `
b00000000000000000000000101100100 a
b00000000000000000000000101101000 b
b00000000000000000000000101100100 c
#208
0O
#209
1O
b00000000000000000000000101101000 P
b00000000000000000000000101101100 `
b00000000000000000000000101101000 a
b00000000000000000000000101101100 b
b00000000000000000000000101101000 c
#210
0O
#211
1O
b00000000000000000000000101101100 P
b00000000000000000000000101110000 `
b00000000000000000000000101101100 a
b00000000000000000000000101110000 b
b00000000000000000000000101101100 c
#212
0O
#213
1O
b00000000000000000000000101110000 P
b00000000000000000000000101110100 `
b00000000000000000000000101110000 a
b00000000000000000000000101110100 b
b00000000000000000000000101110000 c
#214
0O
#215
1O
b00000000000000000000000101110100 P
b00000000000000000000000101111000 `
b00000000000000000000000101110100 a
b00000000000000000000000101111000 b
b00000000000000000000000101110100 c
#216
0O
#217
1O
b00000000000000000000000101111000 P
b00000000000000000000000101111100 `
b00000000000000000000000101111000 a
b00000000000000000000000101111100 b
b00000000000000000000000101111000 c
#218
0O
